#
%NewTest
#
SERIAL NUMBER  : PPB_ABCStar_R2H1_Hybrid0
TEST MADE BY   : TB
LOCATION NAME  : STFC_RAL_R12
Run number     : 149-4
TEST_DATE      : 30/08/2022
PASSED         : YES
PROBLEM        : NO
#
%DAQ_INFO
#
#HOST
"atlasitk1"
#VERSION
"3.43"
#DUT
"ABCStar_Test"
#TIME
"10:50:53"
#
%DCS_INFO
#
#T0	T1
. 	. 	
#VDET	IDET
. 	. 	
#VCC	ICC
. 	. 	
#VDD	IDD
. 	. 	
#TIME_POWERED
. 
#
%StrobeDelay
#
#DELAY
#  M05  S06  S07  S08  S09  E10  X11  X12  X13  X14
21 20 24 21 25 20 -1 -1 -1 -1 -1 -1 -1 -1 -1 -1 
#
#  M05  S06  S07  S08  S09  E10  X11  X12  X13  X14
21 21 24 21 25 20 -1 -1 -1 -1 -1 -1 -1 -1 -1 -1 
#
#No defects found!
%Comment
COMMENT        : Strobe Delay Fraction 0.57
#
#
%NewTest
#
SERIAL NUMBER  : PPB_ABCStar_R2H1_Hybrid0
TEST MADE BY   : TB
LOCATION NAME  : STFC_RAL_R12
Run number     : 149-5
TEST_DATE      : 30/08/2022
PASSED         : NO
PROBLEM        : NO
#
%DAQ_INFO
#
#HOST
"atlasitk1"
#VERSION
"3.43"
#DUT
"ABCStar_Test"
#TIME
"10:51:14"
#
%DCS_INFO
#
#T0	T1
. 	. 	
#VDET	IDET
. 	. 	
#VCC	ICC
. 	. 	
#VDD	IDD
. 	. 	
#TIME_POWERED
. 
#
#
%SCAN_INFO
#
#POINT_TYPE
"QCAL (fC)"
#N_POINTS
3
#POINTS
0.50 	1.00 	1.50 	
#
#
%ThreePointGain
#
#Loop A - Fit
#	func	p0	p1	p2
#M05
	4 	30.46 	66.48 	0.00
#S06
	4 	30.42 	73.15 	0.00
#S07
	4 	31.03 	71.70 	0.00
#S08
	4 	30.32 	70.69 	0.00
#S09
	4 	31.20 	70.72 	0.00
#E10
	4 	30.57 	74.48 	0.00
#M05
	4 	31.20 	66.45 	0.00
#S06
	4 	30.59 	72.90 	0.00
#S07
	4 	31.00 	71.34 	0.00
#S08
	4 	30.88 	70.44 	0.00
#S09
	4 	30.93 	71.13 	0.00
#E10
	4 	31.05 	74.51 	0.00
#
#Loop B - Gain, Offset, Noise at 1.00fC
#	vt50 	rms  	gain	rms 	offset	rms  	outnse	innse	rms
#M05
	 96.0 	 2.43 	66.5 	2.36 	 66.5 	 2.33 	14.72 	 1385 	  87
#S06
	102.6 	 2.21 	73.1 	2.10 	 73.1 	 2.13 	15.03 	 1286 	  88
#S07
	101.6 	 2.19 	71.7 	2.07 	 71.6 	 2.04 	14.80 	 1293 	  78
#S08
	 99.9 	 2.22 	70.7 	2.18 	 70.6 	 2.16 	15.72 	 1391 	  98
#S09
	100.9 	 2.52 	70.7 	2.31 	 70.6 	 2.30 	16.24 	 1436 	  86
#E10
	104.3 	 2.64 	74.5 	2.34 	 74.4 	 2.31 	15.89 	 1334 	  74
#M05
	 96.5 	 2.34 	66.4 	2.14 	 66.4 	 2.13 	14.06 	 1324 	  94
#S06
	102.6 	 2.65 	72.9 	2.12 	 72.8 	 2.14 	14.31 	 1227 	  66
#S07
	101.4 	 2.25 	71.3 	1.98 	 71.3 	 1.97 	14.11 	 1236 	  75
#S08
	100.3 	 2.49 	70.4 	1.98 	 70.4 	 2.03 	14.88 	 1322 	  93
#S09
	101.2 	 2.34 	71.1 	2.22 	 71.1 	 2.22 	15.14 	 1330 	  86
#E10
	104.9 	 2.78 	74.5 	2.36 	 74.5 	 2.38 	14.99 	 1257 	  73
#
#Loop C - Comment
#  M05  S06  S07  S08  S09  E10  X11  X12  X13  X14
"bad noise sigma" 	"bad noise sigma" 	"bad noise sigma" 	"bad noise sigma" 	"bad noise sigma" 	"bad noise sigma" 	
#  M05  S06  S07  S08  S09  E10  X11  X12  X13  X14
"bad noise sigma" 	"bad noise sigma" 	"bad noise sigma" 	"bad noise sigma" 	"bad noise sigma" 	"bad noise sigma" 	
#BadChannelSummary - not for the database
#  at 1.00fC
#		lost	dodgy	dead	stuck	ineff	unbon	lo_gn	hi_gn	lo_off	hi_off	partbon	hi_nse	vlo_gn	vhi_gn	vlo_nse	vhi_nse
#Chip M05:	  0	  4	  0	  0	  0	  0	  0	  0	  0	  0	  0	  4	  0	  0	  0	  0
#Chip S06:	  0	  4	  0	  0	  0	  0	  0	  0	  0	  0	  0	  4	  0	  0	  0	  0
#Chip S07:	  0	  8	  0	  0	  0	  0	  0	  0	  0	  0	  0	  8	  0	  0	  0	  0
#Chip S08:	  0	  2	  0	  0	  0	  0	  0	  0	  0	  0	  0	  2	  0	  0	  0	  0
#Chip S09:	  0	  6	  0	  0	  0	  0	  0	  0	  0	  0	  0	  6	  0	  0	  0	  0
#Chip E10:	  0	  6	  0	  0	  0	  0	  0	  0	  0	  0	  0	  6	  0	  0	  0	  0
#Chip M05:	  0	  6	  0	  0	  0	  0	  0	  0	  0	  0	  0	  6	  0	  0	  0	  0
#Chip S06:	  0	 10	  0	  0	  0	  0	  0	  0	  0	  0	  0	 10	  0	  0	  0	  0
#Chip S07:	  0	  5	  0	  0	  0	  0	  0	  1	  0	  0	  0	  5	  0	  0	  0	  0
#Chip S08:	  0	  4	  0	  0	  0	  0	  0	  0	  0	  0	  0	  4	  0	  0	  0	  0
#Chip S09:	  0	  1	  0	  0	  0	  0	  0	  0	  0	  0	  0	  1	  0	  0	  0	  0
#Chip E10:	  0	 10	  0	  0	  0	  0	  0	  0	  0	  0	  0	 10	  0	  0	  0	  0
#Link 0:	  0	 30	  0	  0	  0	  0	  0	  0	  0	  0	  0	 30	  0	  0	  0	  0
#Link 1:	  0	 36	  0	  0	  0	  0	  0	  1	  0	  0	  0	 36	  0	  0	  0	  0
#Link 2:	  0	 66	  0	  0	  0	  0	  0	  1	  0	  0	  0	 66	  0	  0	  0	  0
%Defect
DEFECT NAME    : NOISY
FIRST CHANNEL  : 12
LAST CHANNEL   : 12
#
%Defect
DEFECT NAME    : NOISY
FIRST CHANNEL  : 27
LAST CHANNEL   : 27
#
%Defect
DEFECT NAME    : NOISY
FIRST CHANNEL  : 39
LAST CHANNEL   : 39
#
%Defect
DEFECT NAME    : NOISY
FIRST CHANNEL  : 61
LAST CHANNEL   : 61
#
%Defect
DEFECT NAME    : NOISY
FIRST CHANNEL  : 169
LAST CHANNEL   : 169
#
%Defect
DEFECT NAME    : NOISY
FIRST CHANNEL  : 183
LAST CHANNEL   : 183
#
%Defect
DEFECT NAME    : NOISY
FIRST CHANNEL  : 198
LAST CHANNEL   : 198
#
%Defect
DEFECT NAME    : NOISY
FIRST CHANNEL  : 226
LAST CHANNEL   : 226
#
%Defect
DEFECT NAME    : NOISY
FIRST CHANNEL  : 286
LAST CHANNEL   : 286
#
%Defect
DEFECT NAME    : NOISY
FIRST CHANNEL  : 289
LAST CHANNEL   : 289
#
%Defect
DEFECT NAME    : NOISY
FIRST CHANNEL  : 310
LAST CHANNEL   : 310
#
%Defect
DEFECT NAME    : NOISY
FIRST CHANNEL  : 328
LAST CHANNEL   : 328
#
%Defect
DEFECT NAME    : NOISY
FIRST CHANNEL  : 333
LAST CHANNEL   : 333
#
%Defect
DEFECT NAME    : NOISY
FIRST CHANNEL  : 346
LAST CHANNEL   : 346
#
%Defect
DEFECT NAME    : NOISY
FIRST CHANNEL  : 355
LAST CHANNEL   : 355
#
%Defect
DEFECT NAME    : NOISY
FIRST CHANNEL  : 378
LAST CHANNEL   : 378
#
%Defect
DEFECT NAME    : NOISY
FIRST CHANNEL  : 433
LAST CHANNEL   : 433
#
%Defect
DEFECT NAME    : NOISY
FIRST CHANNEL  : 476
LAST CHANNEL   : 476
#
%Defect
DEFECT NAME    : NOISY
FIRST CHANNEL  : 568
LAST CHANNEL   : 568
#
%Defect
DEFECT NAME    : NOISY
FIRST CHANNEL  : 594
LAST CHANNEL   : 594
#
%Defect
DEFECT NAME    : NOISY
FIRST CHANNEL  : 608
LAST CHANNEL   : 608
#
%Defect
DEFECT NAME    : NOISY
FIRST CHANNEL  : 618
LAST CHANNEL   : 618
#
%Defect
DEFECT NAME    : NOISY
FIRST CHANNEL  : 621
LAST CHANNEL   : 621
#
%Defect
DEFECT NAME    : NOISY
FIRST CHANNEL  : 626
LAST CHANNEL   : 626
#
%Defect
DEFECT NAME    : NOISY
FIRST CHANNEL  : 663
LAST CHANNEL   : 663
#
%Defect
DEFECT NAME    : NOISY
FIRST CHANNEL  : 671
LAST CHANNEL   : 671
#
%Defect
DEFECT NAME    : NOISY
FIRST CHANNEL  : 720
LAST CHANNEL   : 720
#
%Defect
DEFECT NAME    : NOISY
FIRST CHANNEL  : 722
LAST CHANNEL   : 722
#
%Defect
DEFECT NAME    : NOISY
FIRST CHANNEL  : 728
LAST CHANNEL   : 728
#
%Defect
DEFECT NAME    : NOISY
FIRST CHANNEL  : 739
LAST CHANNEL   : 739
#
%Defect
DEFECT NAME    : NOISY
FIRST CHANNEL  : 789
LAST CHANNEL   : 789
#
%Defect
DEFECT NAME    : NOISY
FIRST CHANNEL  : 823
LAST CHANNEL   : 823
#
%Defect
DEFECT NAME    : NOISY
FIRST CHANNEL  : 835
LAST CHANNEL   : 835
#
%Defect
DEFECT NAME    : NOISY
FIRST CHANNEL  : 840
LAST CHANNEL   : 840
#
%Defect
DEFECT NAME    : NOISY
FIRST CHANNEL  : 854
LAST CHANNEL   : 854
#
%Defect
DEFECT NAME    : NOISY
FIRST CHANNEL  : 861
LAST CHANNEL   : 861
#
%Defect
DEFECT NAME    : NOISY
FIRST CHANNEL  : 896
LAST CHANNEL   : 896
#
%Defect
DEFECT NAME    : NOISY
FIRST CHANNEL  : 941
LAST CHANNEL   : 941
#
%Defect
DEFECT NAME    : NOISY
FIRST CHANNEL  : 944
LAST CHANNEL   : 944
#
%Defect
DEFECT NAME    : NOISY
FIRST CHANNEL  : 963
LAST CHANNEL   : 963
#
%Defect
DEFECT NAME    : NOISY
FIRST CHANNEL  : 979
LAST CHANNEL   : 979
#
%Defect
DEFECT NAME    : NOISY
FIRST CHANNEL  : 987
LAST CHANNEL   : 987
#
%Defect
DEFECT NAME    : NOISY
FIRST CHANNEL  : 989
LAST CHANNEL   : 989
#
%Defect
DEFECT NAME    : NOISY
FIRST CHANNEL  : 1001
LAST CHANNEL   : 1001
#
%Defect
DEFECT NAME    : NOISY
FIRST CHANNEL  : 1014
LAST CHANNEL   : 1014
#
%Defect
DEFECT NAME    : NOISY
FIRST CHANNEL  : 1023
LAST CHANNEL   : 1023
#
%Defect
DEFECT NAME    : HI_GAIN
FIRST CHANNEL  : 1024
LAST CHANNEL   : 1024
#
%Defect
DEFECT NAME    : NOISY
FIRST CHANNEL  : 1028
LAST CHANNEL   : 1028
#
%Defect
DEFECT NAME    : NOISY
FIRST CHANNEL  : 1046
LAST CHANNEL   : 1046
#
%Defect
DEFECT NAME    : NOISY
FIRST CHANNEL  : 1084
LAST CHANNEL   : 1084
#
%Defect
DEFECT NAME    : NOISY
FIRST CHANNEL  : 1094
LAST CHANNEL   : 1094
#
%Defect
DEFECT NAME    : NOISY
FIRST CHANNEL  : 1113
LAST CHANNEL   : 1113
#
%Defect
DEFECT NAME    : NOISY
FIRST CHANNEL  : 1202
LAST CHANNEL   : 1202
#
%Defect
DEFECT NAME    : NOISY
FIRST CHANNEL  : 1229
LAST CHANNEL   : 1229
#
%Defect
DEFECT NAME    : NOISY
FIRST CHANNEL  : 1236
LAST CHANNEL   : 1236
#
%Defect
DEFECT NAME    : NOISY
FIRST CHANNEL  : 1246
LAST CHANNEL   : 1246
#
%Defect
DEFECT NAME    : NOISY
FIRST CHANNEL  : 1379
LAST CHANNEL   : 1379
#
%Defect
DEFECT NAME    : NOISY
FIRST CHANNEL  : 1414
LAST CHANNEL   : 1414
#
%Defect
DEFECT NAME    : NOISY
FIRST CHANNEL  : 1430
LAST CHANNEL   : 1430
#
%Defect
DEFECT NAME    : NOISY
FIRST CHANNEL  : 1437
LAST CHANNEL   : 1437
#
%Defect
DEFECT NAME    : NOISY
FIRST CHANNEL  : 1446
LAST CHANNEL   : 1446
#
%Defect
DEFECT NAME    : NOISY
FIRST CHANNEL  : 1454
LAST CHANNEL   : 1454
#
%Defect
DEFECT NAME    : NOISY
FIRST CHANNEL  : 1470
LAST CHANNEL   : 1470
#
%Defect
DEFECT NAME    : NOISY
FIRST CHANNEL  : 1486
LAST CHANNEL   : 1486
#
%Defect
DEFECT NAME    : NOISY
FIRST CHANNEL  : 1505
LAST CHANNEL   : 1505
#
%Defect
DEFECT NAME    : NOISY
FIRST CHANNEL  : 1522
LAST CHANNEL   : 1522
#
%Defect
DEFECT NAME    : NOISY
FIRST CHANNEL  : 1530
LAST CHANNEL   : 1530
#
#67 defects found affecting 67 strips
#2 maximum consecutive defects
%Comment
COMMENT        : FAIL due to chip 0 (under) noise sigma (> 35.000000)
#
%Comment
COMMENT        : FAIL due to chip 1 (under) noise sigma (> 35.000000)
#
%Comment
COMMENT        : FAIL due to chip 2 (under) noise sigma (> 35.000000)
#
%Comment
COMMENT        : FAIL due to chip 3 (under) noise sigma (> 35.000000)
#
%Comment
COMMENT        : FAIL due to chip 4 (under) noise sigma (> 35.000000)
#
%Comment
COMMENT        : FAIL due to chip 5 (under) noise sigma (> 35.000000)
#
%Comment
COMMENT        : FAIL due to chip 0 (away) noise sigma (> 35.000000)
#
%Comment
COMMENT        : FAIL due to chip 1 (away) noise sigma (> 35.000000)
#
%Comment
COMMENT        : FAIL due to chip 2 (away) noise sigma (> 35.000000)
#
%Comment
COMMENT        : FAIL due to chip 3 (away) noise sigma (> 35.000000)
#
%Comment
COMMENT        : FAIL due to chip 4 (away) noise sigma (> 35.000000)
#
%Comment
COMMENT        : FAIL due to chip 5 (away) noise sigma (> 35.000000)
#
%Comment
COMMENT        : FAIL due to 67 bad strips (more than 15)
#
#
%TEST Rawdata
FILENAME       : /bigdisk/tb202208-itsdaq/var-old/results/PPB_ABCStar_R2H1_Hybrid0_RC_149_5.txt
#
#
%NewTest
#
SERIAL NUMBER  : PPB_ABCStar_R2H1_Hybrid0
TEST MADE BY   : TB
LOCATION NAME  : STFC_RAL_R12
Run number     : 150-4
TEST_DATE      : 30/08/2022
PASSED         : YES
PROBLEM        : NO
#
%DAQ_INFO
#
#HOST
"atlasitk1"
#VERSION
"3.43"
#DUT
"ABCStar_Test"
#TIME
"11:07:27"
#
%DCS_INFO
#
#T0	T1
. 	. 	
#VDET	IDET
. 	. 	
#VCC	ICC
. 	. 	
#VDD	IDD
. 	. 	
#TIME_POWERED
. 
#
%StrobeDelay
#
#DELAY
#  M05  S06  S07  S08  S09  E10  X11  X12  X13  X14
21 21 24 21 25 20 -1 -1 -1 -1 -1 -1 -1 -1 -1 -1 
#
#  M05  S06  S07  S08  S09  E10  X11  X12  X13  X14
21 21 24 21 25 20 -1 -1 -1 -1 -1 -1 -1 -1 -1 -1 
#
#No defects found!
%Comment
COMMENT        : Strobe Delay Fraction 0.57
#
#
%NewTest
#
SERIAL NUMBER  : PPB_ABCStar_R2H1_Hybrid0
TEST MADE BY   : TB
LOCATION NAME  : STFC_RAL_R12
Run number     : 150-5
TEST_DATE      : 30/08/2022
PASSED         : YES
PROBLEM        : NO
#
%DAQ_INFO
#
#HOST
"atlasitk1"
#VERSION
"3.43"
#DUT
"ABCStar_Test"
#TIME
"11:10:00"
#
%DCS_INFO
#
#T0	T1
. 	. 	
#VDET	IDET
. 	. 	
#VCC	ICC
. 	. 	
#VDD	IDD
. 	. 	
#TIME_POWERED
. 
#
#
%SCAN_INFO
#
#POINT_TYPE
"QCAL (fC)"
#N_POINTS
3
#POINTS
0.50 	1.00 	1.50 	
#
#
%ThreePointGain
#
#Loop A - Fit
#	func	p0	p1	p2
#M05
	4 	32.94 	64.28 	0.00
#S06
	4 	32.27 	70.71 	0.00
#S07
	4 	32.74 	69.16 	0.00
#S08
	4 	32.26 	68.23 	0.00
#S09
	4 	32.57 	68.67 	0.00
#E10
	4 	32.31 	71.94 	0.00
#M05
	4 	32.52 	64.41 	0.00
#S06
	4 	32.22 	70.46 	0.00
#S07
	4 	32.70 	68.90 	0.00
#S08
	4 	32.38 	68.25 	0.00
#S09
	4 	32.56 	68.79 	0.00
#E10
	4 	32.76 	72.07 	0.00
#
#Loop B - Gain, Offset, Noise at 1.00fC
#	vt50 	rms  	gain	rms 	offset	rms  	outnse	innse	rms
#M05
	 96.0 	 2.21 	64.3 	1.81 	 64.3 	 1.81 	16.69 	 1623 	  26
#S06
	102.3 	 2.12 	70.7 	1.55 	 70.7 	 1.55 	16.82 	 1487 	  19
#S07
	101.2 	 2.16 	69.1 	1.64 	 69.1 	 1.64 	16.66 	 1506 	  24
#S08
	 99.7 	 2.15 	68.2 	1.63 	 68.2 	 1.63 	17.50 	 1603 	  21
#S09
	100.4 	 2.18 	68.7 	1.74 	 68.7 	 1.74 	18.02 	 1641 	  16
#E10
	103.7 	 2.38 	71.9 	1.83 	 71.9 	 1.83 	17.83 	 1549 	  18
#M05
	 96.2 	 2.20 	64.4 	1.65 	 64.4 	 1.65 	15.61 	 1515 	  15
#S06
	102.0 	 3.63 	70.5 	1.79 	 70.5 	 1.79 	15.98 	 1418 	  15
#S07
	101.0 	 1.90 	68.9 	1.50 	 68.9 	 1.50 	15.83 	 1436 	  15
#S08
	 99.9 	 1.93 	68.2 	1.60 	 68.2 	 1.60 	16.40 	 1503 	  17
#S09
	100.6 	 2.13 	68.8 	1.74 	 68.8 	 1.74 	16.80 	 1527 	  17
#E10
	104.4 	 2.73 	72.1 	2.02 	 72.1 	 2.02 	16.83 	 1459 	  19
#
#Loop C - Comment
#  M05  S06  S07  S08  S09  E10  X11  X12  X13  X14
"OK" 	"OK" 	"OK" 	"OK" 	"OK" 	"OK" 	
#  M05  S06  S07  S08  S09  E10  X11  X12  X13  X14
"OK" 	"OK" 	"OK" 	"OK" 	"OK" 	"OK" 	
#BadChannelSummary - not for the database
#  at 1.00fC
#		lost	dodgy	dead	stuck	ineff	unbon	lo_gn	hi_gn	lo_off	hi_off	partbon	hi_nse	vlo_gn	vhi_gn	vlo_nse	vhi_nse
#Chip M05:	  0	  0	  0	  0	  0	  0	  0	  0	  0	  0	  0	  0	  0	  0	  0	  0
#Chip S06:	  0	  0	  0	  0	  0	  0	  0	  0	  0	  0	  0	  0	  0	  0	  0	  0
#Chip S07:	  0	  0	  0	  0	  0	  0	  0	  0	  0	  0	  0	  0	  0	  0	  0	  0
#Chip S08:	  0	  0	  0	  0	  0	  0	  0	  0	  0	  0	  0	  0	  0	  0	  0	  0
#Chip S09:	  0	  0	  0	  0	  0	  0	  0	  0	  0	  0	  0	  0	  0	  0	  0	  0
#Chip E10:	  0	  0	  0	  0	  0	  0	  0	  0	  0	  0	  0	  0	  0	  0	  0	  0
#Chip M05:	  0	  0	  0	  0	  0	  0	  0	  0	  0	  0	  0	  0	  0	  0	  0	  0
#Chip S06:	  0	  0	  0	  0	  0	  0	  0	  0	  0	  0	  0	  0	  0	  0	  0	  0
#Chip S07:	  0	  0	  0	  0	  0	  0	  0	  1	  0	  0	  0	  0	  0	  0	  0	  0
#Chip S08:	  0	  0	  0	  0	  0	  0	  0	  0	  0	  0	  0	  0	  0	  0	  0	  0
#Chip S09:	  0	  0	  0	  0	  0	  0	  0	  1	  0	  0	  0	  0	  0	  0	  0	  0
#Chip E10:	  0	  0	  0	  0	  0	  0	  0	  0	  0	  0	  0	  0	  0	  0	  0	  0
#Link 0:	  0	  0	  0	  0	  0	  0	  0	  0	  0	  0	  0	  0	  0	  0	  0	  0
#Link 1:	  0	  0	  0	  0	  0	  0	  0	  2	  0	  0	  0	  0	  0	  0	  0	  0
#Link 2:	  0	  0	  0	  0	  0	  0	  0	  2	  0	  0	  0	  0	  0	  0	  0	  0
%Defect
DEFECT NAME    : HI_GAIN
FIRST CHANNEL  : 1024
LAST CHANNEL   : 1024
#
%Defect
DEFECT NAME    : HI_GAIN
FIRST CHANNEL  : 1343
LAST CHANNEL   : 1343
#
#2 defects found affecting 2 strips
#1 maximum consecutive defects
#
%TEST Rawdata
FILENAME       : /bigdisk/tb202208-itsdaq/var-old/results/PPB_ABCStar_R2H1_Hybrid0_RC_150_5.txt
#
#
%NewTest
#
SERIAL NUMBER  : PPB_ABCStar_R2H1_Hybrid0
TEST MADE BY   : TB
LOCATION NAME  : STFC_RAL_R12
Run number     : 151-4
TEST_DATE      : 30/08/2022
PASSED         : YES
PROBLEM        : NO
#
%DAQ_INFO
#
#HOST
"atlasitk1"
#VERSION
"3.43"
#DUT
"ABCStar_Test"
#TIME
"11:42:42"
#
%DCS_INFO
#
#T0	T1
. 	. 	
#VDET	IDET
. 	. 	
#VCC	ICC
. 	. 	
#VDD	IDD
. 	. 	
#TIME_POWERED
. 
#
%StrobeDelay
#
#DELAY
#  M05  S06  S07  S08  S09  E10  X11  X12  X13  X14
14 14 18 14 18 13 -1 -1 -1 -1 -1 -1 -1 -1 -1 -1 
#
#  M05  S06  S07  S08  S09  E10  X11  X12  X13  X14
14 13 18 14 18 13 -1 -1 -1 -1 -1 -1 -1 -1 -1 -1 
#
#No defects found!
%Comment
COMMENT        : Strobe Delay Fraction 0.57
#
#
%NewTest
#
SERIAL NUMBER  : PPB_ABCStar_R2H1_Hybrid0
TEST MADE BY   : TB
LOCATION NAME  : STFC_RAL_R12
Run number     : 151-5
TEST_DATE      : 30/08/2022
PASSED         : YES
PROBLEM        : NO
#
%DAQ_INFO
#
#HOST
"atlasitk1"
#VERSION
"3.43"
#DUT
"ABCStar_Test"
#TIME
"11:45:03"
#
%DCS_INFO
#
#T0	T1
. 	. 	
#VDET	IDET
. 	. 	
#VCC	ICC
. 	. 	
#VDD	IDD
. 	. 	
#TIME_POWERED
. 
#
#
%SCAN_INFO
#
#POINT_TYPE
"QCAL (fC)"
#N_POINTS
3
#POINTS
0.50 	1.00 	1.50 	
#
#
%ThreePointGain
#
#Loop A - Fit
#	func	p0	p1	p2
#M05
	4 	31.49 	79.45 	0.00
#S06
	4 	33.04 	88.07 	0.00
#S07
	4 	32.77 	85.55 	0.00
#S08
	4 	31.95 	84.60 	0.00
#S09
	4 	33.37 	85.21 	0.00
#E10
	4 	33.26 	89.55 	0.00
#M05
	4 	31.69 	79.33 	0.00
#S06
	4 	32.88 	87.45 	0.00
#S07
	4 	33.02 	85.19 	0.00
#S08
	4 	31.94 	84.41 	0.00
#S09
	4 	33.37 	85.00 	0.00
#E10
	4 	33.51 	89.39 	0.00
#
#Loop B - Gain, Offset, Noise at 1.00fC
#	vt50 	rms  	gain	rms 	offset	rms  	outnse	innse	rms
#M05
	110.2 	 2.44 	79.4 	2.18 	 79.4 	 2.18 	10.17 	  800 	  11
#S06
	120.7 	 2.86 	88.1 	1.92 	 88.1 	 1.92 	10.53 	  747 	  10
#S07
	117.8 	 2.41 	85.6 	2.07 	 85.6 	 2.07 	10.30 	  753 	  13
#S08
	115.9 	 2.34 	84.6 	2.08 	 84.6 	 2.08 	11.13 	  822 	  12
#S09
	118.1 	 2.48 	85.2 	2.26 	 85.2 	 2.26 	10.93 	  802 	   9
#E10
	122.6 	 2.91 	89.6 	2.38 	 89.6 	 2.38 	10.91 	  761 	  12
#M05
	110.3 	 2.26 	79.3 	2.01 	 79.3 	 2.01 	9.77 	  770 	  10
#S06
	119.9 	 2.77 	87.5 	2.24 	 87.5 	 2.24 	10.08 	  720 	   9
#S07
	117.6 	 2.29 	85.2 	1.84 	 85.2 	 1.84 	9.91 	  727 	   9
#S08
	115.7 	 2.49 	84.4 	1.98 	 84.4 	 1.98 	10.59 	  784 	  11
#S09
	117.9 	 2.99 	85.0 	2.56 	 85.0 	 2.56 	10.50 	  772 	  11
#E10
	122.7 	 2.99 	89.4 	2.61 	 89.4 	 2.61 	10.45 	  731 	  10
#
#Loop C - Comment
#  M05  S06  S07  S08  S09  E10  X11  X12  X13  X14
"OK" 	"OK" 	"OK" 	"OK" 	"OK" 	"OK" 	
#  M05  S06  S07  S08  S09  E10  X11  X12  X13  X14
"OK" 	"OK" 	"OK" 	"OK" 	"OK" 	"OK" 	
#BadChannelSummary - not for the database
#  at 1.00fC
#		lost	dodgy	dead	stuck	ineff	unbon	lo_gn	hi_gn	lo_off	hi_off	partbon	hi_nse	vlo_gn	vhi_gn	vlo_nse	vhi_nse
#Chip M05:	  0	  0	  0	  0	  0	  0	  0	  0	  0	  0	  0	  0	  0	  0	  0	  0
#Chip S06:	  0	  0	  0	  0	  0	  0	  0	  0	  0	  0	  0	  0	  0	  0	  0	  0
#Chip S07:	  0	  0	  0	  0	  0	  0	  0	  0	  0	  0	  0	  0	  0	  0	  0	  0
#Chip S08:	  0	  0	  0	  0	  0	  0	  0	  0	  0	  0	  0	  0	  0	  0	  0	  0
#Chip S09:	  0	  0	  0	  0	  0	  0	  0	  0	  0	  0	  0	  0	  0	  0	  0	  0
#Chip E10:	  0	  0	  0	  0	  0	  0	  0	  0	  0	  0	  0	  0	  0	  0	  0	  0
#Chip M05:	  0	  0	  0	  0	  0	  0	  0	  0	  0	  0	  0	  0	  0	  0	  0	  0
#Chip S06:	  0	  0	  0	  0	  0	  0	  0	  0	  0	  0	  0	  0	  0	  0	  0	  0
#Chip S07:	  0	  0	  0	  0	  0	  0	  0	  1	  0	  0	  0	  0	  0	  0	  0	  0
#Chip S08:	  0	  0	  0	  0	  0	  0	  0	  0	  0	  0	  0	  0	  0	  0	  0	  0
#Chip S09:	  0	  0	  0	  0	  0	  0	  0	  0	  0	  0	  0	  0	  0	  0	  0	  0
#Chip E10:	  0	  1	  0	  0	  0	  0	  0	  0	  0	  0	  0	  1	  0	  0	  0	  0
#Link 0:	  0	  0	  0	  0	  0	  0	  0	  0	  0	  0	  0	  0	  0	  0	  0	  0
#Link 1:	  0	  1	  0	  0	  0	  0	  0	  1	  0	  0	  0	  1	  0	  0	  0	  0
#Link 2:	  0	  1	  0	  0	  0	  0	  0	  1	  0	  0	  0	  1	  0	  0	  0	  0
%Defect
DEFECT NAME    : HI_GAIN
FIRST CHANNEL  : 1024
LAST CHANNEL   : 1024
#
%Defect
DEFECT NAME    : NOISY
FIRST CHANNEL  : 1535
LAST CHANNEL   : 1535
#
#2 defects found affecting 2 strips
#1 maximum consecutive defects
#
%TEST Rawdata
FILENAME       : /bigdisk/tb202208-itsdaq/var-old/results/PPB_ABCStar_R2H1_Hybrid0_RC_151_5.txt
#
#
%NewTest
#
SERIAL NUMBER  : PPB_ABCStar_R2H1_Hybrid0
TEST MADE BY   : TB
LOCATION NAME  : STFC_RAL_R12
Run number     : 152-4
TEST_DATE      : 30/08/2022
PASSED         : YES
PROBLEM        : NO
#
%DAQ_INFO
#
#HOST
"atlasitk1"
#VERSION
"3.43"
#DUT
"ABCStar_Test"
#TIME
"11:51:09"
#
%DCS_INFO
#
#T0	T1
. 	. 	
#VDET	IDET
. 	. 	
#VCC	ICC
. 	. 	
#VDD	IDD
. 	. 	
#TIME_POWERED
. 
#
%StrobeDelay
#
#DELAY
#  M05  S06  S07  S08  S09  E10  X11  X12  X13  X14
13 13 18 13 19 13 -1 -1 -1 -1 -1 -1 -1 -1 -1 -1 
#
#  M05  S06  S07  S08  S09  E10  X11  X12  X13  X14
14 13 18 13 19 13 -1 -1 -1 -1 -1 -1 -1 -1 -1 -1 
#
#No defects found!
%Comment
COMMENT        : Strobe Delay Fraction 0.57
#
#
%NewTest
#
SERIAL NUMBER  : PPB_ABCStar_R2H1_Hybrid0
TEST MADE BY   : TB
LOCATION NAME  : STFC_RAL_R12
Run number     : 152-5
TEST_DATE      : 30/08/2022
PASSED         : NO
PROBLEM        : NO
#
%DAQ_INFO
#
#HOST
"atlasitk1"
#VERSION
"3.43"
#DUT
"ABCStar_Test"
#TIME
"11:54:53"
#
%DCS_INFO
#
#T0	T1
. 	. 	
#VDET	IDET
. 	. 	
#VCC	ICC
. 	. 	
#VDD	IDD
. 	. 	
#TIME_POWERED
. 
#
#
%SCAN_INFO
#
#POINT_TYPE
"QCAL (fC)"
#N_POINTS
3
#POINTS
0.50 	1.00 	1.50 	
#
#
%ThreePointGain
#
#Loop A - Fit
#	func	p0	p1	p2
#M05
	4 	18.70 	-29.88 	0.00
#S06
	4 	18.99 	-30.88 	0.00
#S07
	4 	19.13 	-31.35 	0.00
#S08
	4 	18.99 	-30.89 	0.00
#S09
	4 	18.85 	-30.39 	0.00
#E10
	4 	18.94 	-30.70 	0.00
#M05
	4 	18.73 	-30.00 	0.00
#S06
	4 	18.93 	-30.67 	0.00
#S07
	4 	18.96 	-30.79 	0.00
#S08
	4 	18.83 	-30.35 	0.00
#S09
	4 	18.77 	-30.14 	0.00
#E10
	4 	18.94 	-30.70 	0.00
#
#Loop B - Gain, Offset, Noise at 1.00fC
#	vt50 	rms  	gain	rms 	offset	rms  	outnse	innse	rms
#M05
	###    Too many defects in this chip!    ###
#S06
	###    Too many defects in this chip!    ###
#S07
	###    Too many defects in this chip!    ###
#S08
	###    Too many defects in this chip!    ###
#S09
	###    Too many defects in this chip!    ###
#E10
	###    Too many defects in this chip!    ###
#M05
	###    Too many defects in this chip!    ###
#S06
	###    Too many defects in this chip!    ###
#S07
	###    Too many defects in this chip!    ###
#S08
	###    Too many defects in this chip!    ###
#S09
	###    Too many defects in this chip!    ###
#E10
	###    Too many defects in this chip!    ###
#
#Loop C - Comment
#  M05  S06  S07  S08  S09  E10  X11  X12  X13  X14
"very low gain" 	"very low gain" 	"very low gain" 	"very low gain" 	"very low gain" 	"very low gain" 	
#  M05  S06  S07  S08  S09  E10  X11  X12  X13  X14
"very low gain" 	"very low gain" 	"very low gain" 	"very low gain" 	"very low gain" 	"very low gain" 	
#BadChannelSummary - not for the database
#  at 1.00fC
#		lost	dodgy	dead	stuck	ineff	unbon	lo_gn	hi_gn	lo_off	hi_off	partbon	hi_nse	vlo_gn	vhi_gn	vlo_nse	vhi_nse
#Chip M05:	  0	126	  0	  0	126	  0	  0	  0	  0	  0	  0	  0	  0	  0	  0	  2
#Chip S06:	  0	122	  0	  0	122	  0	  0	  0	  0	  0	  0	  0	  0	  0	  0	  6
#Chip S07:	  0	128	  0	  0	128	  0	  0	  0	  0	  0	  0	  0	  0	  0	  0	  0
#Chip S08:	  0	128	  0	  0	128	  0	  0	  0	  0	  0	  0	  0	  0	  0	  0	  0
#Chip S09:	  0	128	  0	  0	128	  0	  0	  0	  0	  0	  0	  0	  0	  0	  0	  0
#Chip E10:	  0	126	  0	  0	126	  0	  0	  0	  0	  0	  0	  0	  0	  0	  0	  2
#Chip M05:	  0	126	  0	  0	126	  0	  0	  0	  0	  0	  0	  0	  0	  0	  0	  2
#Chip S06:	  0	122	  0	  0	122	  0	  0	  0	  0	  0	  0	  0	  0	  0	  0	  6
#Chip S07:	  0	123	  0	  0	123	  0	  0	  0	  0	  0	  0	  0	  0	  0	  0	  5
#Chip S08:	  0	120	  0	  0	120	  0	  0	  0	  0	  0	  0	  0	  0	  0	  0	  8
#Chip S09:	  0	126	  0	  0	126	  0	  0	  0	  0	  0	  0	  0	  0	  0	  0	  2
#Chip E10:	  0	122	  0	  0	122	  0	  0	  0	  0	  0	  0	  0	  0	  0	  0	  6
#Link 0:	  0	758	  0	  0	758	  0	  0	  0	  0	  0	  0	  0	  0	  0	  0	 10
#Link 1:	  0	739	  0	  0	739	  0	  0	  0	  0	  0	  0	  0	  0	  0	  0	 29
#Link 2:	  0	1497	  0	  0	1497	  0	  0	  0	  0	  0	  0	  0	  0	  0	  0	 39
%Defect
DEFECT NAME    : VLO_GAIN
FIRST CHANNEL  : 0
LAST CHANNEL   : 127
#
%Defect
DEFECT NAME    : VLO_GAIN
FIRST CHANNEL  : 128
LAST CHANNEL   : 255
#
%Defect
DEFECT NAME    : VLO_GAIN
FIRST CHANNEL  : 256
LAST CHANNEL   : 383
#
%Defect
DEFECT NAME    : VLO_GAIN
FIRST CHANNEL  : 384
LAST CHANNEL   : 511
#
%Defect
DEFECT NAME    : VLO_GAIN
FIRST CHANNEL  : 512
LAST CHANNEL   : 639
#
%Defect
DEFECT NAME    : VLO_GAIN
FIRST CHANNEL  : 640
LAST CHANNEL   : 767
#
%Defect
DEFECT NAME    : VLO_GAIN
FIRST CHANNEL  : -1
LAST CHANNEL   : 126
#
%Defect
DEFECT NAME    : VLO_GAIN
FIRST CHANNEL  : 127
LAST CHANNEL   : 254
#
%Defect
DEFECT NAME    : VLO_GAIN
FIRST CHANNEL  : 255
LAST CHANNEL   : 382
#
%Defect
DEFECT NAME    : VLO_GAIN
FIRST CHANNEL  : 383
LAST CHANNEL   : 510
#
%Defect
DEFECT NAME    : VLO_GAIN
FIRST CHANNEL  : 511
LAST CHANNEL   : 638
#
%Defect
DEFECT NAME    : VLO_GAIN
FIRST CHANNEL  : 639
LAST CHANNEL   : 766
#
#12 defects found affecting 1497 strips
#434 maximum consecutive defects
%Comment
COMMENT        : FAIL due to chip 0 (under) very low gain (< 40.000000)
#
%Comment
COMMENT        : FAIL due to chip 1 (under) very low gain (< 40.000000)
#
%Comment
COMMENT        : FAIL due to chip 2 (under) very low gain (< 40.000000)
#
%Comment
COMMENT        : FAIL due to chip 3 (under) very low gain (< 40.000000)
#
%Comment
COMMENT        : FAIL due to chip 4 (under) very low gain (< 40.000000)
#
%Comment
COMMENT        : FAIL due to chip 5 (under) very low gain (< 40.000000)
#
%Comment
COMMENT        : FAIL due to chip 0 (away) very low gain (< 40.000000)
#
%Comment
COMMENT        : FAIL due to chip 1 (away) very low gain (< 40.000000)
#
%Comment
COMMENT        : FAIL due to chip 2 (away) very low gain (< 40.000000)
#
%Comment
COMMENT        : FAIL due to chip 3 (away) very low gain (< 40.000000)
#
%Comment
COMMENT        : FAIL due to chip 4 (away) very low gain (< 40.000000)
#
%Comment
COMMENT        : FAIL due to chip 5 (away) very low gain (< 40.000000)
#
%Comment
COMMENT        : FAIL due to 1497 bad strips (more than 15)
#
%Comment
COMMENT        : FAIL due to 434 consecutive bad strips (more than 8)
#
%Comment
COMMENT        : Channel 7 of bank under masked: VERY HIGH NOISE
#
%Comment
COMMENT        : Channel 118 of bank under masked: VERY HIGH NOISE
#
%Comment
COMMENT        : Channel 133 of bank under masked: VERY HIGH NOISE
#
%Comment
COMMENT        : Channel 145 of bank under masked: VERY HIGH NOISE
#
%Comment
COMMENT        : Channel 184 of bank under masked: VERY HIGH NOISE
#
%Comment
COMMENT        : Channel 202 of bank under masked: VERY HIGH NOISE
#
%Comment
COMMENT        : Channel 203 of bank under masked: VERY HIGH NOISE
#
%Comment
COMMENT        : Channel 206 of bank under masked: VERY HIGH NOISE
#
%Comment
COMMENT        : Channel 641 of bank under masked: VERY HIGH NOISE
#
%Comment
COMMENT        : Channel 667 of bank under masked: VERY HIGH NOISE
#
%Comment
COMMENT        : Channel 18 of bank away masked: VERY HIGH NOISE
#
%Comment
COMMENT        : Channel 86 of bank away masked: VERY HIGH NOISE
#
%Comment
COMMENT        : Channel 141 of bank away masked: VERY HIGH NOISE
#
%Comment
COMMENT        : Channel 157 of bank away masked: VERY HIGH NOISE
#
%Comment
COMMENT        : Channel 179 of bank away masked: VERY HIGH NOISE
#
%Comment
COMMENT        : Channel 195 of bank away masked: VERY HIGH NOISE
#
%Comment
COMMENT        : Channel 234 of bank away masked: VERY HIGH NOISE
#
%Comment
COMMENT        : Channel 235 of bank away masked: VERY HIGH NOISE
#
%Comment
COMMENT        : Channel 263 of bank away masked: VERY HIGH NOISE
#
%Comment
COMMENT        : Channel 280 of bank away masked: VERY HIGH NOISE
#
%Comment
COMMENT        : Channel 300 of bank away masked: VERY HIGH NOISE
#
%Comment
COMMENT        : Channel 339 of bank away masked: VERY HIGH NOISE
#
%Comment
COMMENT        : Channel 349 of bank away masked: VERY HIGH NOISE
#
%Comment
COMMENT        : Channel 389 of bank away masked: VERY HIGH NOISE
#
%Comment
COMMENT        : Channel 400 of bank away masked: VERY HIGH NOISE
#
%Comment
COMMENT        : Channel 409 of bank away masked: VERY HIGH NOISE
#
%Comment
COMMENT        : Channel 428 of bank away masked: VERY HIGH NOISE
#
%Comment
COMMENT        : Channel 436 of bank away masked: VERY HIGH NOISE
#
%Comment
COMMENT        : Channel 452 of bank away masked: VERY HIGH NOISE
#
%Comment
COMMENT        : Channel 467 of bank away masked: VERY HIGH NOISE
#
%Comment
COMMENT        : Channel 490 of bank away masked: VERY HIGH NOISE
#
%Comment
COMMENT        : Channel 572 of bank away masked: VERY HIGH NOISE
#
%Comment
COMMENT        : Channel 597 of bank away masked: VERY HIGH NOISE
#
%Comment
COMMENT        : Channel 645 of bank away masked: VERY HIGH NOISE
#
%Comment
COMMENT        : Channel 680 of bank away masked: VERY HIGH NOISE
#
%Comment
COMMENT        : Channel 696 of bank away masked: VERY HIGH NOISE
#
%Comment
COMMENT        : Channel 700 of bank away masked: VERY HIGH NOISE
#
%Comment
COMMENT        : Channel 705 of bank away masked: VERY HIGH NOISE
#
%Comment
COMMENT        : Channel 730 of bank away masked: VERY HIGH NOISE
#
#
%TEST Rawdata
FILENAME       : /bigdisk/tb202208-itsdaq/var-old/results/PPB_ABCStar_R2H1_Hybrid0_RC_152_5.txt
#
#
%NewTest
#
SERIAL NUMBER  : PPB_ABCStar_R2H1_Hybrid0
TEST MADE BY   : TB
LOCATION NAME  : STFC_RAL_R12
Run number     : 153-1
TEST_DATE      : 30/08/2022
PASSED         : YES
PROBLEM        : NO
#
%DAQ_INFO
#
#HOST
"atlasitk1"
#VERSION
"3.43"
#DUT
"ABCStar_Test"
#TIME
"11:55:30"
#
%DCS_INFO
#
#T0	T1
. 	. 	
#VDET	IDET
. 	. 	
#VCC	ICC
. 	. 	
#VDD	IDD
. 	. 	
#TIME_POWERED
. 
#
%StrobeDelay
#
#DELAY
#  M05  S06  S07  S08  S09  E10  X11  X12  X13  X14
13 13 18 13 18 13 -1 -1 -1 -1 -1 -1 -1 -1 -1 -1 
#
#  M05  S06  S07  S08  S09  E10  X11  X12  X13  X14
13 13 18 13 18 13 -1 -1 -1 -1 -1 -1 -1 -1 -1 -1 
#
#No defects found!
%Comment
COMMENT        : Strobe Delay Fraction 0.57
#
#
%NewTest
#
SERIAL NUMBER  : PPB_ABCStar_R2H1_Hybrid0
TEST MADE BY   : TB
LOCATION NAME  : STFC_RAL_R12
Run number     : 154-1
TEST_DATE      : 30/08/2022
PASSED         : YES
PROBLEM        : NO
#
%DAQ_INFO
#
#HOST
"atlasitk1"
#VERSION
"3.43"
#DUT
"ABCStar_Test"
#TIME
"11:56:29"
#
%DCS_INFO
#
#T0	T1
. 	. 	
#VDET	IDET
. 	. 	
#VCC	ICC
. 	. 	
#VDD	IDD
. 	. 	
#TIME_POWERED
. 
#
%StrobeDelay
#
#DELAY
#  M05  S06  S07  S08  S09  E10  X11  X12  X13  X14
13 13 18 13 18 13 -1 -1 -1 -1 -1 -1 -1 -1 -1 -1 
#
#  M05  S06  S07  S08  S09  E10  X11  X12  X13  X14
13 13 18 13 18 13 -1 -1 -1 -1 -1 -1 -1 -1 -1 -1 
#
#No defects found!
%Comment
COMMENT        : Strobe Delay Fraction 0.57
#
#
%NewTest
#
SERIAL NUMBER  : PPB_ABCStar_R2H1_Hybrid0
TEST MADE BY   : TB
LOCATION NAME  : STFC_RAL_R12
Run number     : 155-4
TEST_DATE      : 30/08/2022
PASSED         : YES
PROBLEM        : NO
#
%DAQ_INFO
#
#HOST
"atlasitk1"
#VERSION
"3.43"
#DUT
"ABCStar_Test"
#TIME
"11:58:10"
#
%DCS_INFO
#
#T0	T1
. 	. 	
#VDET	IDET
. 	. 	
#VCC	ICC
. 	. 	
#VDD	IDD
. 	. 	
#TIME_POWERED
. 
#
%StrobeDelay
#
#DELAY
#  M05  S06  S07  S08  S09  E10  X11  X12  X13  X14
14 13 18 14 18 13 -1 -1 -1 -1 -1 -1 -1 -1 -1 -1 
#
#  M05  S06  S07  S08  S09  E10  X11  X12  X13  X14
14 13 18 14 18 13 -1 -1 -1 -1 -1 -1 -1 -1 -1 -1 
#
#No defects found!
%Comment
COMMENT        : Strobe Delay Fraction 0.57
#
#
%NewTest
#
SERIAL NUMBER  : PPB_ABCStar_R2H1_Hybrid0
TEST MADE BY   : TB
LOCATION NAME  : STFC_RAL_R12
Run number     : 162-4
TEST_DATE      : 30/08/2022
PASSED         : YES
PROBLEM        : NO
#
%DAQ_INFO
#
#HOST
"atlasitk1"
#VERSION
"3.43"
#DUT
"ABCStar_Test"
#TIME
"12:09:29"
#
%DCS_INFO
#
#T0	T1
. 	. 	
#VDET	IDET
. 	. 	
#VCC	ICC
. 	. 	
#VDD	IDD
. 	. 	
#TIME_POWERED
. 
#
%StrobeDelay
#
#DELAY
#  M05  S06  S07  S08  S09  E10  X11  X12  X13  X14
13 13 18 13 18 13 -1 -1 -1 -1 -1 -1 -1 -1 -1 -1 
#
#  M05  S06  S07  S08  S09  E10  X11  X12  X13  X14
13 13 18 13 18 13 -1 -1 -1 -1 -1 -1 -1 -1 -1 -1 
#
#No defects found!
%Comment
COMMENT        : Strobe Delay Fraction 0.57
#
#
%NewTest
#
SERIAL NUMBER  : PPB_ABCStar_R2H1_Hybrid0
TEST MADE BY   : TB
LOCATION NAME  : STFC_RAL_R12
Run number     : 162-5
TEST_DATE      : 30/08/2022
PASSED         : YES
PROBLEM        : NO
#
%DAQ_INFO
#
#HOST
"atlasitk1"
#VERSION
"3.43"
#DUT
"ABCStar_Test"
#TIME
"12:12:41"
#
%DCS_INFO
#
#T0	T1
. 	. 	
#VDET	IDET
. 	. 	
#VCC	ICC
. 	. 	
#VDD	IDD
. 	. 	
#TIME_POWERED
. 
#
#
%SCAN_INFO
#
#POINT_TYPE
"QCAL (fC)"
#N_POINTS
3
#POINTS
0.50 	1.00 	1.50 	
#
#
%ThreePointGain
#
#Loop A - Fit
#	func	p0	p1	p2
#M05
	4 	31.69 	79.45 	0.00
#S06
	4 	32.26 	87.67 	0.00
#S07
	4 	32.37 	85.04 	0.00
#S08
	4 	31.78 	84.53 	0.00
#S09
	4 	32.96 	84.66 	0.00
#E10
	4 	32.90 	89.01 	0.00
#M05
	4 	31.82 	79.29 	0.00
#S06
	4 	32.20 	87.06 	0.00
#S07
	4 	32.45 	84.69 	0.00
#S08
	4 	32.17 	84.26 	0.00
#S09
	4 	33.09 	84.47 	0.00
#E10
	4 	33.29 	88.87 	0.00
#
#Loop B - Gain, Offset, Noise at 1.00fC
#	vt50 	rms  	gain	rms 	offset	rms  	outnse	innse	rms
#M05
	110.7 	 2.50 	79.4 	2.18 	 79.4 	 2.18 	10.09 	  794 	  10
#S06
	119.5 	 2.72 	87.7 	1.89 	 87.7 	 1.89 	10.91 	  778 	  10
#S07
	116.9 	 2.39 	85.0 	2.10 	 85.0 	 2.10 	10.61 	  779 	  13
#S08
	115.9 	 2.61 	84.5 	2.06 	 84.5 	 2.06 	11.24 	  831 	  11
#S09
	117.3 	 2.66 	84.7 	2.23 	 84.7 	 2.23 	11.21 	  827 	  11
#E10
	121.8 	 2.58 	89.0 	2.35 	 89.0 	 2.35 	11.26 	  790 	  10
#M05
	110.6 	 2.44 	79.3 	2.05 	 79.3 	 2.05 	9.71 	  765 	  12
#S06
	118.8 	 2.87 	87.1 	2.25 	 87.1 	 2.25 	10.48 	  752 	  10
#S07
	116.6 	 2.32 	84.7 	1.85 	 84.7 	 1.85 	10.23 	  755 	   9
#S08
	116.0 	 2.40 	84.3 	2.00 	 84.3 	 2.00 	10.72 	  795 	  10
#S09
	117.2 	 2.98 	84.5 	2.52 	 84.5 	 2.52 	10.80 	  799 	  11
#E10
	122.1 	 3.06 	88.9 	2.57 	 88.9 	 2.57 	10.87 	  765 	  11
#
#Loop C - Comment
#  M05  S06  S07  S08  S09  E10  X11  X12  X13  X14
"OK" 	"OK" 	"OK" 	"OK" 	"OK" 	"OK" 	
#  M05  S06  S07  S08  S09  E10  X11  X12  X13  X14
"OK" 	"OK" 	"OK" 	"OK" 	"OK" 	"OK" 	
#BadChannelSummary - not for the database
#  at 1.00fC
#		lost	dodgy	dead	stuck	ineff	unbon	lo_gn	hi_gn	lo_off	hi_off	partbon	hi_nse	vlo_gn	vhi_gn	vlo_nse	vhi_nse
#Chip M05:	  0	  0	  0	  0	  0	  0	  0	  0	  0	  0	  0	  0	  0	  0	  0	  0
#Chip S06:	  0	  0	  0	  0	  0	  0	  0	  0	  0	  0	  0	  0	  0	  0	  0	  0
#Chip S07:	  0	  0	  0	  0	  0	  0	  0	  0	  0	  0	  0	  0	  0	  0	  0	  0
#Chip S08:	  0	  0	  0	  0	  0	  0	  0	  0	  0	  0	  0	  0	  0	  0	  0	  0
#Chip S09:	  0	  0	  0	  0	  0	  0	  0	  0	  0	  0	  0	  0	  0	  0	  0	  0
#Chip E10:	  0	  1	  0	  0	  0	  0	  0	  0	  0	  0	  0	  1	  0	  0	  0	  0
#Chip M05:	  0	  0	  0	  0	  0	  0	  0	  0	  0	  0	  0	  0	  0	  0	  0	  0
#Chip S06:	  0	  0	  0	  0	  0	  0	  0	  0	  0	  0	  0	  0	  0	  0	  0	  0
#Chip S07:	  0	  0	  0	  0	  0	  0	  0	  1	  0	  0	  0	  0	  0	  0	  0	  0
#Chip S08:	  0	  0	  0	  0	  0	  0	  0	  0	  0	  0	  0	  0	  0	  0	  0	  0
#Chip S09:	  0	  0	  0	  0	  0	  0	  0	  0	  0	  0	  0	  0	  0	  0	  0	  0
#Chip E10:	  0	  1	  0	  0	  0	  0	  0	  0	  0	  0	  0	  1	  0	  0	  0	  0
#Link 0:	  0	  1	  0	  0	  0	  0	  0	  0	  0	  0	  0	  1	  0	  0	  0	  0
#Link 1:	  0	  1	  0	  0	  0	  0	  0	  1	  0	  0	  0	  1	  0	  0	  0	  0
#Link 2:	  0	  2	  0	  0	  0	  0	  0	  1	  0	  0	  0	  2	  0	  0	  0	  0
%Defect
DEFECT NAME    : NOISY
FIRST CHANNEL  : 767
LAST CHANNEL   : 767
#
%Defect
DEFECT NAME    : HI_GAIN
FIRST CHANNEL  : 1024
LAST CHANNEL   : 1024
#
%Defect
DEFECT NAME    : NOISY
FIRST CHANNEL  : 1535
LAST CHANNEL   : 1535
#
#3 defects found affecting 3 strips
#1 maximum consecutive defects
#
%TEST Rawdata
FILENAME       : /bigdisk/tb202208-itsdaq/var-old/results/PPB_ABCStar_R2H1_Hybrid0_RC_162_5.txt
#
#
%NewTest
#
SERIAL NUMBER  : PPB_ABCStar_R2H1_Hybrid0
TEST MADE BY   : TB
LOCATION NAME  : STFC_RAL_R12
Run number     : 163-1
TEST_DATE      : 30/08/2022
PASSED         : YES
PROBLEM        : NO
#
%DAQ_INFO
#
#HOST
"atlasitk1"
#VERSION
"3.43"
#DUT
"ABCStar_Test"
#TIME
"12:13:55"
#
%DCS_INFO
#
#T0	T1
. 	. 	
#VDET	IDET
. 	. 	
#VCC	ICC
. 	. 	
#VDD	IDD
. 	. 	
#TIME_POWERED
. 
#
%StrobeDelay
#
#DELAY
#  M05  S06  S07  S08  S09  E10  X11  X12  X13  X14
13 13 18 13 18 13 -1 -1 -1 -1 -1 -1 -1 -1 -1 -1 
#
#  M05  S06  S07  S08  S09  E10  X11  X12  X13  X14
13 13 18 13 18 13 -1 -1 -1 -1 -1 -1 -1 -1 -1 -1 
#
#No defects found!
%Comment
COMMENT        : Strobe Delay Fraction 0.57
#
#
%NewTest
#
SERIAL NUMBER  : PPB_ABCStar_R2H1_Hybrid0
TEST MADE BY   : TB
LOCATION NAME  : STFC_RAL_R12
Run number     : 163-2
TEST_DATE      : 30/08/2022
PASSED         : YES
PROBLEM        : NO
#
%DAQ_INFO
#
#HOST
"atlasitk1"
#VERSION
"3.43"
#DUT
"ABCStar_Test"
#TIME
"12:22:45"
#
%DCS_INFO
#
#T0	T1
. 	. 	
#VDET	IDET
. 	. 	
#VCC	ICC
. 	. 	
#VDD	IDD
. 	. 	
#TIME_POWERED
. 
#
#
%SCAN_INFO
#
#POINT_TYPE
"QCAL (fC)"
#N_POINTS
10
#POINTS
0.19 	0.50 	0.81 	1.00 	1.27 	1.50 	2.00 	2.99 	3.99 	5.99 	
#
#
%ResponseCurve
#
#Loop A - Fit
#	func	p0	p1	p2
#M05
	3 	1118.15 	3.23 	-531.81
#S06
	3 	967.07 	2.39 	-460.68
#S07
	3 	1078.34 	2.87 	-512.80
#S08
	3 	1144.41 	3.12 	-544.86
#S09
	3 	1081.02 	2.95 	-511.92
#E10
	3 	1022.94 	2.58 	-485.27
#M05
	3 	1121.93 	3.25 	-533.74
#S06
	3 	966.15 	2.41 	-460.17
#S07
	3 	1078.45 	2.88 	-512.80
#S08
	3 	1153.16 	3.15 	-549.02
#S09
	3 	1091.08 	2.99 	-516.70
#E10
	3 	1027.75 	2.61 	-487.03
#
#Loop B - Gain, Offset, Noise at 1.50fC
#	vt50 	rms  	gain	rms 	offset	rms  	outnse	innse	rms
#M05
	151.4 	 3.43 	81.4 	1.90 	 85.6 	 2.08 	10.49 	  805 	  10
#S06
	164.2 	 3.33 	89.8 	1.67 	 98.2 	 2.01 	11.03 	  767 	  10
#S07
	160.5 	 3.24 	86.8 	1.81 	 92.5 	 2.06 	10.87 	  782 	  13
#S08
	159.2 	 3.50 	85.9 	1.92 	 90.7 	 2.09 	11.47 	  834 	  12
#S09
	160.4 	 3.52 	85.3 	1.92 	 90.7 	 2.14 	11.51 	  844 	  10
#E10
	166.7 	 3.49 	90.1 	2.05 	 97.5 	 2.07 	11.32 	  785 	  11
#M05
	151.2 	 3.41 	81.3 	1.76 	 85.5 	 1.90 	10.05 	  772 	  11
#S06
	163.2 	 3.74 	89.4 	1.97 	 97.6 	 2.33 	10.61 	  742 	   8
#S07
	160.1 	 3.28 	86.6 	1.74 	 92.2 	 1.98 	10.48 	  756 	  11
#S08
	159.1 	 3.21 	85.7 	1.77 	 90.4 	 1.92 	10.98 	  800 	  11
#S09
	160.2 	 4.07 	85.2 	2.15 	 90.4 	 2.36 	11.06 	  811 	  11
#E10
	166.9 	 4.14 	90.0 	2.32 	 97.3 	 2.45 	10.88 	  756 	  11
#
#Loop C - Comment
#  M05  S06  S07  S08  S09  E10  X11  X12  X13  X14
"OK" 	"OK" 	"OK" 	"OK" 	"OK" 	"OK" 	
#  M05  S06  S07  S08  S09  E10  X11  X12  X13  X14
"OK" 	"OK" 	"OK" 	"OK" 	"OK" 	"OK" 	
#BadChannelSummary - not for the database
#  at 1.50fC
#		lost	dodgy	dead	stuck	ineff	unbon	lo_gn	hi_gn	lo_off	hi_off	partbon	hi_nse	vlo_gn	vhi_gn	vlo_nse	vhi_nse
#Chip M05:	  0	  0	  0	  0	  0	  0	  0	  0	  0	  0	  0	  0	  0	  0	  0	  0
#Chip S06:	  0	  0	  0	  0	  0	  0	  0	  0	  0	  0	  0	  0	  0	  0	  0	  0
#Chip S07:	  0	  0	  0	  0	  0	  0	  0	  0	  0	  0	  0	  0	  0	  0	  0	  0
#Chip S08:	  0	  0	  0	  0	  0	  0	  0	  0	  0	  0	  0	  0	  0	  0	  0	  0
#Chip S09:	  0	  0	  0	  0	  0	  0	  0	  0	  0	  0	  0	  0	  0	  0	  0	  0
#Chip E10:	  0	  1	  0	  0	  0	  0	  0	  0	  0	  0	  0	  1	  0	  0	  0	  0
#Chip M05:	  0	  0	  0	  0	  0	  0	  0	  0	  0	  0	  0	  0	  0	  0	  0	  0
#Chip S06:	  0	  0	  0	  0	  0	  0	  0	  0	  0	  0	  0	  0	  0	  0	  0	  0
#Chip S07:	  0	  0	  0	  0	  0	  0	  0	  0	  0	  0	  0	  0	  0	  0	  0	  0
#Chip S08:	  0	  0	  0	  0	  0	  0	  0	  0	  0	  0	  0	  0	  0	  0	  0	  0
#Chip S09:	  0	  0	  0	  0	  0	  0	  0	  0	  0	  0	  0	  0	  0	  0	  0	  0
#Chip E10:	  0	  1	  0	  0	  0	  0	  0	  0	  0	  0	  0	  1	  0	  0	  0	  0
#Link 0:	  0	  1	  0	  0	  0	  0	  0	  0	  0	  0	  0	  1	  0	  0	  0	  0
#Link 1:	  0	  1	  0	  0	  0	  0	  0	  0	  0	  0	  0	  1	  0	  0	  0	  0
#Link 2:	  0	  2	  0	  0	  0	  0	  0	  0	  0	  0	  0	  2	  0	  0	  0	  0
%Defect
DEFECT NAME    : NOISY
FIRST CHANNEL  : 767
LAST CHANNEL   : 767
#
%Defect
DEFECT NAME    : NOISY
FIRST CHANNEL  : 1535
LAST CHANNEL   : 1535
#
#2 defects found affecting 2 strips
#1 maximum consecutive defects
#
%TEST Rawdata
FILENAME       : /bigdisk/tb202208-itsdaq/var-old/results/PPB_ABCStar_R2H1_Hybrid0_RC_163_2.txt
#
#
%NewTest
#
SERIAL NUMBER  : PPB_ABCStar_R2H1_Hybrid0
TEST MADE BY   : TB
LOCATION NAME  : STFC_RAL_R12
Run number     : 164-1
TEST_DATE      : 30/08/2022
PASSED         : YES
PROBLEM        : NO
#
%DAQ_INFO
#
#HOST
"atlasitk1"
#VERSION
"3.43"
#DUT
"ABCStar_Test"
#TIME
"12:23:30"
#
%DCS_INFO
#
#T0	T1
. 	. 	
#VDET	IDET
. 	. 	
#VCC	ICC
. 	. 	
#VDD	IDD
. 	. 	
#TIME_POWERED
. 
#
%StrobeDelay
#
#DELAY
#  M05  S06  S07  S08  S09  E10  X11  X12  X13  X14
14 13 18 13 18 13 -1 -1 -1 -1 -1 -1 -1 -1 -1 -1 
#
#  M05  S06  S07  S08  S09  E10  X11  X12  X13  X14
14 13 18 13 18 13 -1 -1 -1 -1 -1 -1 -1 -1 -1 -1 
#
#No defects found!
%Comment
COMMENT        : Strobe Delay Fraction 0.57
#
#
%NewTest
#
SERIAL NUMBER  : PPB_ABCStar_R2H1_Hybrid0
TEST MADE BY   : TB
LOCATION NAME  : STFC_RAL_R12
Run number     : 164-2
TEST_DATE      : 30/08/2022
PASSED         : NO
PROBLEM        : NO
#
%DAQ_INFO
#
#HOST
"atlasitk1"
#VERSION
"3.43"
#DUT
"ABCStar_Test"
#TIME
"12:24:12"
#
%DCS_INFO
#
#T0	T1
. 	. 	
#VDET	IDET
. 	. 	
#VCC	ICC
. 	. 	
#VDD	IDD
. 	. 	
#TIME_POWERED
. 
#
#
%NO
#
#	Offset	MeanOcc   	RMSOcc    	EstENC
#M05
	12.6 	4.0e-01 	1.9e-02 	 765
#S06
	12.4 	3.9e-01 	2.7e-02 	 766
#S07
	12.6 	4.0e-01 	1.9e-02 	 775
#S08
	12.5 	3.9e-01 	2.1e-02 	 832
#S09
	12.3 	4.0e-01 	1.9e-02 	 834
#E10
	12.3 	3.9e-01 	2.0e-02 	 790
#M05
	12.5 	3.9e-01 	1.7e-02 	 731
#S06
	12.4 	3.8e-01 	2.2e-02 	 736
#S07
	12.6 	3.9e-01 	2.1e-02 	 744
#S08
	12.4 	3.9e-01 	2.3e-02 	 791
#S09
	12.2 	3.9e-01 	1.9e-02 	 797
#E10
	12.3 	3.9e-01 	2.3e-02 	 763
#
%Defect
DEFECT NAME    : NO_HI
FIRST CHANNEL  : 0
LAST CHANNEL   : 127
#
%Defect
DEFECT NAME    : NO_HI
FIRST CHANNEL  : 128
LAST CHANNEL   : 255
#
%Defect
DEFECT NAME    : NO_HI
FIRST CHANNEL  : 256
LAST CHANNEL   : 383
#
%Defect
DEFECT NAME    : NO_HI
FIRST CHANNEL  : 384
LAST CHANNEL   : 511
#
%Defect
DEFECT NAME    : NO_HI
FIRST CHANNEL  : 512
LAST CHANNEL   : 639
#
%Defect
DEFECT NAME    : NO_HI
FIRST CHANNEL  : 640
LAST CHANNEL   : 767
#
%Defect
DEFECT NAME    : NO_HI
FIRST CHANNEL  : 2816
LAST CHANNEL   : 2943
#
%Defect
DEFECT NAME    : NO_HI
FIRST CHANNEL  : 2944
LAST CHANNEL   : 3071
#
%Defect
DEFECT NAME    : NO_HI
FIRST CHANNEL  : 3072
LAST CHANNEL   : 3199
#
%Defect
DEFECT NAME    : NO_HI
FIRST CHANNEL  : 3200
LAST CHANNEL   : 3327
#
%Defect
DEFECT NAME    : NO_HI
FIRST CHANNEL  : 3328
LAST CHANNEL   : 3455
#
%Defect
DEFECT NAME    : NO_HI
FIRST CHANNEL  : 3456
LAST CHANNEL   : 3583
#
#12 defects found
%Comment
COMMENT        : FAIL due to 1536 bad strips (more than 15)
#
%Comment
COMMENT        : FAIL due to 768 consecutive bad strips (more than 8)
#
%Comment
COMMENT        : No trim data found
#
#
%NewTest
#
SERIAL NUMBER  : PPB_ABCStar_R2H1_Hybrid0
TEST MADE BY   : TB
LOCATION NAME  : STFC_RAL_R12
Run number     : 165-1
TEST_DATE      : 30/08/2022
PASSED         : YES
PROBLEM        : NO
#
%DAQ_INFO
#
#HOST
"atlasitk1"
#VERSION
"3.43"
#DUT
"ABCStar_Test"
#TIME
"12:35:58"
#
%DCS_INFO
#
#T0	T1
. 	. 	
#VDET	IDET
. 	. 	
#VCC	ICC
. 	. 	
#VDD	IDD
. 	. 	
#TIME_POWERED
. 
#
%StrobeDelay
#
#DELAY
#  M05  S06  S07  S08  S09  E10  X11  X12  X13  X14
13 13 18 13 18 13 -1 -1 -1 -1 -1 -1 -1 -1 -1 -1 
#
#  M05  S06  S07  S08  S09  E10  X11  X12  X13  X14
14 13 18 13 18 13 -1 -1 -1 -1 -1 -1 -1 -1 -1 -1 
#
#No defects found!
%Comment
COMMENT        : Strobe Delay Fraction 0.57
#
#
%NewTest
#
SERIAL NUMBER  : PPB_ABCStar_R2H1_Hybrid0
TEST MADE BY   : TB
LOCATION NAME  : STFC_RAL_R12
Run number     : 165-4
TEST_DATE      : 30/08/2022
PASSED         : YES
PROBLEM        : NO
#
%DAQ_INFO
#
#HOST
"atlasitk1"
#VERSION
"3.43"
#DUT
"ABCStar_Test"
#TIME
"12:39:43"
#
%DCS_INFO
#
#T0	T1
. 	. 	
#VDET	IDET
. 	. 	
#VCC	ICC
. 	. 	
#VDD	IDD
. 	. 	
#TIME_POWERED
. 
#
#
%SCAN_INFO
#
#POINT_TYPE
"QCAL (fC)"
#N_POINTS
3
#POINTS
0.50 	1.00 	1.50 	
#
#
%ThreePointGain
#
#Loop A - Fit
#	func	p0	p1	p2
#M05
	4 	31.20 	79.11 	0.00
#S06
	4 	32.30 	88.02 	0.00
#S07
	4 	32.40 	85.36 	0.00
#S08
	4 	31.96 	84.85 	0.00
#S09
	4 	32.94 	85.00 	0.00
#E10
	4 	32.92 	89.36 	0.00
#M05
	4 	31.22 	79.02 	0.00
#S06
	4 	32.21 	87.39 	0.00
#S07
	4 	32.42 	85.02 	0.00
#S08
	4 	32.17 	84.59 	0.00
#S09
	4 	32.98 	84.74 	0.00
#E10
	4 	33.21 	89.24 	0.00
#
#Loop B - Gain, Offset, Noise at 1.00fC
#	vt50 	rms  	gain	rms 	offset	rms  	outnse	innse	rms
#M05
	109.6 	 2.43 	79.1 	2.19 	 79.1 	 2.19 	10.27 	  811 	  10
#S06
	119.9 	 2.70 	88.0 	1.91 	 88.0 	 1.91 	10.83 	  769 	  11
#S07
	117.2 	 2.44 	85.4 	2.07 	 85.4 	 2.07 	10.52 	  770 	  11
#S08
	116.3 	 2.67 	84.9 	2.09 	 84.9 	 2.09 	11.16 	  822 	  11
#S09
	117.6 	 2.63 	85.0 	2.25 	 85.0 	 2.25 	11.17 	  821 	  11
#E10
	122.1 	 2.63 	89.4 	2.32 	 89.4 	 2.32 	11.19 	  783 	  11
#M05
	109.5 	 2.43 	79.0 	2.03 	 79.0 	 2.03 	9.89 	  782 	  11
#S06
	119.2 	 2.86 	87.4 	2.23 	 87.4 	 2.23 	10.39 	  743 	  10
#S07
	116.8 	 2.38 	85.0 	1.83 	 85.0 	 1.83 	10.13 	  745 	  11
#S08
	116.3 	 2.47 	84.6 	1.99 	 84.6 	 1.99 	10.65 	  787 	  11
#S09
	117.3 	 2.84 	84.7 	2.38 	 84.7 	 2.38 	10.75 	  792 	  10
#E10
	122.3 	 3.09 	89.2 	2.57 	 89.2 	 2.57 	10.80 	  756 	  11
#
#Loop C - Comment
#  M05  S06  S07  S08  S09  E10  X11  X12  X13  X14
"OK" 	"OK" 	"OK" 	"OK" 	"OK" 	"OK" 	
#  M05  S06  S07  S08  S09  E10  X11  X12  X13  X14
"OK" 	"OK" 	"OK" 	"OK" 	"OK" 	"OK" 	
#BadChannelSummary - not for the database
#  at 1.00fC
#		lost	dodgy	dead	stuck	ineff	unbon	lo_gn	hi_gn	lo_off	hi_off	partbon	hi_nse	vlo_gn	vhi_gn	vlo_nse	vhi_nse
#Chip M05:	  0	  0	  0	  0	  0	  0	  0	  0	  0	  0	  0	  0	  0	  0	  0	  0
#Chip S06:	  0	  0	  0	  0	  0	  0	  0	  0	  0	  0	  0	  0	  0	  0	  0	  0
#Chip S07:	  0	  0	  0	  0	  0	  0	  0	  0	  0	  0	  0	  0	  0	  0	  0	  0
#Chip S08:	  0	  0	  0	  0	  0	  0	  0	  0	  0	  0	  0	  0	  0	  0	  0	  0
#Chip S09:	  0	  0	  0	  0	  0	  0	  0	  0	  0	  0	  0	  0	  0	  0	  0	  0
#Chip E10:	  0	  1	  0	  0	  0	  0	  0	  0	  0	  0	  0	  1	  0	  0	  0	  0
#Chip M05:	  0	  0	  0	  0	  0	  0	  0	  0	  0	  0	  0	  0	  0	  0	  0	  0
#Chip S06:	  0	  0	  0	  0	  0	  0	  0	  0	  0	  0	  0	  0	  0	  0	  0	  0
#Chip S07:	  0	  0	  0	  0	  0	  0	  0	  1	  0	  0	  0	  0	  0	  0	  0	  0
#Chip S08:	  0	  0	  0	  0	  0	  0	  0	  0	  0	  0	  0	  0	  0	  0	  0	  0
#Chip S09:	  0	  0	  0	  0	  0	  0	  0	  1	  0	  0	  0	  0	  0	  0	  0	  0
#Chip E10:	  0	  1	  0	  0	  0	  0	  0	  0	  0	  0	  0	  1	  0	  0	  0	  0
#Link 0:	  0	  1	  0	  0	  0	  0	  0	  0	  0	  0	  0	  1	  0	  0	  0	  0
#Link 1:	  0	  1	  0	  0	  0	  0	  0	  2	  0	  0	  0	  1	  0	  0	  0	  0
#Link 2:	  0	  2	  0	  0	  0	  0	  0	  2	  0	  0	  0	  2	  0	  0	  0	  0
%Defect
DEFECT NAME    : NOISY
FIRST CHANNEL  : 767
LAST CHANNEL   : 767
#
%Defect
DEFECT NAME    : HI_GAIN
FIRST CHANNEL  : 1024
LAST CHANNEL   : 1024
#
%Defect
DEFECT NAME    : HI_GAIN
FIRST CHANNEL  : 1343
LAST CHANNEL   : 1343
#
%Defect
DEFECT NAME    : NOISY
FIRST CHANNEL  : 1535
LAST CHANNEL   : 1535
#
#4 defects found affecting 4 strips
#1 maximum consecutive defects
#
%TEST Rawdata
FILENAME       : /bigdisk/tb202208-itsdaq/var-old/results/PPB_ABCStar_R2H1_Hybrid0_RC_165_4.txt
#
#
%NewTest
#
SERIAL NUMBER  : PPB_ABCStar_R2H1_Hybrid0
TEST MADE BY   : TB
LOCATION NAME  : STFC_RAL_R12
Run number     : 166-2
TEST_DATE      : 30/08/2022
PASSED         : YES
PROBLEM        : NO
#
%DAQ_INFO
#
#HOST
"atlasitk1"
#VERSION
"3.43"
#DUT
"ABCStar_Test"
#TIME
"12:47:08"
#
%DCS_INFO
#
#T0	T1
. 	. 	
#VDET	IDET
. 	. 	
#VCC	ICC
. 	. 	
#VDD	IDD
. 	. 	
#TIME_POWERED
. 
#
%StrobeDelay
#
#DELAY
#  M05  S06  S07  S08  S09  E10  X11  X12  X13  X14
13 13 18 13 18 13 -1 -1 -1 -1 -1 -1 -1 -1 -1 -1 
#
#  M05  S06  S07  S08  S09  E10  X11  X12  X13  X14
13 13 18 13 18 13 -1 -1 -1 -1 -1 -1 -1 -1 -1 -1 
#
#No defects found!
%Comment
COMMENT        : Strobe Delay Fraction 0.57
#
#
%NewTest
#
SERIAL NUMBER  : PPB_ABCStar_R2H1_Hybrid0
TEST MADE BY   : TB
LOCATION NAME  : STFC_RAL_R12
Run number     : 171-1
TEST_DATE      : 30/08/2022
PASSED         : YES
PROBLEM        : NO
#
%DAQ_INFO
#
#HOST
"atlasitk1"
#VERSION
"3.43"
#DUT
"ABCStar_Test"
#TIME
"12:51:28"
#
%DCS_INFO
#
#T0	T1
. 	. 	
#VDET	IDET
. 	. 	
#VCC	ICC
. 	. 	
#VDD	IDD
. 	. 	
#TIME_POWERED
. 
#
%StrobeDelay
#
#DELAY
#  M05  S06  S07  S08  S09  E10  X11  X12  X13  X14
13 13 18 13 18 13 -1 -1 -1 -1 -1 -1 -1 -1 -1 -1 
#
#  M05  S06  S07  S08  S09  E10  X11  X12  X13  X14
13 13 18 13 18 13 -1 -1 -1 -1 -1 -1 -1 -1 -1 -1 
#
#No defects found!
%Comment
COMMENT        : Strobe Delay Fraction 0.57
#
