#chan	code	gain	vt50	innse	comment
   0	     0	89.0	162.1	 521	OK
   1	     0	86.9	163.0	 506	OK
   2	     0	85.4	159.1	 529	OK
   3	     0	86.5	163.2	 526	OK
   4	     0	84.4	156.4	 544	OK
   5	     0	86.2	161.5	 537	OK
   6	     0	84.4	158.3	 531	OK
   7	     0	85.8	159.9	 516	OK
   8	     0	85.3	157.3	 504	OK
   9	     0	85.1	160.1	 531	OK
  10	     0	86.6	161.1	 517	OK
  11	     0	84.5	158.7	 529	OK
  12	     0	85.2	158.2	 525	OK
  13	     0	80.9	150.9	 537	OK
  14	     0	83.2	154.9	 523	OK
  15	     0	85.2	157.4	 532	OK
  16	     0	85.4	156.3	 533	OK
  17	     0	83.4	155.1	 522	OK
  18	     0	82.8	156.0	 514	OK
  19	     0	85.0	155.5	 545	OK
  20	     0	85.4	158.0	 523	OK
  21	     0	83.3	155.5	 549	OK
  22	     0	84.4	154.8	 521	OK
  23	     0	80.8	151.4	 537	OK
  24	     0	80.3	152.2	 518	OK
  25	     0	82.9	154.8	 524	OK
  26	     0	82.2	151.5	 530	OK
  27	     0	84.0	158.3	 530	OK
  28	     0	80.9	151.8	 536	OK
  29	     0	83.0	154.7	 517	OK
  30	     0	82.3	154.5	 525	OK
  31	     0	83.1	154.2	 522	OK
  32	     0	83.4	155.1	 538	OK
  33	     0	80.4	151.0	 534	OK
  34	     0	81.6	153.1	 537	OK
  35	     0	82.1	153.2	 524	OK
  36	     0	81.9	154.3	 535	OK
  37	     0	83.4	152.3	 532	OK
  38	     0	85.9	159.6	 522	OK
  39	     0	84.6	155.4	 548	OK
  40	     0	82.6	152.4	 535	OK
  41	     0	84.0	156.7	 522	OK
  42	     0	83.3	155.2	 533	OK
  43	     0	84.4	157.0	 542	OK
  44	     0	82.4	153.2	 534	OK
  45	     0	84.7	160.1	 526	OK
  46	     0	84.1	158.4	 529	OK
  47	     0	82.4	154.6	 555	OK
  48	     0	83.8	155.9	 544	OK
  49	     0	84.6	157.7	 535	OK
  50	     0	82.5	153.6	 540	OK
  51	     0	84.1	153.7	 529	OK
  52	     0	81.1	152.3	 531	OK
  53	     0	82.2	153.3	 531	OK
  54	     0	83.7	155.5	 529	OK
  55	     0	84.9	158.0	 529	OK
  56	     0	84.4	156.3	 542	OK
  57	     0	81.0	150.2	 558	OK
  58	     0	84.6	157.5	 534	OK
  59	     0	86.1	158.9	 547	OK
  60	     0	83.0	152.7	 546	OK
  61	     0	82.6	154.6	 543	OK
  62	     0	86.3	161.9	 549	OK
  63	     0	84.9	159.7	 546	OK
  64	     0	85.1	160.5	 530	OK
  65	     0	85.5	161.0	 543	OK
  66	     0	86.3	158.7	 537	OK
  67	     0	85.9	158.6	 524	OK
  68	     0	82.5	152.1	 528	OK
  69	     0	82.7	153.8	 530	OK
  70	     0	82.5	155.0	 553	OK
  71	     0	84.3	154.4	 544	OK
  72	     0	84.1	155.5	 547	OK
  73	     0	81.5	152.1	 554	OK
  74	     0	84.9	155.6	 546	OK
  75	     0	81.2	150.4	 521	OK
  76	     0	81.5	150.3	 544	OK
  77	     0	82.9	154.6	 518	OK
  78	     0	83.3	154.8	 526	OK
  79	     0	81.1	151.7	 529	OK
  80	     0	83.9	154.2	 525	OK
  81	     0	81.7	152.5	 531	OK
  82	     0	80.8	150.8	 543	OK
  83	     0	84.2	155.0	 525	OK
  84	     0	81.2	149.7	 524	OK
  85	     0	80.1	149.2	 527	OK
  86	     0	81.7	150.2	 539	OK
  87	     0	83.0	155.5	 541	OK
  88	     0	86.6	158.7	 531	OK
  89	     0	81.4	152.2	 531	OK
  90	     0	81.2	150.3	 535	OK
  91	     0	83.5	154.2	 539	OK
  92	     0	79.5	149.4	 556	OK
  93	     0	82.7	154.6	 537	OK
  94	     0	84.0	154.0	 522	OK
  95	     0	83.2	154.5	 531	OK
  96	     0	78.7	146.7	 537	OK
  97	     0	80.9	149.7	 522	OK
  98	     0	84.8	158.1	 529	OK
  99	     0	84.9	157.2	 533	OK
 100	     0	82.7	152.9	 528	OK
 101	     0	84.9	157.2	 549	OK
 102	     0	83.7	154.6	 534	OK
 103	     0	83.3	153.7	 542	OK
 104	     0	86.7	159.8	 551	OK
 105	     0	84.6	152.7	 538	OK
 106	     0	83.6	155.8	 540	OK
 107	     0	83.5	155.1	 537	OK
 108	     0	81.5	152.2	 541	OK
 109	     0	82.3	151.4	 519	OK
 110	     0	80.6	148.9	 525	OK
 111	     0	81.6	150.8	 540	OK
 112	     0	83.8	153.7	 521	OK
 113	     0	83.1	154.4	 522	OK
 114	     0	79.9	148.7	 532	OK
 115	     0	83.1	156.1	 515	OK
 116	     0	80.8	150.3	 547	OK
 117	     0	82.9	153.6	 537	OK
 118	     0	84.1	157.2	 529	OK
 119	     0	83.9	153.2	 543	OK
 120	     0	86.2	157.4	 526	OK
 121	     0	84.3	156.1	 535	OK
 122	     0	86.8	157.6	 531	OK
 123	     0	83.5	154.0	 535	OK
 124	     0	85.7	157.6	 548	OK
 125	     0	85.7	157.2	 539	OK
 126	     0	83.5	157.0	 544	OK
 127	     0	84.9	156.0	 530	OK
 128	     0	90.2	167.8	 537	OK
 129	     0	91.2	168.2	 528	OK
 130	     0	90.3	167.2	 536	OK
 131	     0	89.9	162.7	 536	OK
 132	     0	89.2	164.9	 532	OK
 133	     0	88.2	163.5	 515	OK
 134	     0	89.2	164.6	 534	OK
 135	     0	88.5	163.2	 540	OK
 136	     0	87.1	161.1	 537	OK
 137	     0	88.1	162.2	 522	OK
 138	     0	89.3	165.2	 518	OK
 139	     0	88.9	163.1	 526	OK
 140	     0	86.6	159.3	 522	OK
 141	     0	88.3	160.2	 533	OK
 142	     0	86.6	160.6	 519	OK
 143	     0	86.8	159.6	 540	OK
 144	     0	88.1	161.1	 523	OK
 145	     0	88.0	164.3	 527	OK
 146	     0	86.6	160.4	 520	OK
 147	     0	88.1	161.0	 539	OK
 148	     0	88.2	161.9	 531	OK
 149	     0	89.9	163.8	 531	OK
 150	     0	89.0	164.1	 528	OK
 151	     0	86.5	161.0	 530	OK
 152	     0	87.1	159.0	 530	OK
 153	     0	86.8	159.1	 517	OK
 154	     0	85.7	157.6	 544	OK
 155	     0	84.2	158.2	 537	OK
 156	     0	87.5	162.5	 514	OK
 157	     0	86.2	158.6	 518	OK
 158	     0	85.9	158.4	 537	OK
 159	     0	86.4	157.3	 523	OK
 160	     0	85.1	156.3	 540	OK
 161	     0	83.2	155.8	 533	OK
 162	     0	88.1	160.2	 546	OK
 163	     0	86.3	159.7	 526	OK
 164	     0	88.5	162.6	 542	OK
 165	     0	88.6	163.5	 519	OK
 166	     0	84.8	158.4	 523	OK
 167	     0	86.9	160.0	 537	OK
 168	     0	86.4	159.1	 532	OK
 169	     0	88.6	163.0	 535	OK
 170	     0	87.5	161.5	 540	OK
 171	     0	86.7	161.6	 541	OK
 172	     0	87.7	162.2	 543	OK
 173	     0	87.9	163.1	 545	OK
 174	     0	88.1	163.5	 528	OK
 175	     0	83.8	155.6	 544	OK
 176	     0	86.9	159.7	 538	OK
 177	     0	87.0	158.8	 535	OK
 178	     0	85.8	154.9	 545	OK
 179	     0	87.2	159.0	 533	OK
 180	     0	88.1	162.7	 538	OK
 181	     0	86.9	162.5	 530	OK
 182	     0	86.6	159.5	 527	OK
 183	     0	87.4	161.4	 537	OK
 184	     0	88.2	162.8	 536	OK
 185	     0	86.8	159.6	 526	OK
 186	     0	87.2	161.7	 525	OK
 187	     0	85.8	159.7	 539	OK
 188	     0	88.0	161.6	 539	OK
 189	     0	86.5	159.9	 540	OK
 190	     0	87.0	161.8	 541	OK
 191	     0	90.5	168.4	 523	OK
 192	     0	89.8	165.8	 539	OK
 193	     0	86.0	161.3	 539	OK
 194	     0	84.3	156.5	 541	OK
 195	     0	88.1	163.0	 531	OK
 196	     0	86.8	159.5	 523	OK
 197	     0	86.7	161.8	 546	OK
 198	     0	87.5	161.4	 529	OK
 199	     0	89.0	161.7	 531	OK
 200	     0	86.6	161.0	 538	OK
 201	     0	84.9	156.8	 551	OK
 202	     0	86.5	160.4	 548	OK
 203	     0	87.5	159.8	 528	OK
 204	     0	85.9	160.4	 538	OK
 205	     0	86.6	160.9	 529	OK
 206	     0	83.6	153.0	 539	OK
 207	     0	85.1	158.0	 544	OK
 208	     0	88.4	162.5	 528	OK
 209	     0	91.3	166.2	 536	OK
 210	     0	89.9	166.9	 547	OK
 211	     0	87.9	161.4	 542	OK
 212	     0	86.0	158.5	 544	OK
 213	     0	85.8	160.2	 541	OK
 214	     0	90.6	162.8	 545	OK
 215	     0	86.9	157.8	 556	OK
 216	     0	88.4	161.7	 537	OK
 217	     0	87.4	162.4	 521	OK
 218	     0	85.7	158.0	 528	OK
 219	     0	85.9	158.9	 531	OK
 220	     0	86.0	157.3	 538	OK
 221	     0	91.8	167.8	 518	OK
 222	     0	85.4	158.7	 538	OK
 223	     0	89.0	162.6	 520	OK
 224	     0	90.4	167.6	 524	OK
 225	     0	87.8	160.8	 529	OK
 226	     0	87.1	162.2	 529	OK
 227	     0	87.4	162.0	 511	OK
 228	     0	85.8	158.4	 532	OK
 229	     0	87.1	158.4	 549	OK
 230	     0	87.7	160.7	 534	OK
 231	     0	86.2	159.0	 533	OK
 232	     0	88.3	161.5	 535	OK
 233	     0	88.0	163.1	 534	OK
 234	     0	89.2	161.5	 531	OK
 235	     0	85.4	157.4	 524	OK
 236	     0	90.2	164.2	 529	OK
 237	     0	84.9	157.3	 535	OK
 238	     0	86.5	160.0	 533	OK
 239	     0	85.2	156.0	 515	OK
 240	     0	88.9	162.4	 520	OK
 241	     0	86.6	160.2	 518	OK
 242	     0	86.1	159.0	 517	OK
 243	     0	84.3	155.2	 526	OK
 244	     0	84.1	153.2	 536	OK
 245	     0	87.6	161.8	 542	OK
 246	     0	87.3	162.2	 534	OK
 247	     0	86.2	159.1	 522	OK
 248	     0	88.9	164.2	 522	OK
 249	     0	86.6	159.5	 530	OK
 250	     0	87.2	162.3	 528	OK
 251	     0	86.0	157.9	 540	OK
 252	     0	86.0	158.6	 547	OK
 253	     0	88.8	164.2	 518	OK
 254	     0	88.0	160.6	 507	OK
 255	     0	86.7	161.5	 502	OK
 256	     0	88.8	161.6	 525	OK
 257	     0	86.9	160.0	 537	OK
 258	     0	83.1	152.9	 518	OK
 259	     0	83.2	153.0	 521	OK
 260	     0	86.2	158.5	 525	OK
 261	     0	84.1	156.2	 515	OK
 262	     0	86.1	157.7	 530	OK
 263	     0	86.6	159.6	 519	OK
 264	     0	87.1	158.3	 518	OK
 265	     0	83.4	154.5	 537	OK
 266	     0	85.3	158.1	 525	OK
 267	     0	83.3	153.1	 534	OK
 268	     0	85.0	156.0	 548	OK
 269	     0	84.1	153.7	 526	OK
 270	     0	82.8	151.0	 533	OK
 271	     0	82.7	151.0	 521	OK
 272	     0	82.4	150.6	 524	OK
 273	     0	83.8	152.7	 545	OK
 274	     0	81.1	149.2	 532	OK
 275	     0	82.6	152.5	 539	OK
 276	     0	83.7	152.8	 518	OK
 277	     0	81.0	150.3	 516	OK
 278	     0	81.6	152.1	 535	OK
 279	     0	84.8	155.6	 510	OK
 280	     0	82.8	151.4	 536	OK
 281	     0	83.3	152.2	 530	OK
 282	     0	81.4	149.6	 527	OK
 283	     0	84.6	154.8	 520	OK
 284	     0	83.0	152.7	 522	OK
 285	     0	81.2	152.3	 543	OK
 286	     0	84.2	152.9	 526	OK
 287	     0	83.3	154.2	 528	OK
 288	     0	84.2	154.6	 535	OK
 289	     0	84.8	158.8	 530	OK
 290	     0	86.2	158.2	 541	OK
 291	     0	83.4	155.0	 527	OK
 292	     0	83.1	153.1	 531	OK
 293	     0	83.9	156.6	 568	OK
 294	     0	84.1	155.3	 529	OK
 295	     0	85.2	157.0	 516	OK
 296	     0	83.2	153.0	 527	OK
 297	     0	84.0	153.7	 543	OK
 298	     0	81.6	152.0	 555	OK
 299	     0	82.1	148.1	 537	OK
 300	     0	82.3	152.1	 530	OK
 301	     0	81.7	151.6	 556	OK
 302	     0	85.7	157.8	 543	OK
 303	     0	84.8	154.9	 526	OK
 304	     0	82.7	153.4	 549	OK
 305	     0	84.4	156.6	 535	OK
 306	     0	86.1	159.7	 528	OK
 307	     0	82.3	152.6	 551	OK
 308	     0	80.6	149.5	 546	OK
 309	     0	84.3	153.0	 537	OK
 310	     0	80.3	148.9	 526	OK
 311	     0	83.7	154.7	 539	OK
 312	     0	81.6	151.2	 533	OK
 313	     0	85.6	154.4	 545	OK
 314	     0	82.6	154.8	 540	OK
 315	     0	81.6	152.4	 555	OK
 316	     0	84.1	155.3	 547	OK
 317	     0	84.4	155.5	 544	OK
 318	     0	85.9	156.3	 535	OK
 319	     0	83.3	154.0	 528	OK
 320	     0	84.6	154.1	 549	OK
 321	     0	84.8	158.5	 547	OK
 322	     0	85.5	159.4	 553	OK
 323	     0	84.5	156.4	 551	OK
 324	     0	81.2	149.3	 524	OK
 325	     0	81.7	150.6	 541	OK
 326	     0	83.7	152.5	 535	OK
 327	     0	81.2	149.2	 549	OK
 328	     0	82.3	151.9	 546	OK
 329	     0	83.9	153.6	 518	OK
 330	     0	81.9	150.7	 548	OK
 331	     0	82.5	151.9	 616	OK
 332	     0	81.3	150.5	 580	OK
 333	     0	80.9	147.7	 633	OK
 334	  4000	82.5	150.6	 980	high noise
 335	  4000	83.0	155.3	1510	high noise
 336	  4000	82.3	154.1	1470	high noise
 337	 80000	82.5	149.8	2498	very high noise
 338	 80000	81.2	176.7	2882	very high noise
 339	  4000	81.1	144.7	1519	high noise
 340	     0	82.5	150.3	 642	OK
 341	  4000	83.5	152.7	 751	high noise
 342	  4000	81.8	151.3	 798	high noise
 343	     0	81.3	149.6	 622	OK
 344	  4000	83.3	160.4	1024	high noise
 345	  4000	82.0	149.5	1110	high noise
 346	  4000	82.1	146.2	 983	high noise
 347	  4000	81.5	148.2	1115	high noise
 348	  4000	83.5	151.0	1266	high noise
 349	  4000	82.2	151.9	1420	high noise
 350	  4000	80.6	146.1	1209	high noise
 351	  4000	83.2	155.4	1054	high noise
 352	  4000	83.2	153.7	1086	high noise
 353	  4000	82.5	156.7	1065	high noise
 354	  4000	83.1	149.8	1263	high noise
 355	  4000	82.0	152.6	1034	high noise
 356	  4000	82.4	150.3	 862	high noise
 357	  4000	80.8	150.6	 702	high noise
 358	  4000	82.2	150.4	 781	high noise
 359	  4000	82.5	153.1	 932	high noise
 360	  4000	84.3	152.8	1178	high noise
 361	  4000	83.8	153.2	1401	high noise
 362	  4000	84.4	155.8	1184	high noise
 363	  4000	83.4	151.8	1043	high noise
 364	  4000	83.0	154.7	 979	high noise
 365	  4000	82.8	155.6	 906	high noise
 366	  4000	81.5	155.1	 922	high noise
 367	  4000	83.6	149.6	1003	high noise
 368	  4000	80.2	149.6	1025	high noise
 369	  4000	81.4	150.3	 687	high noise
 370	     0	84.0	154.5	 575	OK
 371	     0	83.2	150.3	 577	OK
 372	     0	80.9	148.7	 556	OK
 373	     0	80.8	147.7	 580	OK
 374	     0	80.6	146.4	 580	OK
 375	     0	84.9	156.1	 598	OK
 376	     0	84.2	156.2	 575	OK
 377	     0	82.4	151.0	 603	OK
 378	     0	83.3	153.5	 613	OK
 379	     0	85.4	154.2	 579	OK
 380	     0	83.2	153.4	 587	OK
 381	     0	83.1	151.6	 594	OK
 382	     0	85.3	156.2	 650	OK
 383	     0	86.0	155.3	 658	OK
 384	     0	86.0	159.3	 600	OK
 385	     0	87.1	159.4	 595	OK
 386	     0	86.9	160.0	 605	OK
 387	     0	87.6	157.7	 603	OK
 388	     0	85.8	154.4	 562	OK
 389	  4000	85.2	155.1	 681	high noise
 390	     0	83.3	152.6	 593	OK
 391	  4000	82.5	149.5	 715	high noise
 392	  4000	84.6	155.2	 783	high noise
 393	  4000	84.7	153.0	1057	high noise
 394	  4000	85.3	153.3	 827	high noise
 395	     0	84.9	154.9	 636	OK
 396	  4000	84.5	154.3	 796	high noise
 397	     0	86.3	157.3	 603	OK
 398	     0	83.5	152.5	 575	OK
 399	     0	85.3	157.4	 573	OK
 400	     0	86.8	159.0	 573	OK
 401	     0	84.3	156.3	 566	OK
 402	     0	84.9	155.3	 578	OK
 403	     0	81.9	149.6	 585	OK
 404	     0	83.2	153.6	 586	OK
 405	     0	85.1	156.0	 573	OK
 406	     0	83.3	150.9	 575	OK
 407	     0	84.6	156.0	 571	OK
 408	     0	83.2	151.1	 595	OK
 409	     0	85.5	156.4	 602	OK
 410	     0	86.5	158.0	 645	OK
 411	  4000	85.7	159.1	 861	high noise
 412	  4000	84.6	155.2	1300	high noise
 413	  4000	87.9	161.2	1112	high noise
 414	  4000	83.4	146.5	 970	high noise
 415	  4000	84.3	149.0	1292	high noise
 416	  4000	81.8	154.3	1550	high noise
 417	  4000	82.8	154.2	1033	high noise
 418	  4000	85.0	154.6	1191	high noise
 419	  4000	85.4	156.2	1542	high noise
 420	  4000	84.1	153.0	1287	high noise
 421	  4000	81.4	151.0	 858	high noise
 422	  4000	85.6	159.9	1231	high noise
 423	  4000	82.0	155.8	1939	high noise
 424	 80000	82.4	154.1	2006	very high noise
 425	  4000	84.4	152.6	 846	high noise
 426	  4000	83.4	152.6	 767	high noise
 427	  4000	84.0	152.6	 995	high noise
 428	  4000	84.5	152.5	 981	high noise
 429	     0	83.6	152.3	 547	OK
 430	     0	84.6	153.4	 521	OK
 431	     0	85.6	158.2	 533	OK
 432	     0	84.7	154.4	 536	OK
 433	     0	83.9	152.7	 536	OK
 434	     0	84.5	152.9	 523	OK
 435	     0	84.9	155.1	 548	OK
 436	     0	84.4	153.3	 543	OK
 437	     0	85.9	158.2	 536	OK
 438	     0	85.7	156.9	 530	OK
 439	     0	86.1	157.1	 541	OK
 440	     0	84.0	154.3	 562	OK
 441	     0	86.3	156.6	 545	OK
 442	     0	85.8	159.2	 530	OK
 443	     0	86.0	157.8	 552	OK
 444	     0	83.9	156.6	 565	OK
 445	     0	89.0	162.9	 535	OK
 446	     0	89.6	164.1	 561	OK
 447	     0	87.3	158.6	 537	OK
 448	     0	87.5	160.3	 516	OK
 449	     0	87.1	158.3	 541	OK
 450	     0	85.9	158.5	 530	OK
 451	     0	84.7	155.9	 546	OK
 452	     0	86.5	157.9	 524	OK
 453	  4000	85.8	157.6	 743	high noise
 454	     0	86.9	157.7	 578	OK
 455	     0	83.4	151.4	 562	OK
 456	     0	84.6	154.4	 543	OK
 457	     0	87.8	159.5	 529	OK
 458	     0	85.8	157.9	 537	OK
 459	     0	86.8	160.4	 555	OK
 460	     0	86.2	156.9	 552	OK
 461	     0	83.5	152.6	 535	OK
 462	     0	86.1	159.2	 541	OK
 463	     0	85.3	157.2	 559	OK
 464	     0	83.4	154.0	 529	OK
 465	     0	86.4	157.0	 534	OK
 466	     0	87.6	163.0	 534	OK
 467	     0	86.7	157.5	 537	OK
 468	     0	86.7	157.6	 531	OK
 469	     0	84.5	153.3	 553	OK
 470	     0	89.2	164.0	 518	OK
 471	     0	88.4	161.0	 523	OK
 472	     0	84.0	154.2	 535	OK
 473	     0	85.6	159.3	 548	OK
 474	     0	84.7	152.2	 536	OK
 475	     0	86.6	160.8	 513	OK
 476	     0	84.9	158.1	 525	OK
 477	     0	85.4	158.9	 532	OK
 478	     0	86.5	160.8	 538	OK
 479	     0	85.3	157.5	 521	OK
 480	     0	85.1	156.7	 541	OK
 481	     0	88.0	160.4	 538	OK
 482	     0	87.2	160.8	 543	OK
 483	     0	87.8	161.2	 537	OK
 484	     0	86.1	159.0	 524	OK
 485	     0	88.5	162.9	 522	OK
 486	     0	83.2	151.8	 531	OK
 487	     0	84.6	152.9	 522	OK
 488	     0	85.0	156.2	 543	OK
 489	     0	84.6	154.0	 524	OK
 490	     0	85.9	155.9	 547	OK
 491	     0	87.2	162.1	 531	OK
 492	     0	87.4	160.8	 527	OK
 493	     0	83.5	155.8	 542	OK
 494	     0	85.4	158.0	 523	OK
 495	     0	87.5	161.3	 541	OK
 496	     0	85.1	156.5	 525	OK
 497	     0	88.3	162.5	 520	OK
 498	     0	84.8	155.0	 524	OK
 499	     0	86.2	156.1	 542	OK
 500	     0	88.4	161.7	 538	OK
 501	     0	82.8	152.0	 534	OK
 502	     0	85.5	155.8	 537	OK
 503	     0	87.0	158.3	 544	OK
 504	     0	89.5	159.9	 535	OK
 505	     0	86.5	156.6	 523	OK
 506	     0	86.7	161.3	 524	OK
 507	     0	87.2	158.2	 534	OK
 508	     0	86.2	157.6	 540	OK
 509	     0	87.7	160.3	 519	OK
 510	     0	88.6	161.3	 529	OK
 511	     0	86.7	157.5	 527	OK
 512	     0	88.3	159.9	 535	OK
 513	     0	88.5	163.9	 518	OK
 514	     0	88.5	161.4	 514	OK
 515	     0	89.5	162.7	 530	OK
 516	     0	86.9	160.8	 536	OK
 517	     0	87.6	159.8	 525	OK
 518	     0	85.9	158.0	 514	OK
 519	     0	84.9	155.7	 523	OK
 520	     0	86.9	158.6	 525	OK
 521	     0	85.0	156.3	 524	OK
 522	     0	85.4	153.7	 532	OK
 523	     0	85.1	153.7	 517	OK
 524	     0	85.6	155.4	 521	OK
 525	     0	85.1	156.0	 509	OK
 526	     0	84.4	155.2	 521	OK
 527	     0	84.6	154.7	 519	OK
 528	     0	86.3	157.1	 516	OK
 529	     0	85.4	154.7	 520	OK
 530	     0	84.2	155.3	 516	OK
 531	     0	85.8	158.2	 525	OK
 532	     0	87.5	160.7	 505	OK
 533	     0	84.1	154.1	 516	OK
 534	     0	86.4	159.5	 532	OK
 535	     0	85.6	156.3	 512	OK
 536	     0	87.1	158.6	 513	OK
 537	     0	85.0	156.2	 524	OK
 538	     0	86.7	159.3	 521	OK
 539	     0	87.0	158.7	 522	OK
 540	     0	85.2	154.3	 517	OK
 541	     0	83.7	154.0	 523	OK
 542	     0	85.6	158.6	 518	OK
 543	     0	86.2	160.0	 532	OK
 544	     0	84.5	158.3	 531	OK
 545	     0	85.8	157.4	 513	OK
 546	     0	83.0	153.2	 528	OK
 547	     0	84.7	156.5	 531	OK
 548	     0	86.0	156.3	 541	OK
 549	     0	84.7	156.4	 526	OK
 550	     0	85.4	159.1	 552	OK
 551	     0	86.0	159.2	 534	OK
 552	     0	84.9	154.3	 530	OK
 553	     0	84.6	154.6	 533	OK
 554	     0	85.3	156.8	 542	OK
 555	     0	85.8	159.3	 534	OK
 556	     0	86.0	157.4	 543	OK
 557	     0	85.9	159.3	 529	OK
 558	     0	82.5	153.1	 531	OK
 559	     0	85.5	157.1	 544	OK
 560	     0	84.3	154.7	 532	OK
 561	     0	87.9	161.2	 518	OK
 562	     0	84.0	153.7	 524	OK
 563	     0	86.0	155.6	 529	OK
 564	     0	86.2	156.2	 519	OK
 565	     0	83.3	153.5	 537	OK
 566	     0	86.4	157.1	 527	OK
 567	     0	85.0	154.9	 538	OK
 568	     0	86.3	157.4	 535	OK
 569	     0	84.2	156.0	 529	OK
 570	     0	85.6	157.6	 536	OK
 571	     0	85.5	157.9	 526	OK
 572	     0	84.8	157.0	 561	OK
 573	     0	85.1	157.5	 526	OK
 574	     0	86.7	158.7	 532	OK
 575	     0	86.4	158.6	 519	OK
 576	     0	88.9	164.4	 523	OK
 577	     0	87.1	161.6	 520	OK
 578	     0	89.1	163.7	 519	OK
 579	     0	85.2	157.8	 519	OK
 580	     0	84.1	155.1	 513	OK
 581	     0	85.2	153.9	 517	OK
 582	     0	85.9	157.1	 509	OK
 583	     0	86.5	159.1	 513	OK
 584	     0	87.5	160.3	 520	OK
 585	     0	84.8	155.6	 520	OK
 586	     0	84.1	153.1	 553	OK
 587	     0	84.2	151.3	 537	OK
 588	     0	85.4	157.3	 527	OK
 589	     0	85.2	156.5	 513	OK
 590	     0	84.3	155.7	 513	OK
 591	     0	82.4	152.2	 510	OK
 592	     0	86.4	157.2	 535	OK
 593	     0	83.4	154.8	 525	OK
 594	     0	84.1	153.8	 537	OK
 595	     0	85.2	157.6	 533	OK
 596	     0	83.1	153.3	 533	OK
 597	     0	84.6	155.1	 551	OK
 598	     0	86.4	161.0	 565	OK
 599	     0	86.4	157.2	 552	OK
 600	     0	83.1	154.0	 519	OK
 601	     0	84.7	154.6	 503	OK
 602	     0	84.6	154.5	 498	OK
 603	     0	87.6	160.3	 489	OK
 604	     0	84.5	153.8	 522	OK
 605	     0	86.4	156.4	 503	OK
 606	     0	84.5	157.4	 512	OK
 607	     0	84.2	154.9	 504	OK
 608	     0	84.3	154.2	 496	OK
 609	     0	84.5	154.0	 524	OK
 610	     0	86.3	158.8	 508	OK
 611	     0	89.3	161.3	 508	OK
 612	     0	84.7	155.3	 498	OK
 613	     0	86.1	157.6	 505	OK
 614	     0	85.8	155.5	 523	OK
 615	     0	85.6	158.7	 508	OK
 616	     0	83.2	153.8	 533	OK
 617	     0	84.2	154.4	 503	OK
 618	     0	85.5	156.5	 513	OK
 619	     0	87.0	159.9	 514	OK
 620	     0	86.3	157.9	 522	OK
 621	     0	87.3	159.1	 530	OK
 622	     0	86.0	156.2	 523	OK
 623	     0	85.3	156.0	 521	OK
 624	     0	87.1	162.0	 525	OK
 625	     0	86.0	155.5	 483	OK
 626	     0	86.0	155.7	 487	OK
 627	     0	83.5	152.8	 508	OK
 628	     0	86.7	159.2	 507	OK
 629	     0	85.3	155.9	 515	OK
 630	     0	84.9	156.7	 505	OK
 631	     0	85.5	156.5	 491	OK
 632	     0	84.1	153.2	 516	OK
 633	     0	87.0	159.4	 534	OK
 634	     0	87.5	158.7	 524	OK
 635	     0	88.5	163.0	 529	OK
 636	     0	84.8	155.8	 535	OK
 637	     0	87.5	159.8	 578	OK
 638	     0	86.5	159.2	 577	OK
 639	     0	86.0	158.5	 554	OK
 640	     0	85.4	156.9	 557	OK
 641	     0	87.4	160.0	 541	OK
 642	     0	85.0	154.1	 573	OK
 643	     0	86.2	159.0	 608	OK
 644	  4000	82.6	151.4	 644	high noise
 645	  4000	85.0	155.4	 637	high noise
 646	  4000	80.6	148.7	 647	high noise
 647	     0	83.9	151.9	 536	OK
 648	     0	81.6	150.6	 519	OK
 649	     0	82.6	151.6	 529	OK
 650	     0	83.5	152.1	 520	OK
 651	     0	84.0	155.6	 532	OK
 652	     0	84.6	152.6	 548	OK
 653	     0	83.0	150.3	 537	OK
 654	     0	83.4	154.9	 559	OK
 655	     0	84.3	153.5	 530	OK
 656	     0	83.9	154.9	 526	OK
 657	     0	82.2	150.0	 522	OK
 658	     0	83.7	153.5	 501	OK
 659	     0	80.9	149.6	 509	OK
 660	     0	83.2	152.2	 520	OK
 661	     0	82.3	151.3	 515	OK
 662	     0	82.4	149.9	 540	OK
 663	     0	81.9	154.0	 556	OK
 664	     0	84.0	153.7	 561	OK
 665	  4000	81.7	152.6	 659	high noise
 666	  4000	82.4	152.5	 647	high noise
 667	     0	81.8	150.6	 607	OK
 668	     0	82.3	152.7	 579	OK
 669	     0	83.6	151.2	 538	OK
 670	     0	81.7	151.1	 554	OK
 671	     0	82.4	152.1	 596	OK
 672	     0	81.8	151.6	 609	OK
 673	     0	81.1	150.8	 620	OK
 674	     0	85.6	156.7	 611	OK
 675	     0	83.4	151.6	 572	OK
 676	     0	80.7	150.2	 585	OK
 677	  4000	83.3	154.3	 788	high noise
 678	  4000	83.1	151.8	 890	high noise
 679	  4000	82.3	150.6	 844	high noise
 680	  4000	80.1	146.7	 939	high noise
 681	  4000	80.3	147.3	1086	high noise
 682	  4000	83.1	149.4	 983	high noise
 683	  4000	81.9	154.8	 885	high noise
 684	  4000	82.3	150.2	 769	high noise
 685	  4000	81.4	152.6	 703	high noise
 686	     0	85.0	153.9	 560	OK
 687	     0	82.6	152.2	 500	OK
 688	     0	84.4	156.4	 539	OK
 689	     0	83.1	152.5	 570	OK
 690	     0	81.8	151.4	 572	OK
 691	     0	81.5	150.2	 524	OK
 692	     0	82.6	151.7	 519	OK
 693	     0	83.3	154.2	 509	OK
 694	     0	83.5	155.5	 516	OK
 695	     0	83.8	153.7	 608	OK
 696	  4000	85.6	157.2	 674	high noise
 697	  4000	83.4	157.1	 711	high noise
 698	  4000	81.6	151.2	 643	high noise
 699	     0	84.2	150.3	 604	OK
 700	     0	84.5	155.4	 560	OK
 701	     0	85.4	156.7	 582	OK
 702	     0	83.9	156.6	 591	OK
 703	     0	85.5	158.2	 586	OK
 704	     0	84.2	159.2	 577	OK
 705	  4000	83.0	153.0	 689	high noise
 706	  4000	82.6	153.2	 743	high noise
 707	  4000	83.5	153.7	 794	high noise
 708	  4000	82.9	157.0	 800	high noise
 709	  4000	83.5	157.8	 651	high noise
 710	     0	83.9	154.6	 544	OK
 711	     0	80.9	150.7	 520	OK
 712	     0	86.5	158.4	 525	OK
 713	     0	83.7	154.8	 587	OK
 714	     0	83.3	154.0	 617	OK
 715	     0	82.8	154.6	 630	OK
 716	     0	81.0	151.4	 541	OK
 717	     0	83.6	152.5	 592	OK
 718	     0	80.8	149.3	 597	OK
 719	     0	84.2	156.3	 563	OK
 720	     0	82.1	153.3	 562	OK
 721	  4000	82.0	152.3	 701	high noise
 722	  4000	82.9	153.3	 729	high noise
 723	  4000	82.8	153.7	 681	high noise
 724	  4000	82.4	153.2	 681	high noise
 725	  4000	81.4	152.1	 760	high noise
 726	  4000	81.4	150.4	 687	high noise
 727	     0	81.6	153.2	 618	OK
 728	     0	84.9	158.2	 564	OK
 729	  4000	82.3	153.0	 650	high noise
 730	  4000	84.3	155.9	 721	high noise
 731	  4000	82.6	154.4	 683	high noise
 732	     0	81.6	151.2	 608	OK
 733	     0	84.7	156.4	 571	OK
 734	     0	79.4	146.5	 519	OK
 735	     0	82.5	150.6	 502	OK
 736	     0	84.2	156.5	 493	OK
 737	     0	82.1	152.6	 500	OK
 738	     0	81.5	152.1	 511	OK
 739	     0	86.0	158.1	 526	OK
 740	     0	82.6	155.1	 521	OK
 741	     0	83.8	154.1	 509	OK
 742	     0	85.0	156.8	 506	OK
 743	     0	82.8	153.8	 542	OK
 744	     0	85.0	159.3	 538	OK
 745	     0	83.8	152.5	 536	OK
 746	     0	83.2	153.7	 528	OK
 747	     0	84.1	157.7	 514	OK
 748	     0	85.9	158.9	 510	OK
 749	     0	86.2	159.0	 544	OK
 750	     0	82.5	151.6	 555	OK
 751	     0	81.2	152.2	 522	OK
 752	     0	84.6	156.0	 519	OK
 753	     0	83.7	154.2	 526	OK
 754	     0	84.9	158.1	 526	OK
 755	     0	82.5	150.5	 518	OK
 756	     0	84.5	156.3	 567	OK
 757	     0	84.9	157.9	 552	OK
 758	     0	83.8	157.1	 533	OK
 759	     0	84.7	156.5	 503	OK
 760	     0	85.0	159.0	 498	OK
 761	     0	83.9	155.4	 521	OK
 762	     0	83.7	154.8	 530	OK
 763	     0	85.1	156.9	 559	OK
 764	     0	84.0	156.3	 565	OK
 765	     0	85.0	158.1	 543	OK
 766	     0	86.7	160.9	 513	OK
 767	     0	85.3	158.9	 526	OK
 768	     0	84.5	154.1	 543	OK
 769	     0	86.8	157.4	 514	OK
 770	     0	85.7	156.9	 484	OK
 771	     0	86.8	159.4	 506	OK
 772	     0	83.9	154.0	 496	OK
 773	     0	85.6	159.3	 483	OK
 774	     0	83.6	154.9	 491	OK
 775	     0	85.8	156.2	 488	OK
 776	     0	82.5	153.4	 516	OK
 777	     0	85.1	155.9	 514	OK
 778	     0	86.0	156.9	 500	OK
 779	     0	85.7	156.1	 506	OK
 780	     0	83.7	154.0	 529	OK
 781	     0	84.1	155.6	 531	OK
 782	     0	83.3	152.4	 541	OK
 783	     0	84.4	153.8	 535	OK
 784	     0	83.5	156.1	 505	OK
 785	     0	86.6	158.9	 489	OK
 786	     0	83.0	152.8	 504	OK
 787	     0	84.0	156.5	 530	OK
 788	     0	82.1	153.0	 521	OK
 789	     0	84.3	154.3	 516	OK
 790	     0	82.6	152.5	 504	OK
 791	     0	83.7	154.1	 489	OK
 792	     0	85.3	158.0	 478	OK
 793	     0	83.2	154.1	 493	OK
 794	     0	84.6	156.0	 495	OK
 795	     0	85.2	157.9	 480	OK
 796	     0	83.4	153.9	 514	OK
 797	     0	83.9	155.8	 500	OK
 798	     0	83.0	153.7	 494	OK
 799	     0	87.8	160.1	 496	OK
 800	  1000	82.9	153.9	 487	unbonded
 801	     0	84.5	156.4	 492	OK
 802	     0	83.1	155.3	 507	OK
 803	     0	81.6	152.1	 516	OK
 804	     0	84.3	156.4	 508	OK
 805	  1000	83.5	155.8	 486	unbonded
 806	  1000	83.0	154.1	 484	unbonded
 807	     0	84.9	154.0	 484	OK
 808	     0	86.3	160.6	 501	OK
 809	     0	83.6	155.8	 506	OK
 810	     0	84.7	155.3	 506	OK
 811	     0	87.8	160.4	 522	OK
 812	     0	84.2	156.9	 548	OK
 813	     0	84.3	155.2	 530	OK
 814	     0	85.3	156.7	 498	OK
 815	     0	86.5	158.1	 490	OK
 816	     0	86.6	158.5	 492	OK
 817	     0	84.7	155.7	 516	OK
 818	     0	83.3	153.5	 493	OK
 819	     0	84.0	155.5	 485	OK
 820	     0	84.6	155.5	 501	OK
 821	     0	84.3	155.0	 496	OK
 822	     0	86.8	160.8	 512	OK
 823	  1000	83.8	155.2	 478	unbonded
 824	  1000	84.0	157.5	 480	unbonded
 825	     0	85.4	155.8	 491	OK
 826	  1000	84.9	157.3	 470	unbonded
 827	  1000	82.5	153.2	 479	unbonded
 828	     0	85.6	159.8	 504	OK
 829	     0	84.3	158.4	 502	OK
 830	     0	85.3	157.3	 513	OK
 831	     0	87.2	159.6	 497	OK
 832	     0	86.1	160.2	 489	OK
 833	     0	86.2	157.7	 488	OK
 834	     0	88.4	162.9	 495	OK
 835	     0	87.7	163.8	 507	OK
 836	     0	85.8	158.4	 488	OK
 837	     0	85.1	156.7	 489	OK
 838	     0	83.4	156.9	 499	OK
 839	     0	85.5	159.3	 514	OK
 840	     0	82.8	154.3	 501	OK
 841	     0	84.1	155.0	 537	OK
 842	     0	81.9	151.2	 543	OK
 843	     0	83.9	156.9	 549	OK
 844	     0	84.5	156.6	 547	OK
 845	     0	84.1	154.7	 514	OK
 846	     0	84.2	155.5	 491	OK
 847	     0	84.5	156.6	 488	OK
 848	     0	84.2	155.5	 511	OK
 849	     0	84.9	156.1	 481	OK
 850	  1000	82.7	154.1	 479	unbonded
 851	  1000	82.2	152.9	 487	unbonded
 852	  1000	83.7	153.5	 482	unbonded
 853	     0	82.1	150.7	 499	OK
 854	     0	84.2	155.4	 492	OK
 855	  1000	82.5	153.1	 488	unbonded
 856	  1000	83.3	154.1	 468	unbonded
 857	  1000	84.0	154.0	 467	unbonded
 858	     0	85.5	157.8	 476	OK
 859	  1000	82.1	153.0	 484	unbonded
 860	  1000	82.5	153.0	 466	unbonded
 861	  1000	83.3	154.4	 478	unbonded
 862	  1000	81.5	152.8	 480	unbonded
 863	  1000	80.8	149.7	 484	unbonded
 864	  1000	83.6	155.3	 471	unbonded
 865	  1000	84.4	155.4	 477	unbonded
 866	  1000	84.4	156.0	 470	unbonded
 867	  1000	84.5	157.4	 466	unbonded
 868	  1000	82.8	154.2	 470	unbonded
 869	  1000	84.9	155.6	 471	unbonded
 870	  1000	83.9	154.3	 484	unbonded
 871	  1000	83.4	153.7	 479	unbonded
 872	  1000	85.7	156.5	 454	unbonded
 873	     0	84.4	155.8	 487	OK
 874	  1000	83.6	155.6	 457	unbonded
 875	  1000	84.3	157.4	 465	unbonded
 876	     0	85.5	156.9	 477	OK
 877	  1000	82.9	154.6	 453	unbonded
 878	  1000	83.0	153.4	 468	unbonded
 879	  1000	85.7	158.9	 460	unbonded
 880	     0	84.7	157.1	 486	OK
 881	  1000	84.5	155.6	 459	unbonded
 882	  1000	84.1	153.4	 479	unbonded
 883	  1000	82.6	154.8	 465	unbonded
 884	  1000	81.5	152.9	 477	unbonded
 885	     0	85.8	157.7	 489	OK
 886	     0	85.3	157.2	 480	OK
 887	     0	86.7	160.5	 474	OK
 888	     0	85.5	156.8	 481	OK
 889	  1000	82.7	152.7	 480	unbonded
 890	  1000	83.9	154.8	 475	unbonded
 891	  1000	84.2	157.0	 470	unbonded
 892	     0	85.6	157.4	 484	OK
 893	  1000	85.8	158.1	 469	unbonded
 894	     0	87.3	161.3	 480	OK
 895	     0	89.5	166.8	 470	OK
 896	     0	86.1	158.7	 504	OK
 897	     0	85.8	156.1	 494	OK
 898	  1000	82.0	149.6	 492	unbonded
 899	     0	85.2	154.7	 518	OK
 900	     0	83.1	151.0	 491	OK
 901	     0	83.2	151.6	 493	OK
 902	     0	83.9	151.8	 501	OK
 903	     0	82.9	151.1	 504	OK
 904	     0	84.6	155.2	 483	OK
 905	     0	84.4	155.1	 492	OK
 906	  1000	80.6	148.2	 487	unbonded
 907	  1000	82.7	151.6	 486	unbonded
 908	  1000	81.7	149.7	 485	unbonded
 909	     0	83.0	151.6	 547	OK
 910	     0	81.3	148.8	 541	OK
 911	     0	83.4	151.2	 524	OK
 912	     0	87.2	158.7	 489	OK
 913	     0	83.2	151.6	 508	OK
 914	     0	81.6	150.7	 513	OK
 915	     0	81.0	149.2	 511	OK
 916	     0	82.5	151.7	 496	OK
 917	  1000	80.6	150.0	 492	unbonded
 918	     0	81.1	150.6	 515	OK
 919	     0	82.7	150.9	 523	OK
 920	     0	81.3	148.9	 546	OK
 921	     0	82.2	149.6	 530	OK
 922	     0	82.9	151.1	 518	OK
 923	     0	82.8	151.6	 533	OK
 924	     0	81.6	152.0	 527	OK
 925	     0	84.1	150.6	 525	OK
 926	     0	82.8	151.5	 536	OK
 927	     0	81.6	148.5	 533	OK
 928	     0	80.3	146.8	 535	OK
 929	     0	83.7	155.1	 511	OK
 930	  1000	81.6	150.8	 495	unbonded
 931	     0	83.1	152.8	 498	OK
 932	     0	83.7	153.9	 523	OK
 933	     0	83.9	152.0	 499	OK
 934	     0	82.4	151.2	 521	OK
 935	     0	84.9	153.5	 530	OK
 936	     0	82.3	151.6	 524	OK
 937	     0	83.8	153.2	 508	OK
 938	     0	81.9	148.8	 506	OK
 939	     0	84.5	154.2	 519	OK
 940	     0	81.4	151.5	 511	OK
 941	  1000	80.2	149.3	 492	unbonded
 942	     0	81.9	149.3	 517	OK
 943	     0	77.8	143.9	 530	OK
 944	     0	81.0	148.6	 537	OK
 945	     0	80.9	147.8	 520	OK
 946	     0	81.1	147.5	 512	OK
 947	  1000	80.1	147.5	 505	unbonded
 948	     0	83.1	153.5	 512	OK
 949	     0	83.0	149.4	 508	OK
 950	     0	82.7	153.6	 515	OK
 951	  1000	78.4	143.9	 515	unbonded
 952	     0	82.4	149.7	 522	OK
 953	     0	82.3	151.9	 533	OK
 954	     0	80.0	149.1	 532	OK
 955	     0	83.8	155.3	 494	OK
 956	     0	82.0	151.5	 518	OK
 957	  1000	80.2	147.5	 497	unbonded
 958	     0	85.2	159.2	 524	OK
 959	     0	84.5	156.1	 514	OK
 960	     0	84.5	157.0	 506	OK
 961	     0	83.4	153.7	 510	OK
 962	     0	81.7	151.6	 513	OK
 963	     0	82.9	155.3	 513	OK
 964	     0	81.7	149.1	 522	OK
 965	  1000	81.0	150.0	 501	unbonded
 966	     0	80.9	148.5	 512	OK
 967	     0	82.6	151.8	 526	OK
 968	     0	81.6	150.1	 515	OK
 969	     0	80.8	149.9	 513	OK
 970	  1000	78.9	145.9	 511	unbonded
 971	     0	80.2	147.2	 509	OK
 972	     0	81.5	151.0	 500	OK
 973	     0	85.3	157.1	 493	OK
 974	     0	83.9	152.1	 522	OK
 975	     0	78.9	146.2	 519	OK
 976	     0	80.5	149.7	 527	OK
 977	     0	80.7	150.8	 518	OK
 978	     0	81.7	152.2	 513	OK
 979	     0	81.6	149.7	 517	OK
 980	     0	81.9	148.6	 523	OK
 981	     0	83.8	153.9	 520	OK
 982	     0	83.2	153.2	 528	OK
 983	     0	83.7	154.1	 509	OK
 984	  1000	78.9	145.1	 504	unbonded
 985	  1000	79.6	147.0	 500	unbonded
 986	     0	79.1	145.4	 521	OK
 987	     0	82.5	152.1	 519	OK
 988	     0	80.0	146.7	 508	OK
 989	  1000	79.8	146.3	 502	unbonded
 990	     0	83.8	154.7	 499	OK
 991	     0	83.4	154.1	 521	OK
 992	     0	82.0	150.0	 504	OK
 993	     0	81.1	150.6	 504	OK
 994	     0	78.0	143.2	 525	OK
 995	  1000	78.9	145.6	 503	unbonded
 996	     0	79.4	148.0	 516	OK
 997	     0	81.4	150.4	 518	OK
 998	     0	81.4	150.7	 520	OK
 999	     0	81.2	149.0	 525	OK
1000	  1000	78.8	147.2	 513	unbonded
1001	  1000	80.2	150.1	 506	unbonded
1002	  1000	79.8	148.9	 500	unbonded
1003	     0	82.3	150.0	 504	OK
1004	     0	79.0	146.2	 519	OK
1005	     0	82.9	152.7	 509	OK
1006	     0	80.9	148.7	 506	OK
1007	     0	82.9	152.2	 502	OK
1008	     0	81.6	150.9	 519	OK
1009	     0	81.6	151.5	 521	OK
1010	     0	83.0	151.7	 513	OK
1011	     0	81.7	151.2	 503	OK
1012	     0	81.4	147.8	 503	OK
1013	     0	81.1	149.5	 503	OK
1014	     0	83.0	151.8	 499	OK
1015	     0	83.8	153.8	 496	OK
1016	     0	82.3	151.1	 502	OK
1017	     0	83.0	152.6	 516	OK
1018	     0	82.2	152.7	 506	OK
1019	     0	85.0	160.5	 522	OK
1020	     0	83.2	151.8	 509	OK
1021	     0	79.7	146.0	 512	OK
1022	     0	84.7	153.9	 519	OK
1023	     0	86.0	159.1	 524	OK
1024	     0	87.3	159.6	 477	OK
1025	     0	86.1	156.1	 480	OK
1026	     0	84.5	154.9	 489	OK
1027	     0	89.4	162.7	 489	OK
1028	     0	85.6	155.8	 490	OK
1029	     0	85.8	155.9	 492	OK
1030	     0	85.5	155.3	 478	OK
1031	     0	86.0	154.5	 484	OK
1032	     0	86.3	155.3	 481	OK
1033	  1000	82.3	152.1	 490	unbonded
1034	     0	85.3	154.6	 479	OK
1035	     0	84.0	154.3	 494	OK
1036	     0	86.1	157.7	 491	OK
1037	     0	86.2	155.8	 496	OK
1038	     0	84.7	151.8	 484	OK
1039	     0	83.3	151.7	 495	OK
1040	     0	85.5	155.2	 499	OK
1041	  1000	85.3	154.2	 476	unbonded
1042	     0	82.8	149.4	 501	OK
1043	     0	83.5	150.3	 486	OK
1044	     0	83.1	149.1	 489	OK
1045	     0	84.7	153.2	 482	OK
1046	     0	83.9	152.0	 491	OK
1047	  1000	82.9	149.2	 485	unbonded
1048	     0	85.7	154.4	 492	OK
1049	     0	86.1	156.0	 497	OK
1050	     0	84.8	153.6	 492	OK
1051	  1000	83.0	150.7	 470	unbonded
1052	     0	85.8	155.9	 500	OK
1053	     0	83.5	150.9	 504	OK
1054	     0	86.7	156.9	 499	OK
1055	     0	83.4	154.5	 498	OK
1056	     0	84.7	153.7	 488	OK
1057	  1000	83.2	152.4	 488	unbonded
1058	     0	87.0	155.2	 487	OK
1059	  1000	84.8	153.2	 478	unbonded
1060	     0	86.9	157.0	 474	OK
1061	     0	84.7	154.7	 485	OK
1062	  1000	80.8	146.0	 481	unbonded
1063	  1000	83.2	151.4	 479	unbonded
1064	     0	84.4	149.0	 485	OK
1065	     0	86.8	157.3	 473	OK
1066	     0	86.1	159.1	 478	OK
1067	  1000	82.7	151.2	 480	unbonded
1068	     0	83.9	151.3	 492	OK
1069	     0	83.7	151.5	 494	OK
1070	     0	83.9	152.2	 491	OK
1071	     0	86.1	156.4	 475	OK
1072	  1000	82.5	151.4	 489	unbonded
1073	  1000	84.5	152.5	 479	unbonded
1074	     0	87.0	155.9	 485	OK
1075	     0	86.9	155.5	 478	OK
1076	  1000	86.7	158.5	 468	unbonded
1077	     0	82.5	151.6	 496	OK
1078	  1000	82.3	149.7	 473	unbonded
1079	  1000	84.6	153.6	 478	unbonded
1080	     0	84.1	151.7	 488	OK
1081	  1000	83.9	151.0	 470	unbonded
1082	     0	85.3	154.0	 494	OK
1083	     0	84.4	154.4	 491	OK
1084	     0	85.4	158.0	 495	OK
1085	  1000	83.8	151.0	 473	unbonded
1086	     0	88.5	162.0	 489	OK
1087	     0	86.2	157.2	 494	OK
1088	     0	86.8	159.4	 477	OK
1089	     0	86.3	157.8	 487	OK
1090	  1000	84.0	154.0	 472	unbonded
1091	  1000	82.3	150.0	 493	unbonded
1092	  1000	85.0	153.0	 475	unbonded
1093	     0	84.1	151.7	 504	OK
1094	     0	87.5	158.6	 479	OK
1095	     0	85.5	155.9	 497	OK
1096	  1000	82.8	150.5	 487	unbonded
1097	     0	87.6	158.9	 502	OK
1098	     0	84.1	153.3	 517	OK
1099	     0	84.9	155.6	 490	OK
1100	     0	85.5	156.0	 496	OK
1101	  1000	85.9	154.6	 469	unbonded
1102	  1000	81.4	149.0	 485	unbonded
1103	     0	84.9	154.7	 487	OK
1104	     0	84.0	153.8	 496	OK
1105	     0	83.5	151.7	 495	OK
1106	     0	83.0	151.0	 495	OK
1107	     0	85.0	153.7	 493	OK
1108	     0	83.5	150.8	 494	OK
1109	  1000	83.0	149.3	 461	unbonded
1110	  1000	82.7	149.9	 486	unbonded
1111	  1000	82.4	149.9	 486	unbonded
1112	     0	84.5	151.8	 481	OK
1113	  1000	82.4	150.5	 491	unbonded
1114	  1000	81.9	148.8	 489	unbonded
1115	  1000	84.9	153.2	 472	unbonded
1116	     0	83.2	152.0	 495	OK
1117	     0	85.3	154.0	 477	OK
1118	     0	85.1	155.5	 481	OK
1119	  1000	82.4	150.9	 492	unbonded
1120	     0	83.1	149.2	 493	OK
1121	  1000	83.4	152.8	 477	unbonded
1122	     0	86.7	157.3	 484	OK
1123	  1000	81.5	148.5	 472	unbonded
1124	  1000	84.4	153.5	 470	unbonded
1125	     0	83.5	151.2	 489	OK
1126	     0	83.8	152.0	 493	OK
1127	  1000	85.4	154.3	 476	unbonded
1128	  1000	84.0	152.4	 479	unbonded
1129	     0	83.4	153.3	 489	OK
1130	  1000	81.0	148.3	 488	unbonded
1131	  1000	83.9	151.5	 476	unbonded
1132	  1000	83.0	151.9	 484	unbonded
1133	  1000	82.2	148.1	 482	unbonded
1134	  1000	81.5	148.2	 498	unbonded
1135	     0	83.2	150.8	 490	OK
1136	     0	84.3	152.8	 496	OK
1137	     0	85.2	152.8	 491	OK
1138	     0	86.7	158.0	 484	OK
1139	     0	83.9	151.8	 513	OK
1140	     0	83.8	151.2	 495	OK
1141	  1000	81.8	148.6	 494	unbonded
1142	  1000	84.9	155.0	 470	unbonded
1143	     0	82.3	146.5	 494	OK
1144	     0	82.7	152.7	 502	OK
1145	     0	85.0	148.6	 503	OK
1146	     0	87.6	156.3	 489	OK
1147	     0	85.7	155.1	 494	OK
1148	     0	84.9	155.5	 493	OK
1149	     0	87.2	157.7	 501	OK
1150	     0	84.3	153.2	 494	OK
1151	     0	87.7	155.4	 494	OK
1152	     0	87.7	162.8	 517	OK
1153	     0	87.4	162.8	 499	OK
1154	     0	89.8	163.8	 511	OK
1155	     0	86.2	158.0	 505	OK
1156	     0	87.7	160.7	 504	OK
1157	     0	86.1	157.8	 513	OK
1158	     0	83.2	151.9	 509	OK
1159	     0	86.2	158.4	 507	OK
1160	     0	85.7	157.0	 506	OK
1161	     0	84.2	153.4	 493	OK
1162	     0	85.5	155.8	 517	OK
1163	     0	86.4	157.9	 502	OK
1164	     0	84.6	155.5	 509	OK
1165	     0	86.3	156.0	 503	OK
1166	     0	85.9	158.1	 502	OK
1167	     0	84.3	154.5	 507	OK
1168	     0	85.5	157.1	 503	OK
1169	     0	85.9	160.2	 499	OK
1170	     0	87.6	161.4	 496	OK
1171	     0	83.8	154.8	 502	OK
1172	     0	84.0	152.7	 519	OK
1173	     0	84.0	156.1	 496	OK
1174	     0	84.4	154.5	 531	OK
1175	     0	86.1	157.6	 489	OK
1176	     0	84.5	156.3	 512	OK
1177	     0	86.8	158.1	 495	OK
1178	     0	83.3	153.4	 516	OK
1179	     0	82.8	153.3	 508	OK
1180	     0	85.6	155.9	 489	OK
1181	     0	85.1	158.7	 516	OK
1182	     0	84.1	154.6	 499	OK
1183	     0	86.6	159.6	 528	OK
1184	     0	84.1	154.9	 517	OK
1185	     0	83.7	153.9	 508	OK
1186	     0	84.7	157.2	 501	OK
1187	     0	83.2	153.4	 513	OK
1188	     0	84.3	153.4	 505	OK
1189	     0	85.0	155.8	 507	OK
1190	     0	86.9	158.8	 503	OK
1191	     0	86.6	156.8	 504	OK
1192	     0	84.7	154.3	 503	OK
1193	     0	84.0	154.6	 517	OK
1194	     0	83.9	154.7	 511	OK
1195	     0	82.2	154.5	 520	OK
1196	     0	86.2	158.3	 513	OK
1197	     0	84.3	154.8	 514	OK
1198	     0	85.2	158.7	 520	OK
1199	     0	88.6	164.3	 508	OK
1200	     0	85.0	155.1	 504	OK
1201	     0	85.1	154.7	 504	OK
1202	     0	84.2	155.5	 508	OK
1203	     0	86.5	158.2	 513	OK
1204	     0	83.2	151.2	 521	OK
1205	     0	85.8	157.2	 512	OK
1206	     0	88.7	163.9	 513	OK
1207	     0	87.6	161.4	 516	OK
1208	     0	87.0	159.9	 511	OK
1209	     0	88.6	160.4	 517	OK
1210	     0	85.2	156.9	 521	OK
1211	     0	89.5	162.6	 523	OK
1212	     0	85.6	160.4	 537	OK
1213	     0	84.8	157.6	 501	OK
1214	     0	89.0	164.7	 545	OK
1215	     0	85.8	161.2	 503	OK
1216	     0	85.3	157.3	 533	OK
1217	     0	86.0	158.4	 534	OK
1218	     0	85.6	156.5	 516	OK
1219	     0	85.4	156.1	 518	OK
1220	     0	86.2	159.1	 517	OK
1221	     0	87.8	162.3	 524	OK
1222	     0	85.8	158.6	 533	OK
1223	     0	84.4	157.0	 529	OK
1224	     0	84.6	155.5	 514	OK
1225	     0	83.2	152.8	 513	OK
1226	     0	81.8	152.3	 528	OK
1227	     0	85.1	155.8	 517	OK
1228	     0	84.9	154.8	 523	OK
1229	     0	86.8	157.6	 521	OK
1230	     0	84.9	156.5	 508	OK
1231	     0	81.8	150.8	 520	OK
1232	     0	82.6	153.5	 517	OK
1233	     0	86.9	159.1	 512	OK
1234	     0	82.0	152.2	 514	OK
1235	     0	83.9	154.1	 516	OK
1236	     0	86.5	159.6	 516	OK
1237	     0	82.7	151.5	 518	OK
1238	     0	86.0	157.9	 514	OK
1239	     0	83.8	157.4	 512	OK
1240	     0	83.8	156.9	 518	OK
1241	     0	85.0	154.5	 526	OK
1242	     0	84.5	157.3	 519	OK
1243	     0	85.4	156.2	 509	OK
1244	     0	85.9	159.3	 513	OK
1245	     0	82.1	152.0	 526	OK
1246	     0	83.1	153.9	 499	OK
1247	     0	82.9	152.7	 509	OK
1248	     0	84.5	154.6	 490	OK
1249	     0	82.6	152.4	 511	OK
1250	     0	82.9	151.0	 515	OK
1251	     0	83.8	154.9	 512	OK
1252	     0	83.8	155.9	 512	OK
1253	     0	83.3	151.1	 525	OK
1254	     0	82.3	151.9	 518	OK
1255	     0	86.5	157.0	 532	OK
1256	     0	85.6	156.1	 517	OK
1257	     0	88.0	158.6	 500	OK
1258	     0	85.2	157.4	 506	OK
1259	     0	84.3	154.0	 499	OK
1260	     0	85.5	157.7	 513	OK
1261	     0	84.4	154.9	 520	OK
1262	     0	86.7	157.9	 500	OK
1263	     0	87.4	158.6	 506	OK
1264	     0	83.8	152.6	 509	OK
1265	     0	84.7	153.9	 544	OK
1266	     0	83.7	153.3	 509	OK
1267	     0	83.8	154.8	 528	OK
1268	     0	85.1	154.9	 492	OK
1269	     0	86.0	156.6	 503	OK
1270	     0	86.2	158.6	 520	OK
1271	     0	84.8	156.0	 494	OK
1272	     0	85.6	158.2	 501	OK
1273	     0	84.8	158.0	 508	OK
1274	     0	88.5	158.8	 508	OK
1275	  4000	87.9	159.5	 562	high noise
1276	  4000	84.8	152.6	 789	high noise
1277	     0	85.5	155.2	 534	OK
1278	  4000	86.9	158.1	1145	high noise
1279	  4000	84.0	161.4	1765	high noise
1280	     0	84.9	157.0	 508	OK
1281	     0	88.7	164.1	 504	OK
1282	     0	83.6	155.9	 502	OK
1283	     0	84.9	157.8	 489	OK
1284	     0	84.3	157.9	 501	OK
1285	     0	84.6	157.4	 481	OK
1286	     0	86.1	160.4	 497	OK
1287	     0	85.2	157.5	 500	OK
1288	     0	84.6	159.4	 496	OK
1289	     0	86.6	159.9	 484	OK
1290	     0	86.4	159.8	 502	OK
1291	     0	84.3	156.8	 505	OK
1292	     0	80.9	150.8	 504	OK
1293	     0	82.6	155.1	 493	OK
1294	     0	82.5	152.7	 500	OK
1295	     0	82.8	153.4	 500	OK
1296	     0	84.1	157.0	 489	OK
1297	     0	81.3	152.3	 522	OK
1298	     0	84.9	157.0	 503	OK
1299	     0	82.4	151.3	 500	OK
1300	     0	82.7	154.0	 498	OK
1301	  1000	83.3	155.8	 485	unbonded
1302	     0	82.9	155.0	 514	OK
1303	     0	80.8	150.5	 509	OK
1304	     0	81.1	152.8	 507	OK
1305	     0	82.7	154.7	 495	OK
1306	     0	84.4	154.7	 491	OK
1307	     0	82.7	154.7	 503	OK
1308	     0	81.5	152.4	 513	OK
1309	     0	82.6	153.5	 518	OK
1310	  1000	80.6	149.4	 499	unbonded
1311	     0	85.2	159.4	 491	OK
1312	     0	82.4	153.1	 501	OK
1313	  1000	79.9	151.4	 500	unbonded
1314	     0	81.9	154.1	 518	OK
1315	     0	82.4	154.7	 520	OK
1316	     0	81.5	150.5	 506	OK
1317	     0	85.3	155.7	 506	OK
1318	     0	84.1	157.3	 502	OK
1319	     0	84.3	156.0	 494	OK
1320	     0	83.6	156.7	 507	OK
1321	     0	82.0	152.5	 509	OK
1322	  1000	83.1	156.1	 487	unbonded
1323	     0	82.0	152.0	 505	OK
1324	  1000	83.7	156.9	 473	unbonded
1325	     0	82.5	152.9	 502	OK
1326	  1000	84.0	156.6	 475	unbonded
1327	     0	82.0	153.7	 515	OK
1328	  1000	80.9	150.6	 499	unbonded
1329	     0	83.3	155.3	 510	OK
1330	     0	83.4	153.8	 513	OK
1331	     0	84.0	157.0	 505	OK
1332	     0	83.7	155.6	 519	OK
1333	     0	86.1	160.3	 507	OK
1334	     0	82.4	153.8	 525	OK
1335	     0	82.5	154.6	 505	OK
1336	     0	81.7	152.0	 500	OK
1337	     0	83.5	154.8	 508	OK
1338	     0	83.1	152.5	 503	OK
1339	     0	86.6	163.0	 508	OK
1340	     0	81.8	155.6	 530	OK
1341	     0	85.1	159.4	 511	OK
1342	     0	85.3	157.3	 505	OK
1343	     0	83.5	158.8	 513	OK
1344	     0	83.5	155.1	 521	OK
1345	     0	82.9	155.4	 507	OK
1346	     0	83.8	157.6	 512	OK
1347	     0	84.8	157.4	 490	OK
1348	     0	84.8	157.6	 502	OK
1349	     0	82.0	152.6	 507	OK
1350	     0	82.8	155.2	 491	OK
1351	     0	82.2	154.7	 503	OK
1352	     0	84.2	157.0	 499	OK
1353	     0	84.9	157.1	 489	OK
1354	     0	82.1	153.3	 523	OK
1355	     0	82.4	152.7	 498	OK
1356	     0	81.8	150.8	 498	OK
1357	  1000	80.3	151.4	 503	unbonded
1358	     0	83.2	155.0	 499	OK
1359	     0	81.4	152.5	 511	OK
1360	     0	81.8	152.3	 497	OK
1361	     0	81.7	152.2	 511	OK
1362	     0	81.7	151.1	 499	OK
1363	     0	81.6	151.1	 503	OK
1364	     0	82.5	153.2	 510	OK
1365	  1000	80.3	149.0	 500	unbonded
1366	  1000	80.4	151.4	 495	unbonded
1367	  1000	80.5	150.5	 491	unbonded
1368	     0	83.4	154.3	 518	OK
1369	     0	80.8	149.8	 521	OK
1370	     0	83.8	155.9	 501	OK
1371	     0	82.1	151.7	 499	OK
1372	  1000	81.1	149.8	 500	unbonded
1373	     0	82.0	152.3	 496	OK
1374	     0	81.8	152.4	 516	OK
1375	     0	81.5	152.3	 507	OK
1376	  1000	82.2	154.2	 491	unbonded
1377	     0	83.9	157.0	 494	OK
1378	     0	83.4	154.8	 509	OK
1379	     0	84.4	156.3	 507	OK
1380	     0	81.1	151.4	 510	OK
1381	     0	84.1	156.4	 496	OK
1382	     0	82.0	150.3	 498	OK
1383	     0	82.7	153.4	 501	OK
1384	     0	82.6	153.4	 503	OK
1385	     0	84.3	156.5	 497	OK
1386	     0	84.3	155.9	 504	OK
1387	     0	80.3	152.1	 508	OK
1388	     0	82.6	151.8	 496	OK
1389	  1000	81.6	151.2	 492	unbonded
1390	     0	82.2	153.5	 497	OK
1391	     0	83.9	156.0	 503	OK
1392	     0	81.9	153.7	 516	OK
1393	     0	83.0	153.6	 512	OK
1394	     0	84.4	157.0	 487	OK
1395	     0	84.4	156.6	 500	OK
1396	  1000	80.9	151.1	 500	unbonded
1397	     0	84.5	155.4	 510	OK
1398	     0	84.4	156.8	 510	OK
1399	     0	84.6	156.4	 512	OK
1400	     0	84.8	157.7	 497	OK
1401	     0	83.4	154.1	 505	OK
1402	     0	86.0	159.7	 506	OK
1403	     0	86.9	162.0	 497	OK
1404	     0	83.6	155.0	 518	OK
1405	     0	86.5	159.0	 478	OK
1406	     0	89.6	164.1	 492	OK
1407	     0	84.8	157.0	 512	OK
1408	     0	89.9	164.8	 496	OK
1409	     0	90.9	169.1	 498	OK
1410	     0	89.4	164.2	 493	OK
1411	     0	90.6	166.7	 493	OK
1412	     0	91.5	167.8	 483	OK
1413	     0	91.2	168.6	 491	OK
1414	     0	88.6	163.6	 503	OK
1415	     0	89.0	162.7	 495	OK
1416	     0	84.9	157.5	 497	OK
1417	     0	89.3	166.3	 482	OK
1418	     0	86.2	158.2	 485	OK
1419	     0	88.0	161.1	 500	OK
1420	     0	89.9	166.8	 489	OK
1421	     0	85.3	160.7	 494	OK
1422	     0	89.2	163.9	 490	OK
1423	     0	88.5	163.5	 500	OK
1424	     0	87.4	163.1	 488	OK
1425	     0	88.3	161.1	 500	OK
1426	     0	85.4	157.8	 504	OK
1427	     0	87.4	160.9	 506	OK
1428	     0	85.2	156.1	 509	OK
1429	     0	86.9	158.8	 504	OK
1430	     0	87.9	161.3	 495	OK
1431	     0	85.4	156.9	 490	OK
1432	     0	88.4	162.9	 493	OK
1433	     0	88.4	163.0	 495	OK
1434	     0	88.1	163.9	 491	OK
1435	     0	84.0	156.1	 510	OK
1436	     0	84.7	156.6	 505	OK
1437	     0	83.9	154.9	 503	OK
1438	     0	90.2	165.0	 512	OK
1439	     0	87.4	160.9	 496	OK
1440	     0	86.0	156.9	 518	OK
1441	     0	87.3	162.1	 495	OK
1442	     0	84.8	156.8	 500	OK
1443	     0	84.4	155.0	 493	OK
1444	     0	85.0	155.8	 497	OK
1445	     0	85.6	159.8	 496	OK
1446	     0	83.8	156.2	 501	OK
1447	     0	87.2	160.2	 501	OK
1448	     0	85.8	156.9	 512	OK
1449	     0	90.2	167.5	 493	OK
1450	     0	85.2	157.1	 512	OK
1451	     0	87.8	161.6	 498	OK
1452	     0	84.0	153.5	 503	OK
1453	     0	87.2	159.2	 504	OK
1454	     0	88.5	162.5	 500	OK
1455	     0	84.8	157.6	 502	OK
1456	     0	89.0	166.2	 504	OK
1457	     0	85.0	156.8	 490	OK
1458	     0	85.4	158.8	 507	OK
1459	     0	91.3	166.8	 491	OK
1460	     0	89.2	164.3	 490	OK
1461	     0	88.4	162.4	 493	OK
1462	     0	85.6	156.6	 517	OK
1463	     0	85.1	160.0	 496	OK
1464	     0	86.6	160.3	 492	OK
1465	     0	86.4	158.6	 505	OK
1466	     0	87.0	161.6	 497	OK
1467	     0	85.4	158.3	 499	OK
1468	     0	85.6	159.1	 511	OK
1469	     0	89.5	165.8	 506	OK
1470	     0	87.5	164.9	 516	OK
1471	     0	89.9	168.5	 492	OK
1472	     0	88.8	163.5	 501	OK
1473	     0	87.4	162.7	 509	OK
1474	     0	87.0	162.6	 504	OK
1475	     0	84.6	157.0	 514	OK
1476	     0	86.8	160.6	 506	OK
1477	     0	88.1	163.2	 508	OK
1478	     0	85.7	157.9	 504	OK
1479	     0	87.9	161.9	 504	OK
1480	     0	88.4	164.4	 501	OK
1481	     0	86.8	160.0	 524	OK
1482	     0	85.9	158.0	 500	OK
1483	     0	87.3	161.8	 495	OK
1484	     0	88.3	164.0	 503	OK
1485	     0	88.6	162.1	 515	OK
1486	     0	87.0	160.2	 500	OK
1487	     0	83.9	155.5	 513	OK
1488	     0	87.3	159.8	 524	OK
1489	     0	88.0	163.5	 498	OK
1490	     0	87.1	161.8	 490	OK
1491	     0	85.7	160.7	 490	OK
1492	     0	84.8	155.1	 486	OK
1493	     0	84.8	156.0	 518	OK
1494	     0	85.7	157.7	 483	OK
1495	     0	87.0	158.5	 498	OK
1496	     0	87.3	159.4	 488	OK
1497	     0	88.3	160.0	 489	OK
1498	     0	88.5	160.3	 494	OK
1499	     0	88.2	163.2	 505	OK
1500	     0	85.9	158.3	 504	OK
1501	     0	84.9	155.9	 507	OK
1502	     0	89.0	165.0	 502	OK
1503	     0	89.0	164.9	 493	OK
1504	     0	87.8	163.7	 499	OK
1505	     0	89.8	164.6	 474	OK
1506	     0	85.3	155.8	 479	OK
1507	     0	86.3	159.2	 503	OK
1508	     0	86.0	160.5	 505	OK
1509	     0	84.9	156.8	 497	OK
1510	     0	86.2	159.9	 509	OK
1511	     0	86.9	158.1	 492	OK
1512	     0	84.4	153.0	 493	OK
1513	     0	87.6	160.6	 489	OK
1514	     0	87.3	162.5	 494	OK
1515	     0	88.6	161.6	 488	OK
1516	     0	85.6	158.0	 491	OK
1517	     0	85.3	154.8	 491	OK
1518	     0	86.7	161.1	 505	OK
1519	     0	86.2	160.3	 487	OK
1520	     0	84.8	157.8	 497	OK
1521	     0	86.5	159.2	 502	OK
1522	     0	85.9	157.5	 499	OK
1523	     0	87.7	161.2	 491	OK
1524	     0	87.7	159.2	 488	OK
1525	     0	83.4	152.6	 498	OK
1526	     0	86.9	157.6	 495	OK
1527	     0	87.9	163.7	 505	OK
1528	     0	86.6	159.1	 511	OK
1529	     0	85.3	156.7	 497	OK
1530	     0	87.3	160.0	 495	OK
1531	     0	85.9	159.0	 509	OK
1532	     0	88.0	162.9	 497	OK
1533	     0	88.6	162.3	 502	OK
1534	     0	88.5	164.7	 482	OK
1535	     0	89.9	164.0	 499	OK
1536	     0	85.6	159.8	 487	OK
1537	     0	83.8	154.0	 498	OK
1538	     0	86.7	159.9	 508	OK
1539	     0	84.4	156.9	 498	OK
1540	     0	86.8	158.5	 497	OK
1541	     0	84.2	156.6	 504	OK
1542	  1000	82.5	153.2	 475	unbonded
1543	  1000	84.0	153.4	 482	unbonded
1544	     0	83.4	156.7	 491	OK
1545	     0	86.0	158.4	 504	OK
1546	     0	83.2	152.9	 490	OK
1547	  1000	82.1	150.6	 491	unbonded
1548	  1000	82.0	151.3	 493	unbonded
1549	     0	83.4	153.6	 508	OK
1550	     0	84.2	156.8	 492	OK
1551	     0	84.0	154.1	 500	OK
1552	  1000	81.4	151.6	 495	unbonded
1553	     0	84.1	154.0	 501	OK
1554	     0	82.9	151.5	 503	OK
1555	     0	84.6	155.1	 503	OK
1556	  1000	82.0	152.2	 488	unbonded
1557	     0	82.6	152.6	 493	OK
1558	  1000	78.6	149.5	 511	unbonded
1559	     0	83.3	153.0	 505	OK
1560	     0	81.9	150.5	 506	OK
1561	  1000	81.2	149.7	 494	unbonded
1562	  1000	83.5	155.5	 484	unbonded
1563	     0	82.1	150.0	 507	OK
1564	     0	84.5	154.6	 497	OK
1565	     0	84.8	158.6	 490	OK
1566	     0	82.8	152.5	 494	OK
1567	     0	82.9	155.1	 494	OK
1568	     0	82.2	152.4	 505	OK
1569	     0	84.8	154.5	 489	OK
1570	     0	83.8	153.5	 509	OK
1571	     0	84.3	155.9	 494	OK
1572	     0	85.4	157.9	 493	OK
1573	     0	83.4	156.3	 500	OK
1574	     0	84.6	156.0	 517	OK
1575	     0	83.4	155.8	 508	OK
1576	  1000	79.5	147.9	 505	unbonded
1577	     0	80.8	149.0	 509	OK
1578	     0	82.3	150.1	 500	OK
1579	  1000	81.6	151.2	 486	unbonded
1580	     0	85.5	156.8	 494	OK
1581	     0	84.0	155.5	 511	OK
1582	     0	84.2	155.0	 503	OK
1583	     0	82.7	154.6	 501	OK
1584	     0	83.2	153.3	 509	OK
1585	     0	85.9	157.4	 506	OK
1586	     0	84.5	156.4	 500	OK
1587	     0	84.4	156.4	 494	OK
1588	  1000	81.0	149.9	 497	unbonded
1589	     0	82.3	153.1	 504	OK
1590	     0	81.8	150.4	 503	OK
1591	  1000	79.5	147.0	 496	unbonded
1592	  1000	81.7	152.3	 494	unbonded
1593	     0	84.1	154.7	 484	OK
1594	     0	81.2	151.5	 512	OK
1595	     0	84.7	156.4	 489	OK
1596	     0	83.9	154.6	 500	OK
1597	     0	85.5	160.5	 488	OK
1598	     0	86.0	160.0	 512	OK
1599	     0	86.4	158.5	 509	OK
1600	     0	84.1	156.8	 517	OK
1601	     0	83.4	156.2	 507	OK
1602	     0	84.3	154.3	 505	OK
1603	     0	82.9	151.3	 525	OK
1604	     0	81.6	151.4	 512	OK
1605	  1000	81.2	150.2	 494	unbonded
1606	     0	83.0	155.4	 516	OK
1607	     0	84.1	155.2	 507	OK
1608	     0	82.7	153.5	 504	OK
1609	  1000	81.5	152.3	 490	unbonded
1610	     0	81.3	151.2	 510	OK
1611	     0	83.0	153.9	 509	OK
1612	     0	84.9	155.2	 503	OK
1613	     0	83.2	150.9	 510	OK
1614	     0	82.7	153.1	 495	OK
1615	     0	82.9	152.8	 514	OK
1616	     0	81.4	150.0	 503	OK
1617	     0	83.4	153.3	 491	OK
1618	     0	81.6	151.0	 505	OK
1619	     0	85.1	154.6	 486	OK
1620	     0	82.8	151.1	 498	OK
1621	     0	84.3	155.8	 509	OK
1622	     0	84.1	154.3	 495	OK
1623	     0	83.0	152.7	 490	OK
1624	  1000	81.8	151.3	 486	unbonded
1625	     0	82.1	151.2	 497	OK
1626	     0	85.9	157.9	 496	OK
1627	     0	84.0	154.2	 496	OK
1628	     0	83.9	156.6	 511	OK
1629	     0	83.1	154.3	 496	OK
1630	     0	79.5	146.2	 514	OK
1631	  1000	83.7	156.3	 473	unbonded
1632	     0	83.5	151.9	 492	OK
1633	     0	82.6	152.8	 503	OK
1634	     0	82.8	152.9	 491	OK
1635	  1000	81.8	151.1	 494	unbonded
1636	     0	81.5	152.9	 515	OK
1637	  1000	83.8	152.1	 478	unbonded
1638	     0	83.1	154.7	 504	OK
1639	     0	84.3	153.0	 491	OK
1640	     0	82.6	153.7	 493	OK
1641	     0	83.6	152.9	 504	OK
1642	  1000	82.0	152.4	 491	unbonded
1643	  1000	84.0	156.2	 477	unbonded
1644	     0	83.5	153.3	 516	OK
1645	     0	82.7	150.5	 502	OK
1646	  1000	81.3	150.6	 494	unbonded
1647	     0	83.0	151.2	 493	OK
1648	     0	82.3	149.9	 499	OK
1649	  1000	83.2	152.1	 486	unbonded
1650	     0	82.3	152.4	 503	OK
1651	     0	82.2	150.6	 512	OK
1652	     0	83.0	152.9	 491	OK
1653	     0	81.6	153.3	 503	OK
1654	     0	83.7	152.6	 488	OK
1655	     0	83.4	151.4	 492	OK
1656	     0	82.6	150.6	 500	OK
1657	     0	85.2	155.7	 489	OK
1658	     0	84.0	153.7	 494	OK
1659	  1000	82.5	151.8	 485	unbonded
1660	     0	84.7	154.9	 502	OK
1661	     0	86.6	159.0	 476	OK
1662	     0	85.4	156.9	 493	OK
1663	     0	86.2	158.5	 493	OK
1664	     0	88.0	164.0	 495	OK
1665	     0	86.3	158.5	 490	OK
1666	     0	85.2	155.7	 514	OK
1667	     0	85.0	157.1	 508	OK
1668	     0	85.3	156.4	 496	OK
1669	     0	84.1	155.0	 488	OK
1670	     0	87.6	161.1	 486	OK
1671	     0	83.5	151.5	 499	OK
1672	  1000	81.2	149.3	 494	unbonded
1673	     0	82.6	151.7	 494	OK
1674	     0	84.4	152.7	 492	OK
1675	     0	85.2	153.7	 485	OK
1676	     0	85.8	158.0	 500	OK
1677	     0	86.3	158.6	 475	OK
1678	     0	83.1	153.7	 491	OK
1679	     0	85.6	156.7	 487	OK
1680	     0	86.5	157.3	 505	OK
1681	     0	82.5	151.6	 499	OK
1682	     0	85.3	155.1	 491	OK
1683	  1000	81.9	150.8	 491	unbonded
1684	     0	84.3	153.5	 507	OK
1685	     0	85.2	155.8	 479	OK
1686	     0	84.2	154.6	 495	OK
1687	     0	81.8	149.5	 498	OK
1688	     0	85.0	156.7	 494	OK
1689	     0	84.5	154.3	 483	OK
1690	     0	86.0	158.2	 506	OK
1691	     0	85.5	156.2	 485	OK
1692	     0	84.4	153.8	 520	OK
1693	     0	85.3	156.6	 488	OK
1694	     0	84.9	155.8	 482	OK
1695	  1000	81.4	149.2	 498	unbonded
1696	     0	83.6	154.9	 501	OK
1697	     0	85.2	154.0	 495	OK
1698	     0	84.6	156.7	 500	OK
1699	     0	84.5	154.4	 492	OK
1700	     0	85.8	156.7	 500	OK
1701	     0	84.8	157.2	 504	OK
1702	     0	85.1	156.9	 504	OK
1703	     0	85.5	159.6	 479	OK
1704	     0	85.9	157.4	 496	OK
1705	     0	84.7	153.3	 497	OK
1706	     0	85.2	157.4	 501	OK
1707	     0	83.5	155.4	 506	OK
1708	     0	83.5	152.3	 493	OK
1709	     0	87.5	159.2	 498	OK
1710	     0	84.7	154.3	 504	OK
1711	     0	85.3	158.0	 490	OK
1712	     0	85.8	157.3	 499	OK
1713	     0	84.5	156.7	 496	OK
1714	     0	86.0	157.1	 504	OK
1715	     0	87.4	161.2	 495	OK
1716	     0	86.7	159.5	 497	OK
1717	     0	86.3	157.5	 489	OK
1718	     0	85.7	159.0	 499	OK
1719	     0	84.3	155.5	 499	OK
1720	     0	85.9	157.3	 485	OK
1721	     0	86.9	160.9	 487	OK
1722	     0	85.5	159.1	 506	OK
1723	     0	85.0	157.1	 494	OK
1724	     0	84.7	156.7	 518	OK
1725	     0	87.4	161.9	 485	OK
1726	     0	88.1	160.8	 497	OK
1727	     0	88.1	163.8	 489	OK
1728	     0	87.5	160.6	 488	OK
1729	     0	86.9	162.4	 497	OK
1730	     0	85.1	157.2	 494	OK
1731	     0	85.7	159.6	 490	OK
1732	     0	84.4	155.5	 496	OK
1733	     0	87.4	159.9	 493	OK
1734	     0	85.4	156.3	 499	OK
1735	  1000	83.6	156.6	 472	unbonded
1736	     0	87.7	160.8	 482	OK
1737	     0	85.9	158.6	 488	OK
1738	     0	87.4	161.3	 492	OK
1739	  1000	84.5	155.8	 479	unbonded
1740	     0	83.8	153.8	 501	OK
1741	     0	86.0	159.7	 478	OK
1742	     0	83.9	154.3	 497	OK
1743	     0	87.0	158.4	 495	OK
1744	     0	86.5	159.2	 514	OK
1745	     0	87.3	159.2	 492	OK
1746	     0	85.9	157.3	 511	OK
1747	     0	85.1	154.9	 493	OK
1748	     0	87.3	159.0	 483	OK
1749	     0	85.8	157.3	 492	OK
1750	     0	89.6	165.1	 474	OK
1751	     0	90.4	167.1	 489	OK
1752	     0	85.5	157.2	 495	OK
1753	     0	85.4	155.1	 486	OK
1754	     0	84.8	156.7	 508	OK
1755	     0	83.9	154.2	 496	OK
1756	     0	83.6	154.5	 489	OK
1757	     0	87.4	161.5	 484	OK
1758	  1000	83.6	156.0	 484	unbonded
1759	     0	90.1	164.5	 486	OK
1760	     0	86.4	160.5	 494	OK
1761	  1000	82.9	151.8	 488	unbonded
1762	     0	85.6	157.5	 490	OK
1763	     0	85.0	158.7	 478	OK
1764	     0	87.1	158.2	 497	OK
1765	     0	84.6	155.5	 494	OK
1766	     0	83.0	154.4	 505	OK
1767	     0	85.4	157.0	 480	OK
1768	     0	85.9	157.2	 475	OK
1769	     0	86.1	157.5	 477	OK
1770	     0	86.9	159.8	 486	OK
1771	     0	86.6	159.3	 488	OK
1772	     0	88.1	161.5	 485	OK
1773	     0	89.0	163.0	 478	OK
1774	     0	84.8	155.6	 488	OK
1775	     0	88.0	161.3	 484	OK
1776	     0	87.6	162.0	 480	OK
1777	     0	87.6	161.3	 484	OK
1778	     0	87.2	158.2	 489	OK
1779	     0	84.4	155.5	 499	OK
1780	     0	87.3	158.8	 484	OK
1781	     0	83.5	152.7	 487	OK
1782	  1000	86.1	158.4	 472	unbonded
1783	  1000	84.1	153.4	 476	unbonded
1784	     0	85.2	156.2	 495	OK
1785	     0	88.1	161.2	 486	OK
1786	     0	88.5	163.0	 498	OK
1787	     0	86.8	158.6	 488	OK
1788	     0	87.9	163.6	 479	OK
1789	     0	89.2	164.9	 483	OK
1790	     0	91.0	166.7	 477	OK
1791	     0	88.8	162.4	 489	OK
1792	     0	88.0	163.5	 481	OK
1793	     0	88.9	163.5	 473	OK
1794	  1000	83.7	154.5	 485	unbonded
1795	  1000	84.1	155.4	 466	unbonded
1796	  1000	82.9	151.5	 481	unbonded
1797	     0	85.8	157.2	 490	OK
1798	  1000	84.1	154.7	 472	unbonded
1799	     0	86.0	157.4	 498	OK
1800	  1000	81.6	150.4	 474	unbonded
1801	     0	88.6	162.2	 466	OK
1802	  1000	82.7	150.4	 477	unbonded
1803	     0	88.5	160.0	 471	OK
1804	  1000	86.2	157.0	 467	unbonded
1805	  1000	83.3	154.4	 467	unbonded
1806	  1000	84.0	154.5	 451	unbonded
1807	  1000	86.0	158.2	 460	unbonded
1808	     0	86.3	158.2	 488	OK
1809	  1000	85.5	154.6	 465	unbonded
1810	  1000	85.1	155.3	 476	unbonded
1811	  1000	85.9	158.6	 467	unbonded
1812	     0	86.3	158.4	 475	OK
1813	     0	88.7	160.6	 467	OK
1814	  1000	84.9	154.6	 468	unbonded
1815	  1000	85.7	156.2	 472	unbonded
1816	     0	82.8	153.4	 491	OK
1817	  1000	85.7	157.1	 468	unbonded
1818	  1000	84.0	155.4	 474	unbonded
1819	     0	85.8	160.2	 478	OK
1820	     0	86.2	158.7	 472	OK
1821	  1000	82.8	153.6	 475	unbonded
1822	  1000	85.5	157.0	 471	unbonded
1823	  1000	83.9	155.1	 479	unbonded
1824	     0	86.5	161.1	 473	OK
1825	     0	84.0	155.0	 484	OK
1826	     0	84.8	156.7	 484	OK
1827	  1000	83.7	154.8	 484	unbonded
1828	     0	84.7	155.5	 492	OK
1829	  1000	82.4	152.4	 484	unbonded
1830	  1000	83.0	153.4	 479	unbonded
1831	     0	84.7	157.6	 483	OK
1832	     0	85.0	154.9	 490	OK
1833	     0	85.3	156.3	 480	OK
1834	  1000	83.8	154.1	 483	unbonded
1835	     0	89.1	165.2	 489	OK
1836	     0	84.2	155.9	 498	OK
1837	     0	84.8	155.9	 483	OK
1838	     0	86.0	158.5	 476	OK
1839	  1000	85.3	157.9	 472	unbonded
1840	     0	86.9	157.1	 485	OK
1841	  1000	85.1	157.7	 464	unbonded
1842	     0	85.8	155.7	 482	OK
1843	  1000	83.0	153.4	 458	unbonded
1844	     0	86.5	155.7	 498	OK
1845	  1000	85.0	159.3	 474	unbonded
1846	     0	85.4	156.6	 495	OK
1847	     0	84.1	154.1	 492	OK
1848	     0	86.3	160.1	 487	OK
1849	  1000	85.2	159.3	 477	unbonded
1850	  1000	82.9	154.6	 480	unbonded
1851	     0	86.4	159.4	 474	OK
1852	     0	86.4	160.4	 471	OK
1853	     0	87.2	162.1	 472	OK
1854	     0	89.1	167.4	 478	OK
1855	     0	88.3	162.1	 485	OK
1856	  1000	84.7	158.2	 471	unbonded
1857	     0	85.2	156.8	 478	OK
1858	  1000	83.8	154.3	 481	unbonded
1859	     0	86.1	159.7	 481	OK
1860	     0	87.6	161.9	 481	OK
1861	     0	86.4	160.0	 474	OK
1862	     0	84.6	157.3	 484	OK
1863	     0	86.8	163.5	 472	OK
1864	     0	85.9	158.7	 475	OK
1865	     0	85.6	157.0	 476	OK
1866	     0	84.9	154.5	 490	OK
1867	  1000	86.2	159.3	 467	unbonded
1868	     0	84.4	157.0	 486	OK
1869	     0	85.4	157.6	 477	OK
1870	     0	84.1	155.4	 491	OK
1871	  1000	85.1	155.9	 471	unbonded
1872	  1000	83.8	155.0	 462	unbonded
1873	  1000	84.0	155.9	 465	unbonded
1874	  1000	84.9	157.2	 468	unbonded
1875	  1000	83.7	154.2	 470	unbonded
1876	     0	86.9	160.6	 473	OK
1877	     0	84.8	159.0	 481	OK
1878	  1000	85.5	158.1	 474	unbonded
1879	  1000	85.4	155.6	 473	unbonded
1880	  1000	87.6	158.1	 464	unbonded
1881	     0	86.4	158.0	 473	OK
1882	     0	86.3	159.6	 491	OK
1883	  1000	86.7	160.8	 464	unbonded
1884	  1000	84.9	157.0	 470	unbonded
1885	  1000	84.5	156.1	 473	unbonded
1886	  1000	85.7	158.5	 466	unbonded
1887	     0	89.0	164.5	 481	OK
1888	     0	84.7	156.8	 487	OK
1889	  1000	84.9	155.2	 458	unbonded
1890	  1000	87.6	159.4	 455	unbonded
1891	  1000	83.9	155.1	 467	unbonded
1892	  1000	84.7	158.6	 455	unbonded
1893	     0	85.4	156.6	 477	OK
1894	  1000	84.8	156.8	 456	unbonded
1895	  1000	84.2	153.7	 482	unbonded
1896	  1000	84.8	158.1	 472	unbonded
1897	  1000	85.2	155.8	 459	unbonded
1898	  1000	85.0	158.0	 476	unbonded
1899	     0	86.6	158.5	 477	OK
1900	     0	85.3	158.1	 486	OK
1901	  1000	87.1	160.6	 455	unbonded
1902	  1000	82.6	152.8	 474	unbonded
1903	  1000	85.1	157.2	 471	unbonded
1904	     0	86.3	158.7	 475	OK
1905	  1000	84.2	156.2	 482	unbonded
1906	     0	86.8	160.5	 475	OK
1907	     0	84.3	154.4	 489	OK
1908	     0	85.7	156.1	 477	OK
1909	  1000	82.1	151.8	 466	unbonded
1910	     0	87.0	159.7	 486	OK
1911	  1000	86.5	160.3	 459	unbonded
1912	  1000	86.2	157.5	 469	unbonded
1913	     0	87.0	161.0	 484	OK
1914	     0	86.2	159.1	 491	OK
1915	     0	87.0	162.4	 469	OK
1916	  1000	85.8	157.7	 467	unbonded
1917	     0	88.1	162.7	 485	OK
1918	     0	89.4	165.1	 455	OK
1919	     0	90.9	162.9	 467	OK
1920	  1000	83.4	154.3	 486	unbonded
1921	     0	86.2	159.0	 486	OK
1922	  1000	83.2	154.0	 474	unbonded
1923	     0	86.8	161.9	 483	OK
1924	     0	83.8	155.8	 497	OK
1925	  1000	82.4	152.1	 477	unbonded
1926	     0	82.9	150.4	 500	OK
1927	  1000	79.8	147.3	 484	unbonded
1928	  1000	81.0	149.3	 488	unbonded
1929	  1000	82.2	150.2	 485	unbonded
1930	  1000	80.6	149.1	 489	unbonded
1931	     0	82.9	151.3	 503	OK
1932	     0	82.9	152.8	 497	OK
1933	     0	84.0	155.5	 488	OK
1934	  1000	82.1	150.7	 472	unbonded
1935	  1000	82.3	153.8	 478	unbonded
1936	     0	83.2	153.4	 494	OK
1937	  1000	79.7	147.2	 483	unbonded
1938	  1000	81.6	150.1	 480	unbonded
1939	  1000	82.4	150.9	 487	unbonded
1940	  1000	84.8	153.7	 477	unbonded
1941	  1000	80.1	147.3	 477	unbonded
1942	  1000	84.2	154.6	 480	unbonded
1943	     0	86.9	158.3	 486	OK
1944	  1000	81.4	151.2	 476	unbonded
1945	     0	86.5	160.6	 480	OK
1946	  1000	80.1	149.3	 477	unbonded
1947	  1000	82.8	151.4	 476	unbonded
1948	  1000	82.1	152.7	 482	unbonded
1949	  1000	80.4	150.2	 484	unbonded
1950	  1000	81.5	150.3	 479	unbonded
1951	  1000	83.6	152.9	 475	unbonded
1952	  1000	82.7	152.6	 488	unbonded
1953	  1000	83.3	153.0	 479	unbonded
1954	  1000	82.6	153.0	 487	unbonded
1955	  1000	83.1	154.6	 483	unbonded
1956	  1000	82.9	151.6	 469	unbonded
1957	  1000	80.4	149.3	 471	unbonded
1958	     0	83.6	151.5	 487	OK
1959	     0	83.7	154.5	 488	OK
1960	  1000	80.1	148.4	 482	unbonded
1961	     0	84.4	155.7	 490	OK
1962	  1000	81.6	149.7	 485	unbonded
1963	     0	84.4	155.8	 484	OK
1964	  1000	82.5	153.1	 477	unbonded
1965	  1000	83.3	152.3	 476	unbonded
1966	  1000	82.6	154.6	 482	unbonded
1967	  1000	82.4	151.0	 467	unbonded
1968	  1000	82.7	151.2	 489	unbonded
1969	  1000	81.8	149.9	 483	unbonded
1970	  1000	82.1	151.2	 484	unbonded
1971	  1000	80.0	149.1	 478	unbonded
1972	     0	84.0	155.0	 491	OK
1973	  1000	82.6	153.8	 465	unbonded
1974	     0	84.3	156.7	 483	OK
1975	  1000	82.7	151.5	 485	unbonded
1976	  1000	82.2	151.8	 471	unbonded
1977	     0	85.5	156.4	 483	OK
1978	     0	83.1	152.3	 501	OK
1979	  1000	82.8	154.5	 490	unbonded
1980	     0	84.4	157.2	 489	OK
1981	     0	86.4	162.0	 481	OK
1982	  1000	83.9	158.0	 483	unbonded
1983	     0	86.8	158.1	 475	OK
1984	     0	85.2	156.6	 487	OK
1985	  1000	83.4	156.9	 476	unbonded
1986	  1000	83.1	153.9	 485	unbonded
1987	  1000	82.5	152.6	 478	unbonded
1988	     0	84.1	154.5	 490	OK
1989	     0	84.6	154.0	 484	OK
1990	     0	86.0	159.1	 482	OK
1991	  1000	81.1	150.2	 485	unbonded
1992	  1000	81.5	153.6	 464	unbonded
1993	  1000	83.6	154.4	 480	unbonded
1994	  1000	81.3	152.6	 482	unbonded
1995	  1000	82.0	152.7	 470	unbonded
1996	     0	83.3	154.5	 491	OK
1997	     0	85.9	158.3	 485	OK
1998	     0	82.9	154.6	 493	OK
1999	  1000	82.1	152.1	 477	unbonded
2000	  1000	82.0	151.6	 485	unbonded
2001	  1000	80.9	149.6	 475	unbonded
2002	  1000	82.5	152.8	 487	unbonded
2003	  1000	80.3	148.6	 489	unbonded
2004	     0	83.2	154.2	 489	OK
2005	  1000	82.8	153.6	 483	unbonded
2006	  1000	81.2	152.3	 469	unbonded
2007	  1000	82.7	154.3	 486	unbonded
2008	     0	83.9	154.8	 487	OK
2009	  1000	84.9	158.4	 474	unbonded
2010	  1000	83.7	154.5	 476	unbonded
2011	  1000	81.0	149.0	 486	unbonded
2012	  1000	83.1	152.7	 487	unbonded
2013	  1000	83.4	155.7	 475	unbonded
2014	  1000	83.8	153.8	 479	unbonded
2015	  1000	84.3	157.1	 479	unbonded
2016	  1000	83.0	156.2	 474	unbonded
2017	  1000	81.6	151.8	 469	unbonded
2018	     0	83.9	155.5	 487	OK
2019	  1000	85.0	156.6	 465	unbonded
2020	  1000	85.3	155.6	 475	unbonded
2021	     0	86.8	160.8	 473	OK
2022	     0	82.4	152.9	 495	OK
2023	  1000	82.4	139.8	 474	unbonded
2024	     0	82.2	155.4	 495	OK
2025	  1000	83.9	154.4	 476	unbonded
2026	     0	83.3	154.7	 492	OK
2027	  1000	84.2	155.7	 471	unbonded
2028	  1000	81.2	151.1	 498	unbonded
2029	  1000	81.6	153.9	 465	unbonded
2030	  1000	85.1	157.2	 477	unbonded
2031	  1000	85.3	156.5	 473	unbonded
2032	  1000	84.2	156.9	 453	unbonded
2033	  1000	83.0	152.6	 477	unbonded
2034	  1000	81.2	152.3	 495	unbonded
2035	  1000	86.1	160.4	 467	unbonded
2036	  1000	83.0	156.8	 474	unbonded
2037	  1000	82.6	151.2	 475	unbonded
2038	     0	83.8	153.6	 488	OK
2039	  1000	80.0	150.1	 477	unbonded
2040	     0	86.4	158.0	 477	OK
2041	  1000	83.5	155.1	 476	unbonded
2042	     0	87.2	158.9	 476	OK
2043	  1000	83.8	154.8	 464	unbonded
2044	     0	86.7	159.0	 470	OK
2045	  1000	84.1	155.9	 471	unbonded
2046	     0	85.5	163.0	 481	OK
2047	     0	86.3	159.1	 475	OK
2048	  1000	82.8	155.2	 464	unbonded
2049	  1000	85.8	156.9	 456	unbonded
2050	  1000	85.0	156.5	 455	unbonded
2051	  1000	87.3	160.6	 461	unbonded
2052	  1000	84.9	158.5	 457	unbonded
2053	  1000	82.7	153.2	 455	unbonded
2054	  1000	84.7	154.0	 452	unbonded
2055	  1000	85.6	156.6	 456	unbonded
2056	  1000	81.3	150.1	 447	unbonded
2057	  1000	83.5	154.9	 466	unbonded
2058	  1000	85.2	158.5	 463	unbonded
2059	  1000	84.1	156.9	 467	unbonded
2060	  1000	82.2	151.4	 445	unbonded
2061	  1000	83.8	155.7	 457	unbonded
2062	  1000	84.3	155.2	 445	unbonded
2063	  1000	83.8	154.0	 456	unbonded
2064	  1000	83.5	155.5	 441	unbonded
2065	  1000	85.6	157.1	 437	unbonded
2066	  1000	87.5	161.9	 463	unbonded
2067	  1000	86.5	159.9	 449	unbonded
2068	  1000	82.8	154.4	 458	unbonded
2069	  1000	84.8	154.4	 468	unbonded
2070	  1000	81.5	151.3	 457	unbonded
2071	  1000	84.2	154.1	 459	unbonded
2072	  1000	84.9	157.1	 459	unbonded
2073	  1000	85.2	156.3	 457	unbonded
2074	  1000	83.4	155.0	 461	unbonded
2075	  1000	82.3	154.2	 461	unbonded
2076	  1000	83.6	154.8	 452	unbonded
2077	  1000	84.1	157.8	 451	unbonded
2078	  1000	82.8	153.0	 457	unbonded
2079	  1000	85.0	155.9	 462	unbonded
2080	  1000	82.7	154.3	 459	unbonded
2081	  1000	83.3	154.2	 473	unbonded
2082	  1000	83.5	157.1	 448	unbonded
2083	  1000	81.5	151.8	 471	unbonded
2084	  1000	86.8	160.2	 450	unbonded
2085	  1000	81.6	153.8	 459	unbonded
2086	     0	87.0	159.1	 469	OK
2087	  1000	84.3	154.9	 455	unbonded
2088	  1000	85.2	157.5	 463	unbonded
2089	  1000	83.1	155.7	 468	unbonded
2090	  1000	84.4	156.6	 475	unbonded
2091	  1000	84.0	157.1	 455	unbonded
2092	  1000	81.2	152.0	 478	unbonded
2093	  1000	84.6	156.5	 461	unbonded
2094	  1000	83.9	153.1	 454	unbonded
2095	  1000	85.5	158.7	 467	unbonded
2096	  1000	83.2	154.1	 477	unbonded
2097	  1000	83.7	156.2	 468	unbonded
2098	  1000	85.4	157.0	 460	unbonded
2099	  1000	82.3	154.4	 453	unbonded
2100	  1000	83.1	152.7	 462	unbonded
2101	  1000	83.5	152.7	 470	unbonded
2102	  1000	84.4	157.5	 465	unbonded
2103	  1000	83.8	154.4	 462	unbonded
2104	  1000	82.8	154.6	 465	unbonded
2105	     0	86.6	159.3	 471	OK
2106	  1000	86.1	160.0	 462	unbonded
2107	  1000	85.3	160.6	 459	unbonded
2108	  1000	86.8	160.7	 460	unbonded
2109	     0	86.8	161.3	 468	OK
2110	  1000	84.7	157.6	 463	unbonded
2111	     0	88.3	163.4	 472	OK
2112	  1000	83.6	154.7	 468	unbonded
2113	  1000	85.0	158.3	 458	unbonded
2114	  1000	85.0	158.3	 460	unbonded
2115	  1000	84.7	158.0	 464	unbonded
2116	  1000	83.6	154.0	 442	unbonded
2117	  1000	82.4	153.3	 471	unbonded
2118	  1000	87.5	163.8	 460	unbonded
2119	  1000	85.4	158.9	 446	unbonded
2120	  1000	82.2	151.6	 462	unbonded
2121	  1000	82.0	154.2	 465	unbonded
2122	  1000	83.1	155.8	 451	unbonded
2123	  1000	84.7	158.2	 461	unbonded
2124	  1000	84.4	155.8	 452	unbonded
2125	  1000	81.4	150.9	 450	unbonded
2126	  1000	83.9	157.5	 452	unbonded
2127	  1000	80.9	151.3	 458	unbonded
2128	  1000	80.9	149.6	 454	unbonded
2129	  1000	80.5	149.6	 469	unbonded
2130	  1000	82.3	155.1	 455	unbonded
2131	  1000	85.4	156.7	 450	unbonded
2132	  1000	85.0	159.0	 461	unbonded
2133	  1000	83.2	154.8	 450	unbonded
2134	  1000	83.5	154.7	 446	unbonded
2135	  1000	85.8	159.4	 463	unbonded
2136	  1000	85.7	158.2	 451	unbonded
2137	  1000	82.0	153.7	 459	unbonded
2138	  1000	82.0	152.2	 452	unbonded
2139	  1000	83.2	155.1	 442	unbonded
2140	  1000	84.1	155.6	 464	unbonded
2141	  1000	84.7	155.4	 447	unbonded
2142	  1000	86.2	159.0	 457	unbonded
2143	  1000	82.0	151.8	 455	unbonded
2144	  1000	82.1	153.7	 444	unbonded
2145	  1000	83.3	154.6	 459	unbonded
2146	  1000	85.3	158.3	 467	unbonded
2147	  1000	83.6	157.8	 474	unbonded
2148	  1000	85.3	159.2	 447	unbonded
2149	  1000	87.2	159.2	 454	unbonded
2150	  1000	81.8	151.2	 447	unbonded
2151	  1000	83.7	156.3	 472	unbonded
2152	  1000	83.8	154.6	 458	unbonded
2153	  1000	82.8	153.8	 453	unbonded
2154	  1000	85.5	158.4	 448	unbonded
2155	  1000	86.1	158.9	 449	unbonded
2156	  1000	86.2	158.0	 455	unbonded
2157	  1000	85.0	155.8	 443	unbonded
2158	  1000	85.3	157.2	 444	unbonded
2159	  1000	84.1	156.1	 443	unbonded
2160	  1000	83.8	156.2	 451	unbonded
2161	  1000	83.8	156.0	 469	unbonded
2162	  1000	81.2	151.4	 440	unbonded
2163	  1000	85.5	156.0	 454	unbonded
2164	  1000	85.2	159.2	 464	unbonded
2165	  1000	87.1	162.3	 439	unbonded
2166	  1000	82.9	154.9	 454	unbonded
2167	  1000	82.6	156.2	 453	unbonded
2168	  1000	84.0	156.2	 446	unbonded
2169	  1000	84.9	158.2	 445	unbonded
2170	  1000	86.3	156.7	 455	unbonded
2171	  1000	86.2	157.4	 448	unbonded
2172	  1000	87.4	164.8	 451	unbonded
2173	  1000	90.5	167.1	 439	unbonded
2174	  1000	84.7	157.9	 468	unbonded
2175	  1000	86.0	160.0	 464	unbonded
2176	     0	85.0	155.9	 481	OK
2177	     0	85.2	155.9	 487	OK
2178	     0	87.2	160.1	 475	OK
2179	     0	85.6	156.3	 479	OK
2180	     0	83.0	151.2	 492	OK
2181	  1000	84.3	156.5	 465	unbonded
2182	     0	85.1	154.8	 489	OK
2183	  1000	81.9	151.3	 476	unbonded
2184	  1000	81.5	149.2	 472	unbonded
2185	  1000	80.8	147.0	 494	unbonded
2186	     0	83.3	150.7	 488	OK
2187	  1000	81.3	150.3	 482	unbonded
2188	  1000	84.5	154.1	 468	unbonded
2189	  1000	82.0	152.9	 474	unbonded
2190	  1000	80.6	149.2	 455	unbonded
2191	     0	85.8	156.4	 474	OK
2192	  1000	84.1	155.0	 468	unbonded
2193	  1000	84.1	154.3	 461	unbonded
2194	  1000	82.7	151.1	 479	unbonded
2195	  1000	83.7	152.9	 478	unbonded
2196	  1000	80.2	148.6	 474	unbonded
2197	  1000	82.9	151.0	 478	unbonded
2198	  1000	79.1	145.6	 470	unbonded
2199	  1000	83.7	153.3	 476	unbonded
2200	  1000	84.3	156.4	 462	unbonded
2201	  1000	84.4	153.3	 475	unbonded
2202	  1000	85.4	158.7	 466	unbonded
2203	  1000	83.5	154.7	 480	unbonded
2204	  1000	81.1	151.3	 474	unbonded
2205	  1000	84.4	156.0	 477	unbonded
2206	  1000	80.6	147.5	 479	unbonded
2207	  1000	81.9	151.5	 475	unbonded
2208	  1000	80.7	149.4	 470	unbonded
2209	     0	84.5	156.0	 487	OK
2210	  1000	83.2	150.7	 470	unbonded
2211	  1000	82.1	150.1	 490	unbonded
2212	  1000	82.2	150.5	 481	unbonded
2213	  1000	81.5	151.1	 469	unbonded
2214	     0	84.2	153.4	 489	OK
2215	     0	85.3	156.0	 478	OK
2216	  1000	83.1	151.8	 474	unbonded
2217	     0	86.0	158.8	 475	OK
2218	  1000	81.1	148.4	 461	unbonded
2219	  1000	82.2	152.0	 472	unbonded
2220	  1000	80.0	147.1	 478	unbonded
2221	  1000	83.5	152.2	 481	unbonded
2222	  1000	81.0	148.7	 480	unbonded
2223	  1000	79.4	146.7	 490	unbonded
2224	  1000	84.5	156.0	 481	unbonded
2225	  1000	81.3	149.6	 475	unbonded
2226	  1000	78.4	146.0	 497	unbonded
2227	  1000	81.2	151.0	 468	unbonded
2228	  1000	82.6	150.9	 485	unbonded
2229	  1000	82.3	151.8	 480	unbonded
2230	  1000	82.1	150.7	 477	unbonded
2231	  1000	84.5	153.9	 478	unbonded
2232	  1000	81.2	148.4	 481	unbonded
2233	  1000	83.7	151.9	 480	unbonded
2234	  1000	84.2	152.9	 479	unbonded
2235	  1000	82.4	154.0	 493	unbonded
2236	  1000	81.0	151.2	 473	unbonded
2237	     0	83.4	156.0	 490	OK
2238	     0	83.6	156.1	 496	OK
2239	     0	88.2	162.6	 480	OK
2240	  1000	82.1	152.9	 469	unbonded
2241	  1000	82.5	154.1	 481	unbonded
2242	  1000	80.4	147.1	 495	unbonded
2243	  1000	81.7	151.5	 480	unbonded
2244	  1000	79.6	147.5	 477	unbonded
2245	  1000	83.3	152.2	 488	unbonded
2246	     0	84.1	155.9	 494	OK
2247	  1000	79.7	149.7	 465	unbonded
2248	  1000	78.3	142.8	 499	unbonded
2249	  1000	84.3	157.3	 475	unbonded
2250	  1000	82.6	152.2	 485	unbonded
2251	  1000	82.6	154.3	 491	unbonded
2252	  1000	81.3	151.7	 475	unbonded
2253	  1000	81.6	153.2	 481	unbonded
2254	  1000	80.5	150.2	 472	unbonded
2255	  1000	77.5	144.0	 484	unbonded
2256	  1000	82.2	152.8	 468	unbonded
2257	  1000	80.5	149.7	 481	unbonded
2258	  1000	82.6	153.2	 481	unbonded
2259	  1000	82.1	151.3	 475	unbonded
2260	  1000	79.4	147.2	 493	unbonded
2261	     0	84.6	154.6	 485	OK
2262	  1000	78.2	145.6	 480	unbonded
2263	  1000	81.6	150.6	 486	unbonded
2264	  1000	81.9	153.6	 474	unbonded
2265	  1000	79.7	147.0	 506	unbonded
2266	     0	83.3	152.8	 490	OK
2267	  1000	80.7	149.8	 483	unbonded
2268	  1000	82.3	152.9	 479	unbonded
2269	  1000	80.7	151.1	 495	unbonded
2270	  1000	82.8	154.5	 487	unbonded
2271	  1000	81.3	150.5	 467	unbonded
2272	  1000	81.4	152.5	 479	unbonded
2273	     0	81.4	150.4	 501	OK
2274	  1000	79.7	148.3	 476	unbonded
2275	  1000	81.1	151.0	 494	unbonded
2276	  1000	81.4	151.6	 472	unbonded
2277	  1000	81.2	150.6	 480	unbonded
2278	  1000	77.3	143.3	 483	unbonded
2279	  1000	80.6	149.4	 496	unbonded
2280	  1000	81.9	151.5	 465	unbonded
2281	  1000	81.0	151.5	 480	unbonded
2282	  1000	81.6	149.8	 492	unbonded
2283	  1000	80.7	149.5	 487	unbonded
2284	  1000	82.7	153.5	 456	unbonded
2285	  1000	83.5	153.9	 473	unbonded
2286	  1000	80.4	149.7	 465	unbonded
2287	  1000	79.3	148.5	 486	unbonded
2288	  1000	81.0	147.8	 488	unbonded
2289	  1000	80.5	150.5	 468	unbonded
2290	  1000	81.1	149.8	 475	unbonded
2291	  1000	83.5	154.7	 475	unbonded
2292	  1000	80.8	150.1	 476	unbonded
2293	  1000	79.7	149.6	 481	unbonded
2294	  1000	80.4	148.4	 478	unbonded
2295	  1000	85.4	159.1	 463	unbonded
2296	  1000	82.1	151.5	 485	unbonded
2297	  1000	80.2	147.6	 474	unbonded
2298	     0	84.4	153.9	 487	OK
2299	  1000	79.7	149.5	 468	unbonded
2300	  1000	81.5	149.4	 467	unbonded
2301	  1000	83.8	155.3	 470	unbonded
2302	  1000	85.8	156.9	 469	unbonded
2303	  1000	83.6	154.1	 475	unbonded
2304	  1000	85.0	156.6	 444	unbonded
2305	  1000	84.7	156.4	 458	unbonded
2306	  1000	86.4	157.4	 447	unbonded
2307	  1000	86.0	156.1	 461	unbonded
2308	  1000	87.4	157.8	 462	unbonded
2309	  1000	85.8	155.4	 450	unbonded
2310	  1000	83.2	151.0	 467	unbonded
2311	  1000	85.2	156.0	 462	unbonded
2312	  1000	85.7	155.6	 451	unbonded
2313	  1000	85.4	154.9	 459	unbonded
2314	  1000	83.4	152.1	 458	unbonded
2315	  1000	85.9	156.0	 453	unbonded
2316	  1000	84.7	154.5	 465	unbonded
2317	  1000	86.3	155.2	 450	unbonded
2318	  1000	82.1	150.0	 462	unbonded
2319	  1000	83.4	152.1	 453	unbonded
2320	  1000	85.5	155.3	 457	unbonded
2321	  1000	85.9	155.9	 471	unbonded
2322	  1000	80.5	146.8	 451	unbonded
2323	  1000	83.0	150.8	 452	unbonded
2324	  1000	82.0	152.3	 460	unbonded
2325	  1000	84.8	155.3	 442	unbonded
2326	  1000	84.0	154.5	 447	unbonded
2327	  1000	86.0	157.1	 469	unbonded
2328	  1000	82.1	153.0	 459	unbonded
2329	  1000	79.8	145.1	 450	unbonded
2330	  1000	87.2	157.8	 457	unbonded
2331	  1000	82.0	151.1	 454	unbonded
2332	  1000	85.8	154.2	 452	unbonded
2333	  1000	83.3	151.9	 457	unbonded
2334	  1000	83.6	150.9	 479	unbonded
2335	  1000	82.8	151.4	 459	unbonded
2336	  1000	82.5	152.0	 465	unbonded
2337	  1000	83.1	151.6	 460	unbonded
2338	  1000	84.1	155.4	 454	unbonded
2339	  1000	86.5	156.5	 451	unbonded
2340	  1000	83.4	153.9	 461	unbonded
2341	  1000	84.4	156.0	 474	unbonded
2342	  1000	80.6	147.9	 466	unbonded
2343	  1000	87.5	158.7	 454	unbonded
2344	  1000	85.4	155.7	 458	unbonded
2345	  1000	83.7	153.1	 452	unbonded
2346	  1000	85.2	154.8	 460	unbonded
2347	  1000	85.6	155.6	 468	unbonded
2348	  1000	84.7	153.0	 463	unbonded
2349	  1000	84.4	155.2	 459	unbonded
2350	  1000	85.1	155.6	 464	unbonded
2351	     0	88.1	160.8	 483	OK
2352	  1000	84.7	156.2	 459	unbonded
2353	  1000	85.3	156.9	 466	unbonded
2354	  1000	84.3	152.4	 451	unbonded
2355	  1000	86.3	154.9	 463	unbonded
2356	     0	86.1	157.2	 481	OK
2357	  1000	85.0	154.7	 455	unbonded
2358	  1000	84.4	154.0	 461	unbonded
2359	     0	87.3	156.8	 476	OK
2360	  1000	85.0	152.9	 469	unbonded
2361	  1000	85.6	155.1	 451	unbonded
2362	  1000	82.6	152.9	 462	unbonded
2363	  1000	84.9	155.8	 459	unbonded
2364	  1000	82.8	155.1	 461	unbonded
2365	     0	88.2	161.5	 474	OK
2366	     0	85.7	154.0	 478	OK
2367	     0	89.1	160.0	 471	OK
2368	  1000	84.0	155.4	 475	unbonded
2369	  1000	82.7	151.0	 465	unbonded
2370	  1000	85.9	156.1	 466	unbonded
2371	  1000	85.7	156.1	 466	unbonded
2372	  1000	84.6	152.2	 472	unbonded
2373	  1000	84.8	155.2	 460	unbonded
2374	  1000	83.3	151.8	 469	unbonded
2375	  1000	83.7	152.1	 463	unbonded
2376	  1000	84.2	154.8	 461	unbonded
2377	  1000	84.7	153.0	 478	unbonded
2378	  1000	83.7	150.5	 457	unbonded
2379	  1000	83.7	154.0	 463	unbonded
2380	  1000	82.7	154.6	 474	unbonded
2381	  1000	83.6	153.8	 479	unbonded
2382	  1000	84.3	152.8	 462	unbonded
2383	  1000	84.4	155.5	 456	unbonded
2384	  1000	81.3	150.4	 486	unbonded
2385	  1000	84.3	154.9	 472	unbonded
2386	  1000	83.1	152.3	 452	unbonded
2387	  1000	85.5	155.3	 456	unbonded
2388	  1000	87.0	156.9	 447	unbonded
2389	  1000	85.1	154.2	 465	unbonded
2390	  1000	81.6	150.4	 457	unbonded
2391	  1000	84.0	152.7	 471	unbonded
2392	  1000	85.4	154.8	 462	unbonded
2393	  1000	85.6	154.4	 470	unbonded
2394	  1000	85.4	156.3	 473	unbonded
2395	  1000	86.1	155.5	 466	unbonded
2396	  1000	82.3	151.2	 467	unbonded
2397	  1000	81.7	148.5	 460	unbonded
2398	  1000	84.6	154.5	 468	unbonded
2399	  1000	83.0	151.7	 465	unbonded
2400	  1000	86.2	158.8	 469	unbonded
2401	  1000	85.6	153.5	 472	unbonded
2402	  1000	83.6	150.7	 474	unbonded
2403	  1000	84.3	154.7	 462	unbonded
2404	  1000	83.6	152.7	 476	unbonded
2405	  1000	81.4	149.6	 466	unbonded
2406	  1000	84.4	155.0	 458	unbonded
2407	  1000	82.2	151.5	 460	unbonded
2408	  1000	82.0	151.4	 458	unbonded
2409	  1000	84.2	150.8	 471	unbonded
2410	  1000	83.2	152.1	 476	unbonded
2411	  1000	83.4	151.7	 454	unbonded
2412	  1000	84.6	153.2	 458	unbonded
2413	  1000	81.5	149.3	 454	unbonded
2414	     0	86.3	157.8	 472	OK
2415	  1000	85.6	154.4	 461	unbonded
2416	  1000	84.1	153.4	 458	unbonded
2417	  1000	80.3	147.8	 453	unbonded
2418	  1000	82.6	152.8	 464	unbonded
2419	  1000	81.9	150.4	 458	unbonded
2420	  1000	84.2	152.3	 465	unbonded
2421	  1000	85.4	154.8	 466	unbonded
2422	     0	86.9	154.8	 471	OK
2423	  1000	83.0	151.9	 483	unbonded
2424	     0	88.4	159.6	 465	OK
2425	  1000	86.6	156.1	 464	unbonded
2426	  1000	84.8	156.8	 468	unbonded
2427	  1000	83.4	150.8	 471	unbonded
2428	  1000	87.1	158.5	 458	unbonded
2429	  1000	87.1	156.3	 460	unbonded
2430	     0	88.3	161.6	 467	OK
2431	     0	88.4	161.7	 469	OK
2432	     0	86.2	160.9	 482	OK
2433	     0	89.2	163.9	 483	OK
2434	  1000	84.7	155.8	 475	unbonded
2435	  1000	83.8	155.7	 482	unbonded
2436	     0	86.9	160.4	 476	OK
2437	     0	87.2	159.5	 487	OK
2438	  1000	85.0	154.6	 473	unbonded
2439	     0	86.4	160.5	 476	OK
2440	  1000	85.6	156.9	 467	unbonded
2441	  1000	83.7	155.0	 482	unbonded
2442	  1000	85.8	156.7	 471	unbonded
2443	     0	85.9	157.7	 484	OK
2444	  1000	85.6	159.8	 460	unbonded
2445	  1000	85.1	155.4	 469	unbonded
2446	  1000	84.4	156.3	 475	unbonded
2447	  1000	83.9	154.9	 484	unbonded
2448	     0	88.6	163.8	 485	OK
2449	  1000	85.3	156.5	 459	unbonded
2450	  1000	83.7	155.3	 485	unbonded
2451	  1000	84.1	154.8	 475	unbonded
2452	     0	87.6	160.6	 477	OK
2453	  1000	82.3	154.0	 474	unbonded
2454	  1000	86.0	160.3	 470	unbonded
2455	     0	86.8	160.7	 471	OK
2456	  1000	82.7	153.5	 469	unbonded
2457	     0	84.0	156.6	 488	OK
2458	     0	86.4	158.7	 477	OK
2459	  1000	82.7	153.4	 486	unbonded
2460	  1000	83.6	151.5	 472	unbonded
2461	     0	84.1	154.7	 486	OK
2462	  1000	85.9	159.6	 458	unbonded
2463	  1000	83.3	154.9	 458	unbonded
2464	     0	84.7	154.2	 481	OK
2465	     0	86.1	160.2	 474	OK
2466	     0	84.8	156.5	 488	OK
2467	  1000	82.5	154.8	 471	unbonded
2468	  1000	84.8	155.9	 477	unbonded
2469	  1000	82.4	152.8	 474	unbonded
2470	  1000	82.9	150.2	 486	unbonded
2471	     0	87.4	162.0	 491	OK
2472	     0	86.4	157.3	 484	OK
2473	  1000	85.1	156.5	 468	unbonded
2474	     0	85.2	155.4	 490	OK
2475	     0	85.1	155.8	 486	OK
2476	     0	88.0	161.7	 488	OK
2477	     0	87.6	159.5	 484	OK
2478	     0	87.5	161.1	 485	OK
2479	     0	83.9	155.6	 496	OK
2480	     0	86.7	160.4	 487	OK
2481	     0	85.9	158.5	 485	OK
2482	     0	85.3	156.6	 481	OK
2483	  1000	83.2	154.9	 473	unbonded
2484	     0	86.4	158.4	 495	OK
2485	     0	85.4	156.5	 489	OK
2486	     0	84.7	155.4	 482	OK
2487	     0	85.7	156.3	 487	OK
2488	     0	87.3	161.3	 487	OK
2489	     0	86.1	161.7	 482	OK
2490	     0	86.4	158.2	 483	OK
2491	     0	86.2	161.8	 496	OK
2492	     0	87.9	164.5	 488	OK
2493	     0	86.6	161.7	 500	OK
2494	     0	85.8	159.7	 486	OK
2495	  1000	85.3	156.1	 470	unbonded
2496	  1000	84.6	157.5	 472	unbonded
2497	     0	87.1	160.5	 489	OK
2498	     0	83.8	156.6	 499	OK
2499	     0	88.7	165.7	 486	OK
2500	     0	84.7	156.1	 488	OK
2501	     0	86.5	157.3	 480	OK
2502	     0	86.6	160.5	 492	OK
2503	     0	84.9	158.9	 486	OK
2504	  1000	83.7	155.6	 484	unbonded
2505	     0	85.3	156.6	 482	OK
2506	     0	85.2	156.3	 482	OK
2507	     0	83.6	153.0	 488	OK
2508	  1000	82.4	153.7	 474	unbonded
2509	  1000	83.1	154.2	 485	unbonded
2510	  1000	83.2	151.2	 479	unbonded
2511	  1000	84.0	152.2	 477	unbonded
2512	  1000	83.4	151.6	 482	unbonded
2513	     0	84.7	157.6	 495	OK
2514	  1000	85.4	156.4	 472	unbonded
2515	  1000	81.8	151.8	 484	unbonded
2516	     0	87.4	158.7	 476	OK
2517	  1000	83.3	154.6	 481	unbonded
2518	  1000	83.0	153.7	 464	unbonded
2519	     0	84.7	157.6	 482	OK
2520	  1000	82.4	152.2	 471	unbonded
2521	  1000	83.3	156.2	 475	unbonded
2522	     0	85.7	158.8	 480	OK
2523	  1000	84.5	155.7	 467	unbonded
2524	  1000	85.0	157.0	 474	unbonded
2525	  1000	84.4	157.2	 465	unbonded
2526	     0	84.4	156.1	 486	OK
2527	  1000	82.8	151.7	 481	unbonded
2528	  1000	83.3	153.4	 478	unbonded
2529	     0	85.0	156.1	 486	OK
2530	     0	83.2	154.3	 501	OK
2531	     0	87.8	160.8	 482	OK
2532	  1000	83.6	156.4	 469	unbonded
2533	  1000	82.2	151.8	 482	unbonded
2534	  1000	85.1	155.0	 474	unbonded
2535	  1000	83.0	151.3	 474	unbonded
2536	  1000	84.9	154.6	 478	unbonded
2537	     0	86.0	156.4	 493	OK
2538	     0	86.5	157.3	 472	OK
2539	     0	88.3	161.0	 484	OK
2540	  1000	84.3	154.3	 474	unbonded
2541	     0	85.5	159.8	 480	OK
2542	     0	85.9	156.3	 477	OK
2543	  1000	84.7	156.4	 463	unbonded
2544	     0	86.1	156.2	 480	OK
2545	  1000	83.9	151.2	 478	unbonded
2546	     0	85.4	159.0	 491	OK
2547	  1000	84.3	154.3	 480	unbonded
2548	     0	86.5	159.6	 471	OK
2549	  1000	85.2	155.2	 468	unbonded
2550	     0	85.8	160.0	 476	OK
2551	     0	83.7	151.5	 488	OK
2552	     0	85.4	157.3	 486	OK
2553	     0	84.9	154.7	 479	OK
2554	     0	86.9	160.7	 475	OK
2555	     0	86.2	157.7	 475	OK
2556	  1000	82.4	153.5	 471	unbonded
2557	     0	88.3	161.1	 467	OK
2558	  1000	84.4	156.0	 478	unbonded
2559	     0	87.3	159.9	 483	OK
