#chan	code	gain	vt50	innse	comment
   0	     0	86.6	114.0	 765	OK
   1	     0	87.4	116.6	 747	OK
   2	     0	87.5	117.8	 740	OK
   3	     0	87.6	118.9	 751	OK
   4	     0	90.8	119.5	 735	OK
   5	     0	88.0	116.4	 727	OK
   6	     0	84.2	112.6	 741	OK
   7	     0	84.9	114.4	 732	OK
   8	     0	83.5	112.9	 732	OK
   9	     0	84.7	114.8	 727	OK
  10	     0	86.0	115.7	 738	OK
  11	     0	84.6	114.0	 754	OK
  12	     0	84.9	116.0	 734	OK
  13	     0	85.6	114.3	 729	OK
  14	     0	84.5	115.0	 752	OK
  15	     0	87.0	116.1	 731	OK
  16	     0	87.6	119.6	 718	OK
  17	     0	86.5	115.8	 733	OK
  18	     0	84.1	115.3	 743	OK
  19	     0	83.1	111.7	 736	OK
  20	     0	85.2	113.7	 729	OK
  21	     0	81.3	111.9	 734	OK
  22	     0	85.7	116.1	 710	OK
  23	     0	86.8	116.0	 735	OK
  24	     0	83.2	112.8	 729	OK
  25	     0	82.6	112.7	 726	OK
  26	     0	85.0	113.8	 730	OK
  27	     0	85.1	117.4	 716	OK
  28	     0	86.7	116.2	 710	OK
  29	     0	85.2	115.0	 708	OK
  30	     0	83.2	112.2	 704	OK
  31	     0	87.1	115.9	 733	OK
  32	     0	87.6	116.8	 724	OK
  33	     0	79.9	110.2	 731	OK
  34	     0	84.9	114.4	 726	OK
  35	     0	83.8	113.0	 721	OK
  36	     0	85.0	114.9	 728	OK
  37	     0	87.8	117.1	 729	OK
  38	     0	82.0	112.1	 726	OK
  39	     0	84.0	112.5	 722	OK
  40	     0	82.7	112.8	 740	OK
  41	     0	84.1	113.7	 741	OK
  42	     0	81.8	109.5	 716	OK
  43	     0	85.3	114.6	 734	OK
  44	     0	88.3	119.3	 735	OK
  45	     0	87.2	118.6	 727	OK
  46	     0	86.1	114.3	 743	OK
  47	     0	84.3	115.3	 712	OK
  48	     0	82.9	113.3	 719	OK
  49	     0	82.1	113.5	 737	OK
  50	     0	85.5	117.0	 743	OK
  51	     0	87.1	116.6	 733	OK
  52	     0	83.3	114.8	 728	OK
  53	     0	84.1	114.2	 732	OK
  54	     0	83.0	114.1	 723	OK
  55	     0	83.0	111.8	 728	OK
  56	     0	83.0	113.0	 745	OK
  57	     0	85.3	114.1	 747	OK
  58	     0	86.1	115.6	 721	OK
  59	     0	86.3	116.2	 731	OK
  60	     0	85.6	114.8	 717	OK
  61	     0	85.1	116.8	 734	OK
  62	     0	84.5	116.8	 732	OK
  63	     0	86.1	115.9	 734	OK
  64	     0	85.3	115.2	 730	OK
  65	     0	83.2	113.1	 734	OK
  66	     0	86.3	117.6	 732	OK
  67	     0	83.5	113.4	 709	OK
  68	     0	85.9	114.7	 714	OK
  69	     0	80.5	111.6	 712	OK
  70	     0	87.3	117.7	 729	OK
  71	     0	88.2	120.2	 734	OK
  72	     0	83.8	114.1	 710	OK
  73	     0	83.9	115.9	 735	OK
  74	     0	81.8	113.0	 713	OK
  75	     0	82.1	111.6	 732	OK
  76	     0	85.5	115.6	 733	OK
  77	     0	85.3	114.9	 704	OK
  78	     0	82.7	113.3	 723	OK
  79	     0	84.9	114.7	 720	OK
  80	     0	81.8	112.8	 721	OK
  81	     0	83.6	114.7	 715	OK
  82	     0	82.6	115.1	 740	OK
  83	     0	86.1	117.2	 730	OK
  84	     0	84.4	112.4	 720	OK
  85	     0	82.7	114.1	 721	OK
  86	     0	84.1	113.9	 716	OK
  87	     0	83.1	112.5	 724	OK
  88	     0	82.8	113.6	 713	OK
  89	     0	86.5	117.1	 714	OK
  90	     0	83.7	112.8	 724	OK
  91	     0	84.5	113.0	 720	OK
  92	     0	83.4	115.2	 717	OK
  93	     0	84.6	114.8	 708	OK
  94	     0	85.3	115.5	 715	OK
  95	     0	80.0	112.0	 721	OK
  96	     0	84.3	115.0	 724	OK
  97	     0	85.5	117.5	 730	OK
  98	     0	87.2	117.2	 710	OK
  99	     0	84.3	114.8	 713	OK
 100	     0	82.6	112.1	 715	OK
 101	     0	84.1	113.9	 728	OK
 102	     0	87.0	115.8	 704	OK
 103	     0	86.3	114.8	 715	OK
 104	     0	85.4	116.8	 707	OK
 105	     0	84.9	115.8	 717	OK
 106	     0	83.1	110.4	 711	OK
 107	     0	85.3	116.8	 719	OK
 108	     0	83.7	111.9	 706	OK
 109	     0	81.5	112.3	 720	OK
 110	     0	88.4	118.7	 719	OK
 111	     0	90.2	122.1	 718	OK
 112	     0	87.7	116.5	 715	OK
 113	     0	84.9	113.6	 711	OK
 114	     0	85.8	116.0	 717	OK
 115	     0	85.2	114.0	 724	OK
 116	     0	84.1	115.0	 722	OK
 117	     0	86.0	117.3	 711	OK
 118	     0	88.1	116.9	 699	OK
 119	     0	85.5	116.5	 713	OK
 120	     0	81.5	110.8	 714	OK
 121	     0	84.4	114.1	 725	OK
 122	     0	86.1	117.0	 725	OK
 123	     0	82.0	113.0	 719	OK
 124	     0	88.7	120.0	 709	OK
 125	     0	85.0	116.0	 709	OK
 126	     0	86.9	116.0	 700	OK
 127	     0	85.8	114.8	 717	OK
 128	     0	88.9	120.3	 673	OK
 129	     0	92.4	125.9	 677	OK
 130	     0	90.7	119.9	 662	OK
 131	     0	88.6	119.8	 673	OK
 132	     0	89.1	120.8	 681	OK
 133	     0	83.7	113.9	 690	OK
 134	     0	88.3	118.0	 674	OK
 135	     0	86.8	115.4	 660	OK
 136	     0	88.7	120.3	 645	OK
 137	     0	88.1	117.6	 649	OK
 138	     0	87.9	117.9	 634	OK
 139	     0	89.5	120.0	 638	OK
 140	     0	85.8	118.5	 642	OK
 141	     0	84.9	114.6	 638	OK
 142	     0	88.6	117.8	 664	OK
 143	     0	88.3	119.0	 643	OK
 144	     0	85.5	113.7	 657	OK
 145	     0	85.6	115.6	 639	OK
 146	     0	87.2	118.3	 659	OK
 147	     0	87.2	117.8	 646	OK
 148	     0	86.4	119.0	 641	OK
 149	     0	91.0	122.1	 656	OK
 150	     0	90.0	121.3	 664	OK
 151	     0	86.5	118.7	 647	OK
 152	     0	88.4	120.6	 653	OK
 153	     0	84.0	115.0	 663	OK
 154	     0	88.2	118.5	 643	OK
 155	     0	85.0	115.9	 667	OK
 156	     0	87.8	118.3	 655	OK
 157	     0	84.9	114.1	 644	OK
 158	     0	85.7	117.1	 643	OK
 159	     0	86.5	118.3	 654	OK
 160	     0	86.3	117.0	 654	OK
 161	     0	87.3	118.0	 654	OK
 162	     0	85.0	115.3	 653	OK
 163	     0	87.2	118.9	 653	OK
 164	     0	87.9	118.4	 657	OK
 165	     0	84.1	115.3	 662	OK
 166	     0	90.3	118.6	 644	OK
 167	     0	85.5	115.9	 666	OK
 168	     0	87.4	119.4	 658	OK
 169	     0	89.3	118.9	 680	OK
 170	     0	87.4	119.1	 674	OK
 171	     0	84.9	114.2	 667	OK
 172	     0	85.9	115.7	 668	OK
 173	     0	86.0	118.1	 665	OK
 174	     0	85.6	116.5	 677	OK
 175	     0	86.0	115.6	 670	OK
 176	     0	86.3	115.7	 672	OK
 177	     0	88.3	121.1	 670	OK
 178	     0	86.2	116.7	 678	OK
 179	     0	89.4	121.5	 660	OK
 180	     0	87.3	120.3	 671	OK
 181	     0	88.3	121.4	 679	OK
 182	     0	87.4	117.6	 675	OK
 183	     0	87.6	120.4	 684	OK
 184	     0	87.3	117.7	 676	OK
 185	     0	87.9	118.3	 677	OK
 186	     0	87.9	118.8	 670	OK
 187	     0	86.5	117.1	 674	OK
 188	     0	86.5	117.8	 669	OK
 189	     0	87.1	116.7	 675	OK
 190	     0	88.5	119.4	 677	OK
 191	     0	88.6	118.7	 665	OK
 192	     0	89.8	119.9	 665	OK
 193	     0	85.5	117.5	 673	OK
 194	     0	87.9	120.1	 682	OK
 195	     0	86.8	118.5	 680	OK
 196	     0	88.1	119.3	 680	OK
 197	     0	89.3	121.9	 685	OK
 198	     0	84.8	116.3	 675	OK
 199	     0	89.4	122.0	 685	OK
 200	     0	84.7	116.2	 683	OK
 201	     0	84.7	116.2	 672	OK
 202	     0	84.2	115.4	 682	OK
 203	     0	85.6	115.5	 679	OK
 204	     0	87.0	117.1	 688	OK
 205	     0	84.7	114.9	 697	OK
 206	     0	85.2	118.6	 690	OK
 207	     0	86.2	117.4	 673	OK
 208	     0	86.0	118.4	 673	OK
 209	     0	84.3	116.4	 698	OK
 210	     0	85.7	119.2	 689	OK
 211	     0	85.7	117.0	 671	OK
 212	     0	87.0	118.1	 679	OK
 213	     0	85.7	116.8	 685	OK
 214	     0	85.4	115.4	 673	OK
 215	     0	84.3	113.6	 682	OK
 216	     0	86.5	120.1	 666	OK
 217	     0	88.6	118.9	 687	OK
 218	     0	87.2	118.7	 680	OK
 219	     0	85.9	113.9	 673	OK
 220	     0	86.1	116.7	 681	OK
 221	     0	85.9	117.0	 686	OK
 222	     0	89.1	120.3	 672	OK
 223	     0	88.5	119.4	 693	OK
 224	     0	84.7	115.3	 684	OK
 225	     0	86.2	118.0	 681	OK
 226	     0	89.1	119.4	 687	OK
 227	     0	84.2	115.6	 670	OK
 228	     0	86.2	117.7	 676	OK
 229	     0	87.6	120.2	 677	OK
 230	     0	82.7	114.1	 669	OK
 231	     0	88.3	119.3	 681	OK
 232	     0	88.6	118.4	 661	OK
 233	     0	85.7	117.1	 688	OK
 234	     0	84.9	117.0	 687	OK
 235	     0	87.9	119.7	 687	OK
 236	     0	85.6	113.6	 680	OK
 237	     0	85.2	116.3	 671	OK
 238	     0	87.0	119.1	 680	OK
 239	     0	86.5	117.2	 680	OK
 240	     0	85.9	117.4	 689	OK
 241	     0	86.5	116.9	 676	OK
 242	     0	85.5	115.5	 659	OK
 243	     0	83.6	112.2	 676	OK
 244	     0	88.8	119.5	 680	OK
 245	     0	87.0	118.9	 706	OK
 246	     0	87.7	117.7	 677	OK
 247	     0	86.1	118.3	 677	OK
 248	     0	88.8	120.4	 678	OK
 249	     0	87.0	117.9	 671	OK
 250	     0	89.2	120.2	 683	OK
 251	     0	86.8	120.7	 673	OK
 252	     0	85.1	114.7	 661	OK
 253	     0	88.7	120.4	 673	OK
 254	     0	86.3	116.5	 677	OK
 255	     0	89.1	118.5	 666	OK
 256	     0	89.7	121.0	 678	OK
 257	     0	91.1	125.9	 700	OK
 258	     0	92.2	122.2	 673	OK
 259	     0	89.9	118.9	 693	OK
 260	     0	92.6	122.9	 674	OK
 261	     0	92.7	122.2	 685	OK
 262	     0	89.9	122.0	 674	OK
 263	     0	88.6	119.1	 668	OK
 264	     0	93.6	124.1	 663	OK
 265	     0	91.5	121.5	 657	OK
 266	     0	90.7	120.8	 660	OK
 267	     0	91.1	120.3	 673	OK
 268	     0	89.6	122.1	 671	OK
 269	     0	93.3	124.2	 677	OK
 270	     0	93.3	123.7	 654	OK
 271	     0	89.0	118.4	 662	OK
 272	     0	92.5	124.7	 675	OK
 273	     0	91.6	123.1	 650	OK
 274	     0	91.6	125.7	 661	OK
 275	     0	94.7	125.5	 658	OK
 276	     0	92.3	122.8	 648	OK
 277	     0	93.2	126.1	 670	OK
 278	     0	85.5	115.5	 645	OK
 279	     0	89.5	121.2	 645	OK
 280	     0	91.3	123.1	 665	OK
 281	     0	91.8	122.6	 657	OK
 282	     0	91.6	123.8	 661	OK
 283	     0	89.1	118.4	 665	OK
 284	     0	90.4	121.1	 645	OK
 285	     0	91.0	122.1	 630	OK
 286	     0	88.0	118.6	 680	OK
 287	     0	91.1	121.3	 667	OK
 288	     0	93.5	124.8	 649	OK
 289	     0	90.7	121.6	 653	OK
 290	     0	91.8	124.6	 644	OK
 291	     0	89.1	119.8	 646	OK
 292	     0	87.3	117.7	 653	OK
 293	     0	88.0	118.3	 668	OK
 294	     0	88.3	118.6	 647	OK
 295	     0	89.2	121.1	 662	OK
 296	     0	92.6	124.2	 662	OK
 297	     0	92.0	122.4	 659	OK
 298	     0	90.6	119.8	 649	OK
 299	     0	89.3	120.3	 653	OK
 300	     0	89.9	120.9	 671	OK
 301	     0	89.1	120.4	 659	OK
 302	     0	89.3	122.0	 671	OK
 303	     0	92.0	125.5	 662	OK
 304	     0	89.0	119.8	 664	OK
 305	     0	87.6	118.0	 658	OK
 306	     0	92.9	125.6	 649	OK
 307	     0	90.2	120.3	 655	OK
 308	     0	91.6	121.1	 655	OK
 309	     0	90.1	119.8	 673	OK
 310	     0	90.3	121.9	 662	OK
 311	     0	89.8	121.2	 660	OK
 312	     0	89.4	118.8	 662	OK
 313	     0	90.4	120.7	 659	OK
 314	     0	91.4	123.8	 662	OK
 315	     0	90.5	122.0	 665	OK
 316	     0	91.9	123.7	 658	OK
 317	     0	89.4	123.2	 658	OK
 318	     0	90.9	122.8	 661	OK
 319	     0	89.6	123.0	 666	OK
 320	     0	92.3	125.2	 661	OK
 321	     0	92.1	125.0	 659	OK
 322	     0	92.9	125.3	 662	OK
 323	     0	89.7	120.3	 676	OK
 324	     0	90.6	120.6	 685	OK
 325	     0	88.3	117.6	 675	OK
 326	     0	89.9	121.6	 671	OK
 327	     0	90.2	119.3	 665	OK
 328	     0	91.4	124.9	 670	OK
 329	     0	89.0	122.2	 673	OK
 330	     0	88.2	120.8	 671	OK
 331	     0	89.7	120.8	 674	OK
 332	     0	88.1	121.2	 671	OK
 333	     0	86.0	117.0	 672	OK
 334	     0	91.1	123.8	 676	OK
 335	     0	89.2	119.0	 683	OK
 336	     0	90.6	122.9	 689	OK
 337	     0	88.9	122.4	 682	OK
 338	     0	90.0	122.9	 684	OK
 339	     0	87.5	118.6	 667	OK
 340	     0	89.1	120.4	 674	OK
 341	     0	88.9	120.6	 662	OK
 342	     0	87.1	117.2	 666	OK
 343	     0	89.0	120.0	 685	OK
 344	     0	90.6	122.0	 669	OK
 345	     0	90.2	124.2	 679	OK
 346	     0	90.6	119.1	 671	OK
 347	     0	91.0	122.8	 684	OK
 348	     0	85.8	115.0	 659	OK
 349	     0	90.9	120.7	 678	OK
 350	     0	89.6	121.4	 682	OK
 351	     0	91.7	121.8	 673	OK
 352	     0	88.6	120.3	 666	OK
 353	     0	90.2	120.2	 670	OK
 354	     0	91.8	121.8	 688	OK
 355	     0	88.1	120.3	 671	OK
 356	     0	90.5	124.6	 666	OK
 357	     0	90.1	122.1	 668	OK
 358	     0	90.0	120.4	 653	OK
 359	     0	91.0	125.1	 667	OK
 360	     0	89.6	120.6	 664	OK
 361	     0	87.9	118.2	 664	OK
 362	     0	88.6	121.6	 668	OK
 363	     0	89.3	120.3	 658	OK
 364	     0	90.5	123.9	 678	OK
 365	     0	92.0	124.3	 652	OK
 366	     0	89.6	121.3	 658	OK
 367	     0	88.4	118.0	 658	OK
 368	     0	89.8	123.3	 652	OK
 369	     0	89.9	121.8	 665	OK
 370	     0	91.5	124.7	 664	OK
 371	     0	94.7	127.4	 652	OK
 372	     0	92.3	123.1	 650	OK
 373	     0	90.9	123.4	 648	OK
 374	     0	93.3	124.1	 647	OK
 375	     0	89.4	120.7	 651	OK
 376	     0	91.0	123.3	 660	OK
 377	     0	89.8	120.8	 635	OK
 378	     0	88.4	121.9	 656	OK
 379	     0	91.8	123.5	 665	OK
 380	     0	92.0	123.1	 662	OK
 381	     0	90.4	122.0	 671	OK
 382	     0	95.0	125.3	 651	OK
 383	     0	93.9	122.2	 658	OK
 384	     0	92.2	120.5	 645	OK
 385	     0	92.2	121.8	 639	OK
 386	     0	90.1	122.8	 635	OK
 387	     0	92.3	123.0	 633	OK
 388	     0	92.0	122.5	 634	OK
 389	     0	89.5	122.0	 636	OK
 390	     0	91.2	122.4	 632	OK
 391	     0	89.0	120.6	 632	OK
 392	     0	89.2	120.9	 641	OK
 393	     0	86.3	115.2	 634	OK
 394	     0	92.5	125.2	 637	OK
 395	     0	90.7	123.1	 630	OK
 396	     0	91.9	124.0	 643	OK
 397	     0	90.4	122.2	 625	OK
 398	     0	90.2	121.6	 644	OK
 399	     0	89.3	118.8	 651	OK
 400	     0	90.8	123.4	 636	OK
 401	     0	90.2	122.5	 640	OK
 402	     0	90.7	120.3	 638	OK
 403	     0	87.9	120.3	 653	OK
 404	     0	90.3	123.0	 633	OK
 405	     0	86.8	118.8	 635	OK
 406	     0	90.0	121.3	 637	OK
 407	     0	90.1	121.7	 649	OK
 408	     0	89.2	121.0	 641	OK
 409	     0	89.5	122.3	 639	OK
 410	     0	87.1	120.0	 628	OK
 411	     0	88.1	120.3	 632	OK
 412	     0	87.3	118.5	 629	OK
 413	     0	87.5	120.2	 633	OK
 414	     0	88.1	119.6	 630	OK
 415	     0	87.5	118.7	 627	OK
 416	     0	92.6	125.2	 638	OK
 417	     0	90.2	120.9	 624	OK
 418	     0	91.2	122.0	 618	OK
 419	     0	90.8	124.4	 630	OK
 420	     0	90.0	119.3	 630	OK
 421	     0	89.6	121.6	 638	OK
 422	     0	90.0	121.7	 630	OK
 423	     0	90.0	120.7	 625	OK
 424	     0	88.1	118.7	 641	OK
 425	     0	90.4	120.3	 641	OK
 426	     0	88.7	117.5	 633	OK
 427	     0	89.5	120.1	 635	OK
 428	     0	91.2	124.3	 618	OK
 429	     0	90.2	120.1	 640	OK
 430	     0	90.4	123.2	 629	OK
 431	     0	87.0	119.5	 637	OK
 432	     0	88.6	121.8	 637	OK
 433	     0	86.4	120.0	 637	OK
 434	     0	85.5	118.1	 631	OK
 435	     0	88.1	120.0	 629	OK
 436	     0	90.1	121.4	 627	OK
 437	     0	88.1	117.5	 644	OK
 438	     0	90.3	120.7	 619	OK
 439	     0	88.7	119.9	 632	OK
 440	     0	91.5	122.9	 627	OK
 441	     0	89.2	122.0	 638	OK
 442	     0	90.8	122.9	 625	OK
 443	     0	91.9	125.5	 623	OK
 444	     0	90.4	122.2	 648	OK
 445	     0	91.3	124.0	 636	OK
 446	     0	91.1	123.9	 624	OK
 447	     0	90.4	122.9	 623	OK
 448	     0	90.8	123.8	 635	OK
 449	     0	92.2	123.9	 617	OK
 450	     0	88.6	120.8	 627	OK
 451	     0	88.1	120.2	 640	OK
 452	     0	92.5	122.1	 658	OK
 453	     0	86.5	116.9	 627	OK
 454	     0	90.0	120.2	 615	OK
 455	     0	88.6	120.5	 636	OK
 456	     0	89.6	123.5	 625	OK
 457	     0	87.6	119.9	 622	OK
 458	     0	87.9	120.0	 636	OK
 459	     0	91.3	125.0	 634	OK
 460	     0	86.1	118.7	 624	OK
 461	     0	89.4	122.2	 640	OK
 462	     0	86.3	118.2	 642	OK
 463	     0	85.7	118.4	 636	OK
 464	     0	87.6	117.7	 636	OK
 465	     0	86.4	118.0	 634	OK
 466	     0	88.2	118.2	 620	OK
 467	     0	87.5	118.5	 645	OK
 468	     0	87.2	119.2	 633	OK
 469	     0	87.6	119.0	 617	OK
 470	     0	89.3	118.9	 632	OK
 471	     0	88.9	121.1	 646	OK
 472	     0	86.9	119.5	 632	OK
 473	     0	89.7	121.4	 647	OK
 474	     0	90.1	119.9	 638	OK
 475	     0	89.0	118.8	 624	OK
 476	     0	88.5	119.2	 634	OK
 477	     0	84.9	117.1	 646	OK
 478	     0	87.8	119.2	 632	OK
 479	     0	88.4	119.1	 641	OK
 480	     0	86.2	115.4	 633	OK
 481	     0	87.6	121.7	 649	OK
 482	     0	90.8	124.7	 629	OK
 483	     0	87.5	119.7	 631	OK
 484	     0	88.9	120.0	 636	OK
 485	     0	86.5	117.1	 633	OK
 486	     0	90.7	120.5	 626	OK
 487	     0	88.4	120.7	 627	OK
 488	     0	88.1	117.7	 631	OK
 489	     0	87.8	119.2	 641	OK
 490	     0	87.5	118.3	 628	OK
 491	     0	88.8	119.8	 638	OK
 492	     0	86.8	118.8	 636	OK
 493	     0	85.1	118.3	 637	OK
 494	     0	89.8	119.2	 633	OK
 495	     0	86.0	115.9	 643	OK
 496	     0	86.8	118.2	 653	OK
 497	     0	90.2	121.2	 636	OK
 498	     0	87.6	119.9	 639	OK
 499	     0	89.9	123.7	 644	OK
 500	     0	87.4	118.2	 628	OK
 501	     0	84.4	114.6	 637	OK
 502	     0	88.0	118.5	 662	OK
 503	     0	89.3	120.0	 657	OK
 504	     0	88.0	119.2	 650	OK
 505	     0	89.3	120.7	 652	OK
 506	     0	89.7	122.1	 670	OK
 507	     0	88.7	118.9	 670	OK
 508	     0	86.2	118.6	 653	OK
 509	     0	89.3	119.0	 647	OK
 510	     0	88.2	120.8	 660	OK
 511	     0	88.2	120.0	 660	OK
 512	     0	91.6	121.7	 687	OK
 513	     0	91.9	122.5	 685	OK
 514	     0	93.0	124.9	 696	OK
 515	     0	92.7	124.7	 695	OK
 516	     0	93.3	122.6	 683	OK
 517	     0	93.3	127.0	 694	OK
 518	     0	93.0	126.7	 658	OK
 519	     0	91.9	124.4	 674	OK
 520	     0	91.4	121.7	 680	OK
 521	     0	92.9	123.4	 669	OK
 522	     0	91.5	123.6	 684	OK
 523	     0	88.9	118.4	 675	OK
 524	     0	93.1	124.4	 680	OK
 525	     0	91.5	123.7	 695	OK
 526	     0	92.7	124.5	 673	OK
 527	     0	84.8	118.0	 686	OK
 528	     0	89.0	120.1	 690	OK
 529	     0	88.6	118.5	 685	OK
 530	     0	92.1	126.7	 681	OK
 531	     0	88.7	119.8	 673	OK
 532	     0	90.5	123.6	 680	OK
 533	     0	91.5	123.5	 686	OK
 534	     0	92.5	124.1	 666	OK
 535	     0	94.0	125.8	 679	OK
 536	     0	90.4	123.0	 671	OK
 537	     0	91.4	123.0	 691	OK
 538	     0	92.3	124.1	 679	OK
 539	     0	91.1	123.5	 684	OK
 540	     0	93.7	123.7	 681	OK
 541	     0	86.9	120.2	 672	OK
 542	     0	89.6	120.8	 669	OK
 543	     0	90.0	123.4	 689	OK
 544	     0	90.2	121.8	 676	OK
 545	     0	90.2	122.9	 673	OK
 546	     0	87.2	118.4	 685	OK
 547	     0	89.7	120.3	 683	OK
 548	     0	94.0	127.6	 684	OK
 549	     0	88.6	120.2	 679	OK
 550	     0	89.1	120.8	 669	OK
 551	     0	88.5	121.4	 672	OK
 552	     0	87.9	118.2	 688	OK
 553	     0	91.3	121.7	 681	OK
 554	     0	88.9	120.6	 677	OK
 555	     0	87.6	119.5	 680	OK
 556	     0	88.5	119.0	 676	OK
 557	     0	88.4	120.4	 690	OK
 558	     0	89.9	121.1	 666	OK
 559	     0	91.3	121.5	 687	OK
 560	     0	89.3	118.8	 686	OK
 561	     0	85.3	115.0	 676	OK
 562	     0	90.6	121.8	 659	OK
 563	     0	89.1	122.0	 678	OK
 564	     0	89.7	121.8	 669	OK
 565	     0	89.4	121.8	 676	OK
 566	     0	89.3	121.1	 676	OK
 567	     0	89.8	123.0	 665	OK
 568	     0	89.8	120.7	 676	OK
 569	     0	87.6	121.6	 677	OK
 570	     0	88.6	121.8	 675	OK
 571	     0	89.3	120.9	 680	OK
 572	     0	90.5	123.0	 658	OK
 573	     0	92.4	125.6	 670	OK
 574	     0	89.4	122.3	 682	OK
 575	     0	94.0	125.3	 660	OK
 576	     0	92.3	125.3	 668	OK
 577	     0	91.8	124.5	 661	OK
 578	     0	88.5	120.4	 666	OK
 579	     0	89.5	122.2	 664	OK
 580	     0	89.3	119.9	 679	OK
 581	     0	93.3	124.9	 670	OK
 582	     0	91.9	124.9	 666	OK
 583	     0	88.7	121.9	 664	OK
 584	     0	91.0	122.5	 674	OK
 585	     0	89.5	119.6	 666	OK
 586	     0	91.0	121.6	 692	OK
 587	     0	92.4	126.4	 665	OK
 588	     0	88.1	119.5	 663	OK
 589	     0	91.7	124.0	 672	OK
 590	     0	91.8	124.1	 664	OK
 591	     0	89.7	123.3	 669	OK
 592	     0	91.3	122.7	 684	OK
 593	     0	88.5	118.9	 679	OK
 594	     0	88.9	119.6	 664	OK
 595	     0	95.4	126.4	 676	OK
 596	     0	91.4	122.4	 656	OK
 597	     0	91.3	125.5	 659	OK
 598	     0	89.9	123.1	 686	OK
 599	     0	92.8	121.7	 665	OK
 600	     0	88.7	119.6	 667	OK
 601	     0	92.1	124.3	 683	OK
 602	     0	93.4	126.5	 662	OK
 603	     0	91.2	123.2	 670	OK
 604	     0	88.5	118.6	 669	OK
 605	     0	90.2	122.2	 677	OK
 606	     0	89.2	121.8	 653	OK
 607	     0	89.4	121.0	 654	OK
 608	     0	92.4	123.9	 666	OK
 609	     0	93.0	123.8	 668	OK
 610	     0	89.3	121.2	 678	OK
 611	     0	93.0	125.5	 664	OK
 612	     0	90.0	120.7	 688	OK
 613	     0	90.4	121.0	 667	OK
 614	     0	92.2	124.1	 657	OK
 615	     0	91.7	125.1	 656	OK
 616	     0	92.8	125.3	 671	OK
 617	     0	90.1	121.3	 677	OK
 618	     0	91.4	124.6	 674	OK
 619	     0	93.6	126.7	 669	OK
 620	     0	92.8	125.0	 683	OK
 621	     0	88.2	121.8	 677	OK
 622	     0	92.6	126.0	 681	OK
 623	     0	90.9	121.6	 645	OK
 624	     0	92.3	123.0	 661	OK
 625	     0	92.0	125.4	 679	OK
 626	     0	95.5	125.5	 675	OK
 627	     0	87.7	121.7	 681	OK
 628	     0	91.0	120.3	 670	OK
 629	     0	90.5	122.1	 683	OK
 630	     0	91.2	122.4	 676	OK
 631	     0	94.9	126.3	 656	OK
 632	     0	87.2	119.7	 676	OK
 633	     0	91.3	120.9	 678	OK
 634	     0	92.5	124.5	 665	OK
 635	     0	88.6	118.7	 673	OK
 636	     0	93.2	123.7	 692	OK
 637	     0	91.0	122.2	 705	OK
 638	     0	93.7	123.1	 685	OK
 639	     0	90.8	121.6	 689	OK
 640	     0	91.4	124.3	 669	OK
 641	     0	91.4	124.2	 682	OK
 642	     0	93.4	124.2	 661	OK
 643	     0	90.5	121.9	 665	OK
 644	     0	90.4	120.1	 666	OK
 645	     0	88.4	121.6	 665	OK
 646	     0	87.5	119.7	 694	OK
 647	     0	93.2	125.0	 662	OK
 648	     0	89.9	121.4	 659	OK
 649	     0	92.2	122.4	 669	OK
 650	     0	90.1	119.8	 655	OK
 651	     0	90.7	122.6	 667	OK
 652	     0	90.2	123.0	 644	OK
 653	     0	88.4	119.4	 670	OK
 654	     0	91.0	121.4	 672	OK
 655	     0	87.0	117.4	 654	OK
 656	     0	89.2	121.2	 662	OK
 657	     0	86.0	116.6	 674	OK
 658	     0	87.3	120.9	 678	OK
 659	     0	91.5	121.7	 653	OK
 660	     0	86.3	119.4	 650	OK
 661	     0	88.8	120.4	 663	OK
 662	     0	86.3	115.2	 653	OK
 663	     0	91.7	122.0	 660	OK
 664	     0	87.5	119.2	 652	OK
 665	     0	85.9	116.3	 658	OK
 666	     0	91.0	123.7	 650	OK
 667	     0	89.0	120.0	 650	OK
 668	     0	87.9	118.0	 677	OK
 669	     0	88.3	119.2	 674	OK
 670	     0	89.1	119.5	 664	OK
 671	     0	90.6	122.3	 667	OK
 672	     0	85.0	115.1	 670	OK
 673	     0	88.0	120.8	 675	OK
 674	     0	85.2	115.8	 654	OK
 675	     0	87.6	117.9	 682	OK
 676	     0	87.5	117.5	 655	OK
 677	     0	87.6	119.7	 673	OK
 678	     0	90.1	122.1	 674	OK
 679	     0	89.3	121.0	 671	OK
 680	     0	88.8	119.6	 664	OK
 681	     0	86.8	116.6	 658	OK
 682	     0	88.3	120.0	 658	OK
 683	     0	87.8	118.6	 661	OK
 684	     0	88.4	119.3	 665	OK
 685	     0	91.0	122.8	 675	OK
 686	     0	92.9	123.7	 680	OK
 687	     0	88.7	120.0	 658	OK
 688	     0	86.3	117.2	 682	OK
 689	     0	85.8	116.6	 675	OK
 690	     0	89.6	121.5	 678	OK
 691	     0	84.5	118.4	 680	OK
 692	     0	87.5	116.8	 672	OK
 693	     0	91.2	122.1	 663	OK
 694	     0	88.0	118.4	 673	OK
 695	     0	84.7	117.0	 666	OK
 696	     0	88.7	121.1	 649	OK
 697	     0	87.9	118.6	 664	OK
 698	     0	88.2	120.9	 673	OK
 699	     0	88.2	119.6	 678	OK
 700	     0	91.6	125.7	 674	OK
 701	     0	87.4	119.1	 660	OK
 702	     0	90.5	123.2	 679	OK
 703	     0	88.8	120.4	 664	OK
 704	     0	91.2	125.1	 685	OK
 705	     0	89.3	122.4	 666	OK
 706	     0	90.2	122.8	 662	OK
 707	     0	84.5	119.3	 678	OK
 708	     0	91.3	123.6	 680	OK
 709	     0	85.6	115.5	 674	OK
 710	     0	88.1	121.5	 675	OK
 711	     0	86.0	116.4	 683	OK
 712	     0	86.1	118.8	 673	OK
 713	     0	88.6	121.6	 685	OK
 714	     0	90.8	123.0	 677	OK
 715	     0	86.0	117.5	 679	OK
 716	     0	87.1	118.7	 684	OK
 717	     0	85.7	115.9	 672	OK
 718	     0	87.2	116.7	 679	OK
 719	     0	86.8	115.8	 683	OK
 720	     0	86.7	118.0	 678	OK
 721	     0	88.3	119.9	 691	OK
 722	     0	89.9	122.4	 669	OK
 723	     0	87.7	121.2	 676	OK
 724	     0	88.6	119.0	 685	OK
 725	     0	86.2	118.8	 683	OK
 726	     0	88.4	120.5	 695	OK
 727	     0	88.4	120.7	 682	OK
 728	     0	88.0	119.3	 689	OK
 729	     0	90.8	122.9	 691	OK
 730	     0	90.9	122.3	 698	OK
 731	     0	87.7	118.4	 691	OK
 732	     0	88.5	118.0	 681	OK
 733	     0	86.8	119.8	 678	OK
 734	     0	88.2	121.3	 687	OK
 735	     0	85.1	116.6	 681	OK
 736	     0	88.6	119.8	 677	OK
 737	     0	87.9	120.5	 698	OK
 738	     0	85.5	116.5	 675	OK
 739	     0	88.3	120.4	 676	OK
 740	     0	86.6	117.5	 691	OK
 741	     0	85.3	115.3	 698	OK
 742	     0	86.8	117.8	 689	OK
 743	     0	86.0	116.2	 685	OK
 744	     0	88.7	120.3	 686	OK
 745	     0	89.1	121.9	 681	OK
 746	     0	87.2	117.4	 683	OK
 747	     0	86.0	117.8	 697	OK
 748	     0	87.0	118.8	 697	OK
 749	     0	85.8	119.3	 706	OK
 750	     0	86.7	118.4	 716	OK
 751	     0	89.8	119.9	 699	OK
 752	     0	86.8	118.0	 699	OK
 753	     0	87.3	116.6	 711	OK
 754	     0	90.3	120.5	 694	OK
 755	     0	85.4	116.8	 691	OK
 756	     0	86.1	116.6	 704	OK
 757	     0	87.5	120.5	 708	OK
 758	     0	87.9	117.4	 683	OK
 759	     0	88.8	121.3	 698	OK
 760	     0	84.0	113.9	 708	OK
 761	     0	88.3	120.7	 716	OK
 762	     0	86.3	117.6	 714	OK
 763	     0	89.0	121.9	 700	OK
 764	     0	92.4	122.0	 690	OK
 765	     0	88.3	120.5	 702	OK
 766	     0	89.5	120.9	 693	OK
 767	     0	88.1	119.8	 695	OK
 768	     0	89.3	117.0	 685	OK
 769	     0	91.4	120.4	 684	OK
 770	     0	86.6	119.0	 684	OK
 771	     0	85.3	119.2	 675	OK
 772	     0	85.1	107.3	 670	OK
 773	     0	85.0	113.4	 675	OK
 774	     0	85.1	115.9	 674	OK
 775	     0	85.2	115.5	 672	OK
 776	     0	85.8	114.4	 666	OK
 777	     0	84.0	114.4	 673	OK
 778	     0	85.1	115.0	 677	OK
 779	     0	85.9	113.2	 668	OK
 780	     0	84.2	111.6	 688	OK
 781	     0	82.8	114.0	 667	OK
 782	     0	84.9	116.0	 668	OK
 783	     0	87.0	116.9	 673	OK
 784	     0	85.8	117.1	 679	OK
 785	     0	88.3	118.8	 666	OK
 786	     0	83.7	114.5	 668	OK
 787	     0	83.6	112.7	 667	OK
 788	     0	85.8	115.7	 679	OK
 789	     0	83.3	113.3	 674	OK
 790	     0	84.0	115.2	 682	OK
 791	     0	85.8	114.1	 674	OK
 792	     0	83.5	114.2	 666	OK
 793	     0	82.7	112.3	 650	OK
 794	     0	86.1	115.2	 663	OK
 795	     0	84.7	114.1	 666	OK
 796	     0	85.3	115.4	 663	OK
 797	     0	82.5	112.9	 670	OK
 798	     0	85.8	116.6	 679	OK
 799	     0	82.8	114.9	 673	OK
 800	     0	85.1	115.4	 681	OK
 801	     0	84.3	115.4	 668	OK
 802	     0	86.2	117.4	 660	OK
 803	     0	85.4	115.7	 643	OK
 804	     0	83.9	113.8	 680	OK
 805	     0	82.8	113.8	 662	OK
 806	     0	84.4	113.2	 661	OK
 807	     0	85.1	114.9	 678	OK
 808	     0	87.9	119.8	 679	OK
 809	     0	84.5	114.5	 637	OK
 810	     0	85.5	117.6	 678	OK
 811	     0	86.4	118.0	 654	OK
 812	     0	80.7	111.6	 677	OK
 813	     0	84.2	114.1	 655	OK
 814	     0	86.4	118.6	 672	OK
 815	     0	87.9	117.1	 671	OK
 816	     0	86.0	117.8	 676	OK
 817	     0	83.6	114.4	 669	OK
 818	     0	82.3	111.7	 673	OK
 819	     0	86.8	116.3	 674	OK
 820	     0	84.6	113.7	 669	OK
 821	     0	85.5	113.3	 674	OK
 822	     0	86.5	117.1	 671	OK
 823	     0	83.9	115.3	 669	OK
 824	     0	85.8	114.7	 673	OK
 825	     0	83.6	113.0	 668	OK
 826	     0	83.7	113.8	 681	OK
 827	     0	84.6	115.8	 680	OK
 828	     0	84.7	114.2	 673	OK
 829	     0	87.3	115.7	 649	OK
 830	     0	85.2	115.7	 667	OK
 831	     0	87.1	119.7	 660	OK
 832	     0	83.7	114.9	 684	OK
 833	     0	83.2	112.6	 677	OK
 834	     0	82.2	113.1	 676	OK
 835	     0	83.2	116.9	 661	OK
 836	     0	84.0	115.8	 669	OK
 837	     0	83.7	116.6	 676	OK
 838	     0	88.3	121.4	 663	OK
 839	     0	84.8	115.7	 658	OK
 840	     0	85.9	117.4	 669	OK
 841	     0	82.1	113.3	 685	OK
 842	     0	82.3	111.0	 681	OK
 843	     0	82.4	112.2	 663	OK
 844	     0	85.4	117.1	 689	OK
 845	     0	87.6	116.9	 664	OK
 846	     0	83.1	114.4	 668	OK
 847	     0	81.7	113.4	 664	OK
 848	     0	86.4	118.5	 666	OK
 849	     0	84.1	114.8	 671	OK
 850	     0	83.4	113.9	 678	OK
 851	     0	83.0	113.5	 639	OK
 852	     0	86.0	118.0	 675	OK
 853	     0	82.9	114.4	 662	OK
 854	     0	84.0	113.6	 694	OK
 855	     0	84.2	114.9	 661	OK
 856	     0	83.9	113.3	 683	OK
 857	     0	84.3	114.6	 663	OK
 858	     0	87.4	118.4	 661	OK
 859	     0	82.5	112.0	 658	OK
 860	     0	85.7	115.0	 663	OK
 861	     0	82.4	111.5	 664	OK
 862	     0	84.4	113.7	 665	OK
 863	     0	85.8	114.6	 649	OK
 864	     0	84.1	116.5	 673	OK
 865	     0	82.5	111.5	 657	OK
 866	     0	85.5	116.4	 662	OK
 867	     0	84.5	116.7	 676	OK
 868	     0	87.4	117.4	 664	OK
 869	     0	83.0	112.3	 662	OK
 870	     0	86.2	116.5	 677	OK
 871	     0	86.3	117.5	 648	OK
 872	     0	85.3	115.3	 682	OK
 873	     0	82.5	114.1	 647	OK
 874	     0	85.6	116.2	 667	OK
 875	     0	84.2	113.2	 660	OK
 876	     0	83.8	115.1	 653	OK
 877	     0	85.5	116.5	 660	OK
 878	     0	85.7	117.4	 668	OK
 879	     0	84.7	116.1	 658	OK
 880	     0	86.4	116.2	 662	OK
 881	     0	86.9	117.8	 652	OK
 882	     0	84.9	117.6	 686	OK
 883	     0	83.6	113.0	 673	OK
 884	     0	84.2	113.5	 666	OK
 885	     0	85.7	115.8	 662	OK
 886	     0	87.5	116.8	 659	OK
 887	     0	84.5	115.7	 663	OK
 888	     0	86.7	117.2	 661	OK
 889	     0	83.7	114.9	 675	OK
 890	     0	87.6	116.4	 660	OK
 891	     0	84.2	114.9	 654	OK
 892	     0	87.0	116.0	 646	OK
 893	     0	87.4	117.7	 663	OK
 894	     0	88.3	117.4	 669	OK
 895	     0	82.7	111.6	 653	OK
 896	     0	88.5	121.3	 629	OK
 897	     0	93.0	123.5	 622	OK
 898	     0	88.4	119.1	 633	OK
 899	     0	88.8	118.7	 629	OK
 900	     0	89.8	121.8	 618	OK
 901	     0	86.6	117.4	 632	OK
 902	     0	86.9	116.0	 637	OK
 903	     0	89.8	119.0	 628	OK
 904	     0	85.8	117.2	 638	OK
 905	     0	85.1	117.6	 642	OK
 906	     0	89.4	121.8	 621	OK
 907	     0	84.3	114.7	 633	OK
 908	     0	86.3	116.6	 613	OK
 909	     0	87.0	118.5	 626	OK
 910	     0	88.6	120.5	 622	OK
 911	     0	87.3	120.3	 639	OK
 912	     0	86.2	116.8	 630	OK
 913	     0	86.7	118.9	 631	OK
 914	     0	89.4	119.2	 624	OK
 915	     0	90.8	120.6	 628	OK
 916	     0	87.7	117.5	 645	OK
 917	     0	86.5	119.9	 638	OK
 918	     0	87.4	117.7	 628	OK
 919	     0	90.0	122.2	 628	OK
 920	     0	87.0	118.5	 629	OK
 921	     0	84.5	115.1	 637	OK
 922	     0	86.7	117.9	 633	OK
 923	     0	87.3	118.1	 626	OK
 924	     0	86.7	120.1	 636	OK
 925	     0	88.6	118.6	 641	OK
 926	     0	86.6	118.1	 636	OK
 927	     0	83.6	116.1	 620	OK
 928	     0	85.6	116.1	 637	OK
 929	     0	85.1	116.8	 639	OK
 930	     0	86.3	119.6	 635	OK
 931	     0	84.6	116.1	 628	OK
 932	     0	84.4	114.4	 644	OK
 933	     0	88.2	120.5	 638	OK
 934	     0	83.8	116.5	 644	OK
 935	     0	83.7	115.0	 641	OK
 936	     0	87.4	120.1	 614	OK
 937	     0	86.1	114.9	 618	OK
 938	     0	82.4	113.5	 637	OK
 939	     0	85.9	117.1	 633	OK
 940	     0	86.2	115.8	 647	OK
 941	     0	84.9	116.3	 632	OK
 942	     0	85.6	118.1	 639	OK
 943	     0	86.6	118.5	 634	OK
 944	     0	87.4	118.8	 639	OK
 945	     0	87.9	118.3	 628	OK
 946	     0	84.0	115.3	 640	OK
 947	     0	85.8	117.4	 644	OK
 948	     0	89.2	118.6	 626	OK
 949	     0	84.2	115.3	 651	OK
 950	     0	88.9	120.8	 624	OK
 951	     0	90.0	120.4	 628	OK
 952	     0	86.0	117.2	 639	OK
 953	     0	87.3	118.5	 633	OK
 954	     0	87.9	121.0	 627	OK
 955	     0	85.0	117.5	 630	OK
 956	     0	86.5	118.6	 650	OK
 957	     0	88.1	120.8	 653	OK
 958	     0	93.3	124.4	 652	OK
 959	     0	88.7	121.2	 642	OK
 960	     0	87.4	119.6	 652	OK
 961	     0	85.6	116.8	 636	OK
 962	     0	86.6	117.3	 646	OK
 963	     0	86.0	116.5	 635	OK
 964	     0	86.0	118.1	 646	OK
 965	     0	84.8	115.5	 633	OK
 966	     0	86.5	117.7	 640	OK
 967	     0	83.3	114.0	 643	OK
 968	     0	85.4	115.8	 646	OK
 969	     0	85.8	117.3	 628	OK
 970	     0	85.0	115.2	 639	OK
 971	     0	86.6	118.0	 626	OK
 972	     0	86.9	116.7	 631	OK
 973	     0	86.9	117.1	 637	OK
 974	     0	86.7	116.5	 637	OK
 975	     0	87.3	117.8	 623	OK
 976	     0	86.8	118.9	 638	OK
 977	     0	86.1	118.3	 640	OK
 978	     0	86.5	115.6	 636	OK
 979	     0	83.5	116.3	 647	OK
 980	     0	86.0	117.9	 632	OK
 981	     0	86.1	118.7	 652	OK
 982	     0	85.7	118.1	 635	OK
 983	     0	84.9	117.1	 645	OK
 984	     0	88.1	118.5	 620	OK
 985	     0	86.1	116.4	 630	OK
 986	     0	85.6	118.1	 651	OK
 987	     0	82.7	111.5	 636	OK
 988	     0	85.7	116.2	 650	OK
 989	     0	85.0	116.5	 639	OK
 990	     0	85.3	118.0	 640	OK
 991	     0	87.8	117.0	 641	OK
 992	     0	86.9	116.4	 632	OK
 993	     0	88.3	121.4	 641	OK
 994	     0	87.8	121.4	 638	OK
 995	     0	85.9	118.5	 646	OK
 996	     0	84.7	115.5	 634	OK
 997	     0	84.9	116.9	 647	OK
 998	     0	86.5	117.6	 645	OK
 999	     0	87.2	118.7	 648	OK
1000	     0	85.9	118.0	 634	OK
1001	     0	84.2	116.6	 636	OK
1002	     0	88.5	119.4	 638	OK
1003	     0	85.6	118.9	 639	OK
1004	     0	86.0	116.1	 632	OK
1005	     0	85.4	115.4	 622	OK
1006	     0	84.5	114.7	 632	OK
1007	     0	88.5	121.5	 632	OK
1008	     0	86.6	118.4	 640	OK
1009	     0	84.3	114.7	 650	OK
1010	     0	85.3	117.1	 631	OK
1011	     0	87.2	118.0	 645	OK
1012	     0	85.3	115.9	 631	OK
1013	     0	87.9	118.8	 639	OK
1014	     0	88.8	119.7	 631	OK
1015	     0	87.6	118.7	 625	OK
1016	     0	88.4	118.8	 639	OK
1017	     0	84.2	116.9	 639	OK
1018	     0	87.2	119.8	 640	OK
1019	     0	88.7	120.8	 632	OK
1020	     0	87.7	118.3	 651	OK
1021	     0	85.3	117.9	 639	OK
1022	     0	87.9	120.2	 646	OK
1023	     0	87.5	118.3	 639	OK
1024	     0	89.8	120.3	 667	OK
1025	     0	90.7	121.1	 636	OK
1026	     0	94.7	128.7	 647	OK
1027	     0	87.4	119.9	 656	OK
1028	     0	92.5	122.6	 655	OK
1029	     0	92.6	123.0	 641	OK
1030	     0	90.1	120.4	 650	OK
1031	     0	93.8	126.4	 644	OK
1032	     0	87.4	119.7	 640	OK
1033	     0	87.9	119.8	 628	OK
1034	     0	88.0	117.8	 643	OK
1035	     0	89.3	121.1	 653	OK
1036	     0	90.3	123.2	 640	OK
1037	     0	88.7	120.4	 646	OK
1038	     0	91.2	123.5	 629	OK
1039	     0	89.6	120.9	 632	OK
1040	     0	91.1	124.3	 640	OK
1041	     0	88.3	117.2	 650	OK
1042	     0	90.6	121.2	 649	OK
1043	     0	90.2	120.5	 654	OK
1044	     0	89.8	120.8	 634	OK
1045	     0	90.3	121.9	 639	OK
1046	     0	91.2	123.4	 644	OK
1047	     0	90.7	123.2	 627	OK
1048	     0	86.8	117.6	 650	OK
1049	     0	90.0	122.6	 635	OK
1050	     0	92.5	122.9	 632	OK
1051	     0	89.3	121.4	 647	OK
1052	     0	89.6	121.2	 646	OK
1053	     0	86.3	118.9	 635	OK
1054	     0	90.5	123.5	 662	OK
1055	     0	86.0	117.2	 654	OK
1056	     0	89.0	121.0	 638	OK
1057	     0	88.5	119.1	 632	OK
1058	     0	89.5	121.6	 645	OK
1059	     0	90.1	120.8	 656	OK
1060	     0	90.4	121.2	 640	OK
1061	     0	87.8	121.5	 634	OK
1062	     0	89.7	122.7	 634	OK
1063	     0	86.8	117.2	 647	OK
1064	     0	87.2	118.0	 641	OK
1065	     0	87.9	118.8	 641	OK
1066	     0	90.2	121.0	 652	OK
1067	     0	90.7	121.9	 641	OK
1068	     0	86.5	117.1	 636	OK
1069	     0	90.8	123.8	 621	OK
1070	     0	89.6	120.1	 649	OK
1071	     0	94.6	130.1	 646	OK
1072	     0	87.2	120.5	 636	OK
1073	     0	90.1	123.6	 643	OK
1074	     0	89.3	122.7	 641	OK
1075	     0	88.3	122.0	 636	OK
1076	     0	92.1	122.9	 647	OK
1077	     0	88.7	119.1	 639	OK
1078	     0	94.2	125.7	 641	OK
1079	     0	91.9	124.8	 635	OK
1080	     0	89.2	121.2	 636	OK
1081	     0	88.6	120.5	 638	OK
1082	     0	92.6	121.6	 640	OK
1083	     0	88.9	122.4	 643	OK
1084	     0	92.3	123.4	 641	OK
1085	     0	90.6	121.0	 642	OK
1086	     0	96.1	127.8	 620	OK
1087	     0	90.3	120.8	 645	OK
1088	     0	88.0	117.8	 641	OK
1089	     0	90.5	122.5	 644	OK
1090	     0	91.8	123.6	 629	OK
1091	     0	89.2	122.8	 655	OK
1092	     0	91.4	121.1	 645	OK
1093	     0	88.6	120.6	 637	OK
1094	     0	86.1	117.0	 632	OK
1095	     0	90.0	120.6	 649	OK
1096	     0	90.6	122.8	 646	OK
1097	     0	91.5	124.8	 653	OK
1098	     0	89.7	120.9	 635	OK
1099	     0	87.8	117.9	 637	OK
1100	     0	87.0	116.6	 648	OK
1101	     0	88.4	120.2	 641	OK
1102	     0	89.2	120.5	 644	OK
1103	     0	86.9	119.3	 634	OK
1104	     0	86.6	116.9	 645	OK
1105	     0	92.7	122.8	 627	OK
1106	     0	86.3	117.0	 640	OK
1107	     0	88.0	120.2	 642	OK
1108	     0	89.2	122.3	 631	OK
1109	     0	89.1	122.9	 633	OK
1110	     0	88.8	121.4	 631	OK
1111	     0	89.4	123.2	 631	OK
1112	     0	87.4	119.9	 640	OK
1113	     0	90.3	121.9	 640	OK
1114	     0	89.1	118.0	 638	OK
1115	     0	89.7	119.4	 638	OK
1116	     0	90.7	123.7	 654	OK
1117	     0	88.1	118.3	 629	OK
1118	     0	88.0	119.7	 646	OK
1119	     0	88.4	119.2	 646	OK
1120	     0	89.9	121.5	 650	OK
1121	     0	90.4	120.9	 636	OK
1122	     0	88.4	119.5	 631	OK
1123	     0	89.5	123.1	 639	OK
1124	     0	89.8	119.2	 625	OK
1125	     0	89.6	121.6	 632	OK
1126	     0	88.0	118.2	 631	OK
1127	     0	92.1	122.4	 632	OK
1128	     0	89.2	121.5	 632	OK
1129	     0	88.0	119.8	 650	OK
1130	     0	91.9	123.2	 625	OK
1131	     0	91.3	123.8	 643	OK
1132	     0	91.0	122.2	 633	OK
1133	     0	88.7	121.4	 641	OK
1134	     0	92.0	122.1	 633	OK
1135	     0	87.6	117.7	 638	OK
1136	     0	88.9	120.8	 624	OK
1137	     0	90.5	123.3	 641	OK
1138	     0	90.9	122.6	 628	OK
1139	     0	88.3	120.2	 657	OK
1140	     0	93.0	123.7	 624	OK
1141	     0	94.1	125.1	 653	OK
1142	     0	92.2	123.2	 629	OK
1143	     0	92.2	123.8	 647	OK
1144	     0	89.0	120.5	 640	OK
1145	     0	89.3	118.4	 634	OK
1146	     0	93.2	125.7	 643	OK
1147	     0	90.5	122.5	 628	OK
1148	     0	96.6	129.9	 629	OK
1149	     0	90.8	121.9	 626	OK
1150	     0	94.3	124.7	 631	OK
1151	     0	91.9	123.6	 635	OK
1152	     0	93.9	127.1	 611	OK
1153	     0	92.5	125.3	 626	OK
1154	     0	89.8	121.5	 625	OK
1155	     0	91.0	121.8	 616	OK
1156	     0	89.7	120.3	 627	OK
1157	     0	90.1	122.8	 628	OK
1158	     0	92.5	123.6	 602	OK
1159	     0	89.9	119.7	 619	OK
1160	     0	87.6	117.5	 626	OK
1161	     0	84.6	116.0	 627	OK
1162	     0	92.4	125.2	 595	OK
1163	     0	91.1	121.5	 622	OK
1164	     0	90.0	122.6	 612	OK
1165	     0	90.7	120.7	 613	OK
1166	     0	92.9	125.5	 610	OK
1167	     0	92.1	124.2	 619	OK
1168	     0	91.0	120.5	 628	OK
1169	     0	88.4	119.1	 638	OK
1170	     0	87.1	117.8	 614	OK
1171	     0	86.5	118.6	 601	OK
1172	     0	91.1	122.5	 626	OK
1173	     0	90.3	121.5	 635	OK
1174	     0	92.4	123.8	 617	OK
1175	     0	88.8	121.0	 609	OK
1176	     0	88.4	120.4	 623	OK
1177	     0	90.1	121.1	 627	OK
1178	     0	89.4	119.4	 633	OK
1179	     0	89.8	119.2	 612	OK
1180	     0	88.6	121.8	 621	OK
1181	     0	86.9	116.1	 604	OK
1182	     0	89.7	119.9	 622	OK
1183	     0	88.5	119.7	 621	OK
1184	     0	92.9	125.9	 615	OK
1185	     0	92.2	122.8	 613	OK
1186	     0	87.4	118.6	 636	OK
1187	     0	89.9	120.6	 636	OK
1188	     0	88.1	119.8	 618	OK
1189	     0	89.5	120.3	 623	OK
1190	     0	91.4	121.8	 614	OK
1191	     0	89.5	121.3	 619	OK
1192	     0	91.5	124.6	 635	OK
1193	     0	87.4	118.1	 615	OK
1194	     0	90.8	124.9	 619	OK
1195	     0	87.8	120.8	 636	OK
1196	     0	89.0	119.7	 623	OK
1197	     0	88.1	119.5	 604	OK
1198	     0	88.2	118.3	 635	OK
1199	     0	89.7	118.9	 626	OK
1200	     0	89.5	122.7	 606	OK
1201	     0	87.5	117.1	 609	OK
1202	     0	86.3	118.7	 646	OK
1203	     0	90.4	123.4	 617	OK
1204	     0	87.1	118.6	 626	OK
1205	     0	90.8	120.9	 616	OK
1206	     0	89.0	121.4	 629	OK
1207	     0	87.6	117.2	 614	OK
1208	     0	89.1	120.7	 616	OK
1209	     0	90.5	122.1	 618	OK
1210	     0	91.2	121.1	 625	OK
1211	     0	89.5	122.0	 621	OK
1212	     0	91.7	122.8	 641	OK
1213	     0	87.5	121.2	 623	OK
1214	     0	90.0	121.8	 626	OK
1215	     0	89.4	120.3	 626	OK
1216	     0	90.0	123.3	 621	OK
1217	     0	90.0	120.7	 626	OK
1218	     0	89.6	123.9	 607	OK
1219	     0	90.3	120.8	 630	OK
1220	     0	91.9	124.3	 626	OK
1221	     0	87.6	119.5	 615	OK
1222	     0	91.0	122.7	 622	OK
1223	     0	87.4	120.6	 612	OK
1224	     0	89.4	121.4	 617	OK
1225	     0	87.3	117.7	 612	OK
1226	     0	86.3	118.5	 614	OK
1227	     0	87.0	116.3	 622	OK
1228	     0	86.5	117.8	 627	OK
1229	     0	85.4	117.9	 622	OK
1230	     0	88.0	120.0	 612	OK
1231	     0	88.3	119.2	 632	OK
1232	     0	86.3	118.6	 632	OK
1233	     0	86.1	118.5	 631	OK
1234	     0	84.7	114.6	 629	OK
1235	     0	88.1	120.7	 620	OK
1236	     0	87.8	117.5	 630	OK
1237	     0	89.0	121.6	 609	OK
1238	     0	86.5	117.4	 608	OK
1239	     0	87.7	118.3	 628	OK
1240	     0	88.5	119.3	 632	OK
1241	     0	86.5	117.6	 629	OK
1242	     0	85.0	116.0	 631	OK
1243	     0	87.7	118.9	 617	OK
1244	     0	88.7	121.9	 621	OK
1245	     0	87.1	117.4	 615	OK
1246	     0	86.0	118.0	 620	OK
1247	     0	85.8	118.5	 643	OK
1248	     0	86.5	117.1	 624	OK
1249	     0	85.0	114.7	 635	OK
1250	     0	86.1	118.9	 630	OK
1251	     0	88.0	118.4	 611	OK
1252	     0	87.0	117.4	 618	OK
1253	     0	87.7	117.8	 621	OK
1254	     0	85.5	114.8	 628	OK
1255	     0	88.6	118.7	 623	OK
1256	     0	91.3	122.1	 603	OK
1257	     0	86.2	116.4	 614	OK
1258	     0	89.2	121.0	 630	OK
1259	     0	86.5	116.4	 613	OK
1260	     0	88.0	120.0	 618	OK
1261	     0	86.2	119.3	 613	OK
1262	     0	87.2	119.5	 626	OK
1263	     0	88.5	119.9	 624	OK
1264	     0	88.6	120.4	 618	OK
1265	     0	86.0	117.3	 618	OK
1266	     0	88.0	121.1	 644	OK
1267	     0	89.1	121.5	 614	OK
1268	     0	84.2	115.8	 620	OK
1269	     0	86.1	116.3	 626	OK
1270	     0	87.8	120.0	 630	OK
1271	     0	90.3	120.9	 626	OK
1272	     0	87.2	117.6	 636	OK
1273	     0	88.1	120.1	 636	OK
1274	     0	89.2	119.8	 627	OK
1275	     0	88.5	119.3	 626	OK
1276	     0	86.4	118.4	 638	OK
1277	     0	88.4	120.7	 628	OK
1278	     0	88.0	117.7	 632	OK
1279	     0	85.3	117.7	 617	OK
1280	     0	92.8	124.4	 670	OK
1281	     0	97.7	131.0	 652	OK
1282	     0	91.0	124.5	 652	OK
1283	     0	92.7	124.0	 658	OK
1284	     0	94.7	125.3	 651	OK
1285	     0	94.8	126.0	 646	OK
1286	     0	95.1	129.0	 651	OK
1287	     0	89.4	122.0	 658	OK
1288	     0	89.0	120.1	 663	OK
1289	     0	89.6	120.2	 655	OK
1290	     0	90.8	125.1	 647	OK
1291	     0	92.6	122.5	 647	OK
1292	     0	91.9	123.3	 652	OK
1293	     0	89.7	119.1	 667	OK
1294	     0	91.1	122.8	 643	OK
1295	     0	89.7	124.1	 641	OK
1296	     0	89.5	121.6	 649	OK
1297	     0	90.0	122.4	 667	OK
1298	     0	92.3	125.3	 635	OK
1299	     0	88.3	121.2	 658	OK
1300	     0	91.4	124.6	 638	OK
1301	     0	88.6	120.5	 643	OK
1302	     0	87.0	119.7	 655	OK
1303	     0	91.7	124.6	 658	OK
1304	     0	92.9	124.6	 666	OK
1305	     0	88.9	119.0	 645	OK
1306	     0	90.2	119.5	 647	OK
1307	     0	92.5	125.5	 652	OK
1308	     0	93.0	126.1	 647	OK
1309	     0	89.0	119.9	 663	OK
1310	     0	87.7	120.0	 657	OK
1311	     0	88.1	119.6	 661	OK
1312	     0	91.1	123.2	 641	OK
1313	     0	86.9	117.1	 656	OK
1314	     0	89.4	119.8	 653	OK
1315	     0	89.1	121.6	 646	OK
1316	     0	89.9	120.6	 647	OK
1317	     0	90.1	121.5	 665	OK
1318	     0	87.3	118.3	 662	OK
1319	     0	88.5	120.1	 645	OK
1320	     0	92.1	123.0	 656	OK
1321	     0	90.9	123.1	 660	OK
1322	     0	86.1	117.7	 652	OK
1323	     0	87.6	118.8	 660	OK
1324	     0	90.5	122.4	 653	OK
1325	     0	88.9	122.3	 645	OK
1326	     0	91.9	123.8	 666	OK
1327	     0	90.0	122.2	 652	OK
1328	     0	90.1	119.1	 662	OK
1329	     0	89.3	120.9	 651	OK
1330	     0	90.9	124.6	 647	OK
1331	     0	94.7	128.5	 634	OK
1332	     0	86.9	118.3	 656	OK
1333	     0	90.6	119.6	 643	OK
1334	     0	91.7	121.7	 660	OK
1335	     0	94.7	127.8	 650	OK
1336	     0	91.3	126.2	 665	OK
1337	     0	89.5	121.2	 653	OK
1338	     0	91.2	125.0	 671	OK
1339	     0	95.0	127.6	 645	OK
1340	     0	93.1	127.4	 647	OK
1341	     0	94.1	127.9	 637	OK
1342	     0	91.2	125.7	 653	OK
1343	     0	94.0	125.7	 655	OK
1344	     0	90.5	121.0	 671	OK
1345	     0	91.0	124.7	 658	OK
1346	     0	88.0	119.4	 646	OK
1347	     0	90.5	124.4	 654	OK
1348	     0	88.2	119.6	 657	OK
1349	     0	89.5	121.6	 650	OK
1350	     0	91.0	122.0	 657	OK
1351	     0	91.2	121.5	 635	OK
1352	     0	91.8	121.8	 656	OK
1353	     0	91.2	122.5	 637	OK
1354	     0	91.9	123.8	 639	OK
1355	     0	90.5	121.3	 637	OK
1356	     0	89.0	121.0	 647	OK
1357	     0	90.2	123.4	 653	OK
1358	     0	90.6	122.6	 633	OK
1359	     0	90.9	122.1	 639	OK
1360	     0	90.7	123.4	 640	OK
1361	     0	89.5	121.2	 633	OK
1362	     0	92.6	124.9	 651	OK
1363	     0	92.6	123.6	 655	OK
1364	     0	90.4	121.8	 658	OK
1365	     0	91.7	122.7	 672	OK
1366	     0	91.0	125.4	 664	OK
1367	     0	91.5	122.8	 625	OK
1368	     0	91.4	122.7	 656	OK
1369	     0	90.3	121.9	 645	OK
1370	     0	92.3	126.8	 652	OK
1371	     0	90.5	121.9	 651	OK
1372	     0	92.8	124.2	 647	OK
1373	     0	89.6	123.8	 644	OK
1374	     0	89.1	119.5	 660	OK
1375	     0	90.3	124.4	 648	OK
1376	     0	90.2	122.5	 644	OK
1377	     0	92.4	125.7	 644	OK
1378	     0	87.6	120.1	 650	OK
1379	     0	89.6	123.0	 654	OK
1380	     0	89.4	123.1	 646	OK
1381	     0	91.2	123.6	 652	OK
1382	     0	90.4	125.0	 650	OK
1383	     0	91.1	125.1	 643	OK
1384	     0	89.8	120.3	 655	OK
1385	     0	92.4	125.8	 648	OK
1386	     0	93.5	125.7	 632	OK
1387	     0	90.1	122.9	 662	OK
1388	     0	92.7	123.2	 624	OK
1389	     0	88.3	121.4	 657	OK
1390	     0	92.6	122.8	 654	OK
1391	     0	91.4	122.3	 653	OK
1392	     0	89.9	120.6	 651	OK
1393	     0	92.2	122.5	 649	OK
1394	     0	91.9	123.5	 649	OK
1395	     0	92.4	124.1	 637	OK
1396	     0	93.2	125.0	 646	OK
1397	     0	93.0	125.4	 636	OK
1398	     0	94.4	126.0	 652	OK
1399	     0	94.7	127.4	 643	OK
1400	     0	90.6	123.2	 667	OK
1401	     0	89.4	120.2	 637	OK
1402	     0	91.3	121.7	 645	OK
1403	     0	94.2	125.3	 637	OK
1404	     0	91.7	125.8	 658	OK
1405	     0	94.7	126.7	 653	OK
1406	     0	95.3	127.4	 642	OK
1407	     0	94.8	126.0	 649	OK
1408	     0	90.6	121.6	 635	OK
1409	     0	88.4	119.6	 635	OK
1410	     0	88.5	120.6	 634	OK
1411	     0	90.8	124.1	 627	OK
1412	     0	88.9	119.9	 646	OK
1413	     0	89.2	119.6	 632	OK
1414	     0	88.4	118.0	 631	OK
1415	     0	88.7	118.9	 629	OK
1416	     0	90.1	122.5	 641	OK
1417	     0	89.4	122.7	 621	OK
1418	     0	89.9	121.4	 629	OK
1419	     0	87.3	117.8	 624	OK
1420	     0	87.4	119.2	 639	OK
1421	     0	84.6	117.0	 622	OK
1422	     0	90.5	117.2	 639	OK
1423	     0	89.7	123.9	 627	OK
1424	     0	88.0	119.2	 635	OK
1425	     0	89.0	120.4	 647	OK
1426	     0	87.3	119.1	 637	OK
1427	     0	87.5	119.4	 626	OK
1428	     0	89.1	120.2	 619	OK
1429	     0	83.4	115.7	 635	OK
1430	     0	87.8	120.0	 630	OK
1431	     0	87.2	118.3	 625	OK
1432	     0	88.7	120.8	 644	OK
1433	     0	89.4	122.1	 640	OK
1434	     0	87.8	118.2	 625	OK
1435	     0	86.2	118.4	 627	OK
1436	     0	90.7	124.6	 630	OK
1437	     0	87.5	116.1	 626	OK
1438	     0	90.0	121.7	 632	OK
1439	     0	91.0	123.8	 642	OK
1440	     0	86.7	117.5	 630	OK
1441	     0	89.8	121.9	 631	OK
1442	     0	88.8	121.3	 640	OK
1443	     0	85.6	115.8	 630	OK
1444	     0	87.8	117.5	 634	OK
1445	     0	88.0	120.5	 633	OK
1446	     0	89.7	121.0	 646	OK
1447	     0	88.7	120.0	 639	OK
1448	     0	88.5	118.2	 648	OK
1449	     0	88.2	119.2	 640	OK
1450	     0	87.2	119.2	 648	OK
1451	     0	88.3	118.9	 621	OK
1452	     0	88.4	120.5	 633	OK
1453	     0	86.6	117.6	 634	OK
1454	     0	87.6	118.0	 642	OK
1455	     0	86.9	119.6	 647	OK
1456	     0	88.2	120.1	 630	OK
1457	     0	87.8	120.5	 644	OK
1458	     0	90.3	121.2	 637	OK
1459	     0	88.6	119.1	 640	OK
1460	     0	86.9	116.9	 641	OK
1461	     0	87.1	120.4	 643	OK
1462	     0	87.5	119.8	 635	OK
1463	     0	91.7	123.9	 640	OK
1464	     0	89.5	121.4	 617	OK
1465	     0	89.3	123.7	 631	OK
1466	     0	87.7	120.0	 632	OK
1467	     0	91.5	121.9	 635	OK
1468	     0	89.2	120.9	 636	OK
1469	     0	89.2	120.2	 639	OK
1470	     0	86.3	117.4	 644	OK
1471	     0	89.0	122.3	 624	OK
1472	     0	86.8	120.3	 638	OK
1473	     0	83.0	114.0	 634	OK
1474	     0	88.1	119.1	 640	OK
1475	     0	87.4	118.0	 620	OK
1476	     0	88.3	120.9	 641	OK
1477	     0	87.1	119.1	 651	OK
1478	     0	86.5	118.6	 633	OK
1479	     0	86.5	119.2	 632	OK
1480	     0	85.9	118.0	 631	OK
1481	     0	90.2	122.2	 643	OK
1482	     0	85.1	115.6	 641	OK
1483	     0	88.1	121.2	 656	OK
1484	     0	91.6	122.7	 639	OK
1485	     0	89.5	123.4	 651	OK
1486	     0	85.7	116.9	 634	OK
1487	     0	85.6	117.3	 631	OK
1488	     0	88.5	118.4	 649	OK
1489	     0	87.8	120.3	 645	OK
1490	     0	85.3	117.2	 638	OK
1491	     0	87.7	120.1	 639	OK
1492	     0	88.7	121.0	 636	OK
1493	     0	87.9	118.7	 637	OK
1494	     0	87.4	119.4	 656	OK
1495	     0	88.8	118.4	 638	OK
1496	     0	90.2	121.7	 637	OK
1497	     0	81.9	111.9	 630	OK
1498	     0	89.9	123.4	 634	OK
1499	     0	88.2	119.3	 642	OK
1500	     0	87.2	117.9	 649	OK
1501	     0	88.4	121.7	 645	OK
1502	     0	85.4	118.9	 648	OK
1503	     0	88.9	119.3	 659	OK
1504	     0	89.3	120.4	 649	OK
1505	     0	88.3	119.5	 641	OK
1506	     0	86.1	119.3	 648	OK
1507	     0	87.8	120.3	 642	OK
1508	     0	88.2	119.1	 640	OK
1509	     0	88.4	120.0	 625	OK
1510	     0	87.6	120.6	 637	OK
1511	     0	89.5	120.2	 652	OK
1512	     0	90.0	120.6	 630	OK
1513	     0	86.9	117.1	 646	OK
1514	     0	85.4	118.7	 629	OK
1515	     0	87.3	118.6	 647	OK
1516	     0	84.9	117.7	 649	OK
1517	     0	88.4	117.5	 638	OK
1518	     0	85.5	116.4	 634	OK
1519	     0	88.9	121.3	 651	OK
1520	     0	88.0	121.5	 638	OK
1521	     0	84.3	116.3	 626	OK
1522	     0	87.0	120.6	 626	OK
1523	     0	85.1	115.3	 647	OK
1524	     0	86.3	119.7	 646	OK
1525	     0	85.1	116.2	 638	OK
1526	     0	91.7	124.5	 639	OK
1527	     0	85.5	117.0	 633	OK
1528	     0	92.8	125.6	 648	OK
1529	     0	90.1	122.2	 655	OK
1530	     0	90.1	121.1	 647	OK
1531	     0	89.2	118.8	 659	OK
1532	     0	86.7	119.3	 645	OK
1533	     0	88.5	122.0	 638	OK
1534	     0	88.2	121.9	 654	OK
1535	     0	86.4	117.0	 638	OK
